<?xml version="1.0" encoding="utf-8"?>
<COLLADA xmlns="http://www.collada.org/2005/11/COLLADASchema" version="1.4.1">
  <asset>
    <contributor>
      <author>Karl</author>
      <authoring_tool>OpenCOLLADA2011 x64</authoring_tool>
      <comments>
			ColladaMaya export options: 
			bakeTransforms=0;relativePaths=0;copyTextures=0;exportTriangles=1;exportCgfxFileReferences=1;
			isSampling=0;curveConstrainSampling=0;removeStaticCurves=1;exportPolygonMeshes=1;exportLights=0;
			exportCameras=0;exportJointsAndSkin=0;exportAnimations=0;exportInvisibleNodes=0;exportDefaultCameras=0;
			exportTexCoords=1;exportNormals=1;exportNormalsPerVertex=1;exportVertexColors=1;exportVertexColorsPerVertex=1;
			exportTexTangents=0;exportTangents=0;exportReferencedMaterials=0;exportMaterialsOnly=0;
			exportXRefs=1;dereferenceXRefs=1;exportCameraAsLookat=0;cameraXFov=0;cameraYFov=1;doublePrecision=0
		</comments>
      <source_data>file:///C:/Users/Karl/Documents/maya/projects/default/untitled</source_data>
    </contributor>
    <created>2012-06-22T13:19:19</created>
    <modified>2012-06-22T13:19:19</modified>
    <unit name="centimeter" meter="0.01"/>
    <up_axis>Y_UP</up_axis>
  </asset>
  <library_materials>
    <material id="lambert1" name="lambert1">
      <instance_effect url="#lambert1-fx"/>
    </material>
  </library_materials>
  <library_effects>
    <effect id="lambert1-fx">
      <profile_COMMON>
        <technique sid="common">
          <lambert>
            <emission>
              <color>0 0 0 1</color>
            </emission>
            <ambient>
              <color>0 0 0 1</color>
            </ambient>
            <diffuse>
              <color>0.4 0.4 0.4 1</color>
            </diffuse>
            <transparent opaque="RGB_ZERO">
              <color>0 0 0 1</color>
            </transparent>
            <transparency>
              <float>1</float>
            </transparency>
          </lambert>
        </technique>
      </profile_COMMON>
    </effect>
  </library_effects>
  <library_geometries>
    <geometry id="MeshShape" name="MeshShape">
      <mesh>
        <source id="MeshShape-positions" name="MeshShape-positions">
          <float_array id="MeshShape-positions-array" count="984">-0.009239 0 0.006287 -0.009239 0 0.014415 -0.007874 0 0.004763 -0.007874 0 0.006287 -0.007874 0 0.014415 -0.007874 0 0.015938 -0.007801 -0.001072 0.004763 -0.007801 -0.001072 0.006287 -0.007801 -0.001072 0.014415 -0.007801 -0.001072 0.015938 -0.007801 0.001072 0.004763 -0.007801 0.001072 0.006287 -0.007801 0.001072 0.014415 -0.007801 0.001072 0.015938 -0.007582 -0.002124 0.004763 -0.007582 -0.002124 0.006287 -0.007582 -0.002124 0.014415 -0.007582 -0.002124 0.015938 -0.007582 0.002124 0.004763 -0.007582 0.002124 0.006287 -0.007582 0.002124 0.014415 -0.007582 0.002124 0.015938 -0.007222 -0.003137 0.004763 -0.007222 -0.003137 0.006287 -0.007222 -0.003137 0.014415 -0.007222 -0.003137 0.015938 -0.007222 0.003137 0.004763 -0.007222 0.003137 0.006287 -0.007222 0.003137 0.014415 -0.007222 0.003137 0.015938 -0.006728 -0.004091 0.004763 -0.006728 -0.004091 0.006287 -0.006728 -0.004091 0.014415 -0.006728 -0.004091 0.015938 -0.006728 0.004091 0.004763 -0.006728 0.004091 0.006287 -0.006728 0.004091 0.014415 -0.006728 0.004091 0.015938 -0.00635 0 0 -0.00635 0 0.004763 -0.006272 -9.93e-4 0 -0.006272 -9.93e-4 0.004763 -0.006272 9.93e-4 0 -0.006272 9.93e-4 0.004763 -0.006108 -0.004969 0.004763 -0.006108 -0.004969 0.006287 -0.006108 -0.004969 0.014415 -0.006108 -0.004969 0.015938 -0.006108 0.004969 0.004763 -0.006108 0.004969 0.006287 -0.006108 0.004969 0.014415 -0.006108 0.004969 0.015938 -0.006039 -0.001962 0 -0.006039 -0.001962 0.004763 -0.006039 0.001962 0 -0.006039 0.001962 0.004763 -0.005658 -0.002883 0 -0.005658 -0.002883 0.004763 -0.005658 0.002883 0 -0.005658 0.002883 0.004763 -0.005374 -0.005755 0.004763 -0.005374 -0.005755 0.006287 -0.005374 -0.005755 0.014415 -0.005374 -0.005755 0.015938 -0.005374 0.005755 0.004763 -0.005374 0.005755 0.006287 -0.005374 0.005755 0.014415 -0.005374 0.005755 0.015938 -0.005137 -0.003732 0 -0.005137 -0.003732 0.004763 -0.005137 0.003732 0 -0.005137 0.003732 0.004763 -0.004619 -0.008001 0.006287 -0.004619 -0.008001 0.014415 -0.004619 0.008001 0.006287 -0.004619 0.008001 0.014415 -0.004541 -0.006433 0.004763 -0.004541 -0.006433 0.006287 -0.004541 -0.006433 0.014415 -0.004541 -0.006433 0.015938 -0.004541 0.006433 0.004763 -0.004541 0.006433 0.006287 -0.004541 0.006433 0.014415 -0.004541 0.006433 0.015938 -0.00449 -0.00449 0 -0.00449 -0.00449 0.004763 -0.00449 0.00449 0 -0.00449 0.00449 0.004763 -0.003732 -0.005137 0 -0.003732 -0.005137 0.004763 -0.003732 0.005137 0 -0.003732 0.005137 0.004763 -0.003623 -0.006991 0.004763 -0.003623 -0.006991 0.006287 -0.003623 -0.006991 0.014415 -0.003623 -0.006991 0.015938 -0.003623 0.006991 0.004763 -0.003623 0.006991 0.006287 -0.003623 0.006991 0.014415 -0.003623 0.006991 0.015938 -0.002883 -0.005658 0 -0.002883 -0.005658 0.004763 -0.002883 0.005658 0 -0.002883 0.005658 0.004763 -0.002637 -0.007419 0.004763 -0.002637 -0.007419 0.006287 -0.002637 -0.007419 0.014415 -0.002637 -0.007419 0.015938 -0.002637 0.007419 0.004763 -0.002637 0.007419 0.006287 -0.002637 0.007419 0.014415 -0.002637 0.007419 0.015938 -0.00254 0 0.015938 -0.00254 0 0.019748 -0.002466 -6.08e-4 0.015938 -0.002466 -6.08e-4 0.019748 -0.002466 6.08e-4 0.015938 -0.002466 6.08e-4 0.019748 -0.002249 -0.00118 0.015938 -0.002249 -0.00118 0.019748 -0.002249 0.00118 0.015938 -0.002249 0.00118 0.019748 -0.001962 -0.006039 0 -0.001962 -0.006039 0.004763 -0.001962 0.006039 0 -0.001962 0.006039 0.004763 -0.001901 -0.001684 0.015938 -0.001901 -0.001684 0.019748 -0.001901 0.001684 0.015938 -0.001901 0.001684 0.019748 -0.001602 -0.007709 0.004763 -0.001602 -0.007709 0.006287 -0.001602 -0.007709 0.014415 -0.001602 -0.007709 0.015938 -0.001602 0.007709 0.004763 -0.001602 0.007709 0.006287 -0.001602 0.007709 0.014415 -0.001602 0.007709 0.015938 -0.001443 -0.00209 0.015938 -0.001443 -0.00209 0.019748 -0.001443 0.00209 0.015938 -0.001443 0.00209 0.019748 -9.93e-4 -0.006272 0 -9.93e-4 -0.006272 0.004763 -9.93e-4 0.006272 0 -9.93e-4 0.006272 0.004763 -9.01e-4 -0.002375 0.015938 -9.01e-4 -0.002375 0.019748 -9.01e-4 0.002375 0.015938 -9.01e-4 0.002375 0.019748 -5.37e-4 -0.007856 0.004763 -5.37e-4 -0.007856 0.006287 -5.37e-4 -0.007856 0.014415 -5.37e-4 -0.007856 0.015938 -5.37e-4 0.007856 0.004763 -5.37e-4 0.007856 0.006287 -5.37e-4 0.007856 0.014415 -5.37e-4 0.007856 0.015938 -3.06e-4 -0.002521 0.015938 -3.06e-4 -0.002521 0.019748 -3.06e-4 0.002521 0.015938 -3.06e-4 0.002521 0.019748 0 -0.00635 0 0 -0.00635 0.004763 0 0.00635 0 0 0.00635 0.004763 3.06e-4 -0.002521 0.015938 3.06e-4 -0.002521 0.019748 3.06e-4 0.002521 0.015938 3.06e-4 0.002521 0.019748 5.37e-4 -0.007856 0.004763 5.37e-4 -0.007856 0.006287 5.37e-4 -0.007856 0.014415 5.37e-4 -0.007856 0.015938 5.37e-4 0.007856 0.004763 5.37e-4 0.007856 0.006287 5.37e-4 0.007856 0.014415 5.37e-4 0.007856 0.015938 9.01e-4 -0.002375 0.015938 9.01e-4 -0.002375 0.019748 9.01e-4 0.002375 0.015938 9.01e-4 0.002375 0.019748 9.93e-4 -0.006272 0 9.93e-4 -0.006272 0.004763 9.93e-4 0.006272 0 9.93e-4 0.006272 0.004763 0.001443 -0.00209 0.015938 0.001443 -0.00209 0.019748 0.001443 0.00209 0.015938 0.001443 0.00209 0.019748 0.001602 -0.007709 0.004763 0.001602 -0.007709 0.006287 0.001602 -0.007709 0.014415 0.001602 -0.007709 0.015938 0.001602 0.007709 0.004763 0.001602 0.007709 0.006287 0.001602 0.007709 0.014415 0.001602 0.007709 0.015938 0.001901 -0.001684 0.015938 0.001901 -0.001684 0.019748 0.001901 0.001684 0.015938 0.001901 0.001684 0.019748 0.001962 -0.006039 0 0.001962 -0.006039 0.004763 0.001962 0.006039 0 0.001962 0.006039 0.004763 0.002249 -0.00118 0.015938 0.002249 -0.00118 0.019748 0.002249 0.00118 0.015938 0.002249 0.00118 0.019748 0.002466 -6.08e-4 0.015938 0.002466 -6.08e-4 0.019748 0.002466 6.08e-4 0.015938 0.002466 6.08e-4 0.019748 0.00254 0 0.015938 0.00254 0 0.019748 0.002637 -0.007419 0.004763 0.002637 -0.007419 0.006287 0.002637 -0.007419 0.014415 0.002637 -0.007419 0.015938 0.002637 0.007419 0.004763 0.002637 0.007419 0.006287 0.002637 0.007419 0.014415 0.002637 0.007419 0.015938 0.002883 -0.005658 0 0.002883 -0.005658 0.004763 0.002883 0.005658 0 0.002883 0.005658 0.004763 0.003623 -0.006991 0.004763 0.003623 -0.006991 0.006287 0.003623 -0.006991 0.014415 0.003623 -0.006991 0.015938 0.003623 0.006991 0.004763 0.003623 0.006991 0.006287 0.003623 0.006991 0.014415 0.003623 0.006991 0.015938 0.003732 -0.005137 0 0.003732 -0.005137 0.004763 0.003732 0.005137 0 0.003732 0.005137 0.004763 0.00449 -0.00449 0 0.00449 -0.00449 0.004763 0.00449 0.00449 0 0.00449 0.00449 0.004763 0.004541 -0.006433 0.004763 0.004541 -0.006433 0.006287 0.004541 -0.006433 0.014415 0.004541 -0.006433 0.015938 0.004541 0.006433 0.004763 0.004541 0.006433 0.006287 0.004541 0.006433 0.014415 0.004541 0.006433 0.015938 0.004619 -0.008001 0.006287 0.004619 -0.008001 0.014415 0.004619 0.008001 0.006287 0.004619 0.008001 0.014415 0.005137 -0.003732 0 0.005137 -0.003732 0.004763 0.005137 0.003732 0 0.005137 0.003732 0.004763 0.005374 -0.005755 0.004763 0.005374 -0.005755 0.006287 0.005374 -0.005755 0.014415 0.005374 -0.005755 0.015938 0.005374 0.005755 0.004763 0.005374 0.005755 0.006287 0.005374 0.005755 0.014415 0.005374 0.005755 0.015938 0.005658 -0.002883 0 0.005658 -0.002883 0.004763 0.005658 0.002883 0 0.005658 0.002883 0.004763 0.006039 -0.001962 0 0.006039 -0.001962 0.004763 0.006039 0.001962 0 0.006039 0.001962 0.004763 0.006108 -0.004969 0.004763 0.006108 -0.004969 0.006287 0.006108 -0.004969 0.014415 0.006108 -0.004969 0.015938 0.006108 0.004969 0.004763 0.006108 0.004969 0.006287 0.006108 0.004969 0.014415 0.006108 0.004969 0.015938 0.006272 -9.93e-4 0 0.006272 -9.93e-4 0.004763 0.006272 9.93e-4 0 0.006272 9.93e-4 0.004763 0.00635 0 0 0.00635 0 0.004763 0.006728 -0.004091 0.004763 0.006728 -0.004091 0.006287 0.006728 -0.004091 0.014415 0.006728 -0.004091 0.015938 0.006728 0.004091 0.004763 0.006728 0.004091 0.006287 0.006728 0.004091 0.014415 0.006728 0.004091 0.015938 0.007222 -0.003137 0.004763 0.007222 -0.003137 0.006287 0.007222 -0.003137 0.014415 0.007222 -0.003137 0.015938 0.007222 0.003137 0.004763 0.007222 0.003137 0.006287 0.007222 0.003137 0.014415 0.007222 0.003137 0.015938 0.007582 -0.002124 0.004763 0.007582 -0.002124 0.006287 0.007582 -0.002124 0.014415 0.007582 -0.002124 0.015938 0.007582 0.002124 0.004763 0.007582 0.002124 0.006287 0.007582 0.002124 0.014415 0.007582 0.002124 0.015938 0.007801 -0.001072 0.004763 0.007801 -0.001072 0.006287 0.007801 -0.001072 0.014415 0.007801 -0.001072 0.015938 0.007801 0.001072 0.004763 0.007801 0.001072 0.006287 0.007801 0.001072 0.014415 0.007801 0.001072 0.015938 0.007874 0 0.004763 0.007874 0 0.006287 0.007874 0 0.014415 0.007874 0 0.015938 0.009239 0 0.006287 0.009239 0 0.014415</float_array>
          <technique_common>
            <accessor source="#MeshShape-positions-array" count="328" stride="3">
              <param name="X" type="float"/>
              <param name="Y" type="float"/>
              <param name="Z" type="float"/>
            </accessor>
          </technique_common>
        </source>
        <source id="MeshShape-normals" name="MeshShape-normals">
          <float_array id="MeshShape-normals-array" count="5868">-0.6148891 -0.024946 0.7882191 -0.3602681 0.01461601 0.9327344 -0.3532169 -0.07210498 0.9327586 -0.6148891 -0.024946 0.7882191 -0.3532169 -0.07210498 0.9327586 -0.7585679 -0.21995 0.613349 -0.7585679 -0.21995 0.613349 -0.3532169 -0.07210498 0.9327586 -0.4457929 -0.2115349 0.8697827 -0.7585679 -0.21995 0.613349 -0.4457929 -0.2115349 0.8697827 -0.7106144 -0.4106272 0.5713253 -0.7106144 -0.4106272 0.5713253 -0.4457929 -0.2115349 0.8697827 -0.2792771 -0.2279251 0.9327672 -0.7106144 -0.4106272 0.5713253 -0.2792771 -0.2279251 0.9327672 -0.5566121 -0.5346181 0.6358982 -0.5566121 -0.5346181 0.6358982 -0.2792771 -0.2279251 0.9327672 -0.2167531 -0.2880821 0.9327524 -0.5566121 -0.5346181 0.6358982 -0.2167531 -0.2880821 0.9327524 -0.5347729 -0.8448978 0.012874 -0.5347729 -0.8448978 0.012874 -0.2167531 -0.2880821 0.9327524 -0.1414091 -0.3316012 0.9327615 -0.5347729 -0.8448978 0.012874 -0.1414091 -0.3316012 0.9327615 -0.2630662 -0.7896535 0.5542954 -0.2630662 -0.7896535 0.5542954 -0.1414091 -0.3316012 0.9327615 -0.07894301 -0.487175 0.8697291 -0.2630662 -0.7896535 0.5542954 -0.07894301 -0.487175 0.8697291 -0.07526699 -0.9377479 0.339063 -0.07526699 -0.9377479 0.339063 -0.07894301 -0.487175 0.8697291 0.02884599 -0.3593919 0.9327407 -0.07526699 -0.9377479 0.339063 0.02884599 -0.3593919 0.9327407 0.1599429 -0.9870427 0.01284599 0.1599429 -0.9870427 0.01284599 0.02884599 -0.3593919 0.9327407 0.113955 -0.342062 0.9327421 0.1599429 -0.9870427 0.01284599 0.113955 -0.342062 0.9327421 0.3811978 -0.8938977 0.2358709 0.3811978 -0.8938977 0.2358709 0.113955 -0.342062 0.9327421 0.192841 -0.304672 0.9327311 0.3811978 -0.8938977 0.2358709 0.192841 -0.304672 0.9327311 0.601177 -0.7990121 0.012877 0.601177 -0.7990121 0.012877 0.192841 -0.304672 0.9327311 0.3558411 -0.3417811 0.8698062 0.601177 -0.7990121 0.012877 0.3558411 -0.3417811 0.8698062 0.7737413 -0.6314692 0.05070602 0.7737413 -0.6314692 0.05070602 0.3558411 -0.3417811 0.8698062 0.3122552 -0.1804361 0.9327055 0.7737413 -0.6314692 0.05070602 0.3122552 -0.1804361 0.9327055 0.263473 -0.125022 0.956531 0.263473 -0.125022 0.956531 0.3122552 -0.1804361 0.9327055 0.346123 -0.10036 0.9328059 0.263473 -0.125022 0.956531 0.346123 -0.10036 0.9328059 0.737352 -0.150522 0.658525 0.737352 -0.150522 0.658525 0.346123 -0.10036 0.9328059 0.3602681 -0.01461601 0.9327344 0.737352 -0.150522 0.658525 0.3602681 -0.01461601 0.9327344 0.6373978 0.02585899 0.7701008 0.6373978 0.02585899 0.7701008 0.3602681 -0.01461601 0.9327344 0.3532169 0.07210498 0.9327586 0.6373978 0.02585899 0.7701008 0.3532169 0.07210498 0.9327586 0.9603611 0.278461 0.012892 0.9603611 0.278461 0.012892 0.3532169 0.07210498 0.9327586 0.4457929 0.2115349 0.8697827 0.9603611 0.278461 0.012892 0.4457929 0.2115349 0.8697827 0.5817419 0.336158 0.7406579 0.5817419 0.336158 0.7406579 0.4457929 0.2115349 0.8697827 0.2792771 0.2279251 0.9327672 0.5817419 0.336158 0.7406579 0.2792771 0.2279251 0.9327672 0.5566654 0.5346693 0.6358085 0.5566654 0.5346693 0.6358085 0.2792771 0.2279251 0.9327672 0.2167531 0.2880821 0.9327524 0.5566654 0.5346693 0.6358085 0.2167531 0.2880821 0.9327524 0.4766609 0.7530848 0.4534949 0.4766609 0.7530848 0.4534949 0.2167531 0.2880821 0.9327524 0.1414091 0.3316012 0.9327615 0.4766609 0.7530848 0.4534949 0.1414091 0.3316012 0.9327615 0.3080269 0.9246146 0.2240699 0.3080269 0.9246146 0.2240699 0.1414091 0.3316012 0.9327615 0.07894301 0.487175 0.8697291 0.3080269 0.9246146 0.2240699 0.07894301 0.487175 0.8697291 0.079904 0.9955161 0.05062701 0.079904 0.9955161 0.05062701 0.07894301 0.487175 0.8697291 -0.02884599 0.3593919 0.9327407 0.079904 0.9955161 0.05062701 -0.02884599 0.3593919 0.9327407 -0.1599429 0.9870427 0.01284599 -0.1599429 0.9870427 0.01284599 -0.02884599 0.3593919 0.9327407 -0.113955 0.342062 0.9327421 -0.1599429 0.9870427 0.01284599 -0.113955 0.342062 0.9327421 -0.3892589 0.9128017 0.123574 -0.3892589 0.9128017 0.123574 -0.113955 0.342062 0.9327421 -0.192841 0.304672 0.9327311 -0.3892589 0.9128017 0.123574 -0.192841 0.304672 0.9327311 -0.5655531 0.7516641 0.339339 -0.5655531 0.7516641 0.339339 -0.192841 0.304672 0.9327311 -0.3558411 0.3417811 0.8698062 -0.5655531 0.7516641 0.339339 -0.3558411 0.3417811 0.8698062 -0.644805 0.5262409 0.5543439 -0.644805 0.5262409 0.5543439 -0.3558411 0.3417811 0.8698062 -0.3122552 0.1804361 0.9327055 -0.644805 0.5262409 0.5543439 -0.3122552 0.1804361 0.9327055 -0.2760361 0.1309831 0.9521805 -0.2760361 0.1309831 0.9521805 -0.3122552 0.1804361 0.9327055 -0.346123 0.10036 0.9328059 -0.2760361 0.1309831 0.9521805 -0.346123 0.10036 0.9328059 -0.9797118 0.1999969 0.012887 -0.9797118 0.1999969 0.012887 -0.346123 0.10036 0.9328059 -0.3602681 0.01461601 0.9327344 -0.9797118 0.1999969 0.012887 -0.3602681 0.01461601 0.9327344 -0.6148891 -0.024946 0.7882191 -0.3532169 -0.07210498 0.9327586 -0.2869549 -0.1324259 0.9487466 -0.4457929 -0.2115349 0.8697827 -0.4457929 -0.2115349 0.8697827 -0.2869549 -0.1324259 0.9487466 -0.266169 -0.170309 0.9487618 -0.4457929 -0.2115349 0.8697827 -0.266169 -0.170309 0.9487618 -0.2792771 -0.2279251 0.9327672 -0.3602681 0.01461601 0.9327344 -0.3119769 -0.05019499 0.9487628 -0.3532169 -0.07210498 0.9327586 -0.3532169 -0.07210498 0.9327586 -0.3119769 -0.05019499 0.9487628 -0.3765972 -0.114888 0.9192254 -0.3532169 -0.07210498 0.9327586 -0.3765972 -0.114888 0.9192254 -0.2869549 -0.1324259 0.9487466 -0.1414091 -0.3316012 0.9327615 -0.05734299 -0.310773 0.9487529 -0.07894301 -0.487175 0.8697291 -0.07894301 -0.487175 0.8697291 -0.05734299 -0.310773 0.9487529 -0.01444 -0.3156079 0.9487798 -0.07894301 -0.487175 0.8697291 -0.01444 -0.3156079 0.9487798 0.02884599 -0.3593919 0.9327407 0.3602681 -0.01461601 0.9327344 0.346123 -0.10036 0.9328059 0.313942 -0.035854 0.948765 0.3122552 -0.1804361 0.9327055 0.2927442 -0.1192591 0.9487245 0.346123 -0.10036 0.9328059 0.346123 -0.10036 0.9328059 0.2927442 -0.1192591 0.9487245 0.381379 -0.097639 0.919248 0.346123 -0.10036 0.9328059 0.381379 -0.097639 0.919248 0.313942 -0.035854 0.948765 0.192841 -0.304672 0.9327311 0.221 -0.226009 0.948725 0.3558411 -0.3417811 0.8698062 0.3558411 -0.3417811 0.8698062 0.221 -0.226009 0.948725 0.2495541 -0.1937931 0.9487714 0.3558411 -0.3417811 0.8698062 0.2495541 -0.1937931 0.9487714 0.3122552 -0.1804361 0.9327055 0.3122552 -0.1804361 0.9327055 0.2495541 -0.1937931 0.9487714 0.3407391 -0.1966651 0.9193584 0.3122552 -0.1804361 0.9327055 0.3407391 -0.1966651 0.9193584 0.2927442 -0.1192591 0.9487245 -0.01444 -0.3156079 0.9487798 0.035964 -0.391932 0.919291 0.02884599 -0.3593919 0.9327407 0.02884599 -0.3593919 0.9327407 0.035964 -0.391932 0.919291 0.07138499 -0.3078299 0.9487597 0.02884599 -0.3593919 0.9327407 0.07138499 -0.3078299 0.9487597 0.113955 -0.342062 0.9327421 -0.2167531 -0.2880821 0.9327524 -0.138899 -0.283888 0.9487438 -0.1414091 -0.3316012 0.9327615 -0.1414091 -0.3316012 0.9327615 -0.138899 -0.283888 0.9487438 -0.123348 -0.3739611 0.9192054 -0.1414091 -0.3316012 0.9327615 -0.123348 -0.3739611 0.9192054 -0.05734299 -0.310773 0.9487529 -0.346123 0.10036 0.9328059 -0.313942 0.035854 0.948765 -0.3602681 0.01461601 0.9327344 -0.3602681 0.01461601 0.9327344 -0.313942 0.035854 0.948765 -0.393685 -0.008936 0.919202 -0.3602681 0.01461601 0.9327344 -0.393685 -0.008936 0.919202 -0.3119769 -0.05019499 0.9487628 0.07138499 -0.3078299 0.9487597 0.1402351 -0.3679641 0.9192044 0.113955 -0.342062 0.9327421 0.113955 -0.342062 0.9327421 0.1402351 -0.3679641 0.9192044 0.1516719 -0.2772129 0.9487616 0.113955 -0.342062 0.9327421 0.1516719 -0.2772129 0.9487616 0.192841 -0.304672 0.9327311 0.192841 -0.304672 0.9327311 0.1516719 -0.2772129 0.9487616 0.234356 -0.316393 0.919224 0.192841 -0.304672 0.9327311 0.234356 -0.316393 0.919224 0.221 -0.226009 0.948725 -0.3122552 0.1804361 0.9327055 -0.2927442 0.1192591 0.9487245 -0.346123 0.10036 0.9328059 -0.346123 0.10036 0.9328059 -0.2927442 0.1192591 0.9487245 -0.381379 0.097639 0.919248 -0.346123 0.10036 0.9328059 -0.381379 0.097639 0.919248 -0.313942 0.035854 0.948765 -0.192841 0.304672 0.9327311 -0.221 0.226009 0.948725 -0.3558411 0.3417811 0.8698062 -0.3558411 0.3417811 0.8698062 -0.221 0.226009 0.948725 -0.2495541 0.1937931 0.9487714 -0.3558411 0.3417811 0.8698062 -0.2495541 0.1937931 0.9487714 -0.3122552 0.1804361 0.9327055 -0.3122552 0.1804361 0.9327055 -0.2495541 0.1937931 0.9487714 -0.3407391 0.1966651 0.9193584 -0.3122552 0.1804361 0.9327055 -0.3407391 0.1966651 0.9193584 -0.2927442 0.1192591 0.9487245 0.3532169 0.07210498 0.9327586 0.2869549 0.1324259 0.9487466 0.4457929 0.2115349 0.8697827 0.4457929 0.2115349 0.8697827 0.2869549 0.1324259 0.9487466 0.266169 0.170309 0.9487618 0.4457929 0.2115349 0.8697827 0.266169 0.170309 0.9487618 0.2792771 0.2279251 0.9327672 0.313942 -0.035854 0.948765 0.393685 0.008936 0.919202 0.3602681 -0.01461601 0.9327344 0.3602681 -0.01461601 0.9327344 0.393685 0.008936 0.919202 0.3119769 0.05019499 0.9487628 0.3602681 -0.01461601 0.9327344 0.3119769 0.05019499 0.9487628 0.3532169 0.07210498 0.9327586 0.3532169 0.07210498 0.9327586 0.3119769 0.05019499 0.9487628 0.3765972 0.114888 0.9192254 0.3532169 0.07210498 0.9327586 0.3765972 0.114888 0.9192254 0.2869549 0.1324259 0.9487466 -0.266169 -0.170309 0.9487618 -0.2996131 -0.255343 0.9192562 -0.2792771 -0.2279251 0.9327672 -0.2792771 -0.2279251 0.9327672 -0.2996131 -0.255343 0.9192562 -0.210401 -0.235743 0.9487659 -0.2792771 -0.2279251 0.9327672 -0.210401 -0.235743 0.9487659 -0.2167531 -0.2880821 0.9327524 -0.2167531 -0.2880821 0.9327524 -0.210401 -0.235743 0.9487659 -0.2196601 -0.3267971 0.9192134 -0.2167531 -0.2880821 0.9327524 -0.2196601 -0.3267971 0.9192134 -0.138899 -0.283888 0.9487438 -0.113955 0.342062 0.9327421 -0.1516719 0.2772129 0.9487616 -0.192841 0.304672 0.9327311 -0.192841 0.304672 0.9327311 -0.1516719 0.2772129 0.9487616 -0.234356 0.316393 0.919224 -0.192841 0.304672 0.9327311 -0.234356 0.316393 0.919224 -0.221 0.226009 0.948725 -0.02884599 0.3593919 0.9327407 -0.07138499 0.3078299 0.9487597 -0.113955 0.342062 0.9327421 -0.113955 0.342062 0.9327421 -0.07138499 0.3078299 0.9487597 -0.1402351 0.3679641 0.9192044 -0.113955 0.342062 0.9327421 -0.1402351 0.3679641 0.9192044 -0.1516719 0.2772129 0.9487616 0.1414091 0.3316012 0.9327615 0.05734299 0.310773 0.9487529 0.07894301 0.487175 0.8697291 0.07894301 0.487175 0.8697291 0.05734299 0.310773 0.9487529 0.01444 0.3156079 0.9487798 0.07894301 0.487175 0.8697291 0.01444 0.3156079 0.9487798 -0.02884599 0.3593919 0.9327407 -0.02884599 0.3593919 0.9327407 0.01444 0.3156079 0.9487798 -0.035964 0.391932 0.919291 -0.02884599 0.3593919 0.9327407 -0.035964 0.391932 0.919291 -0.07138499 0.3078299 0.9487597 0.2167531 0.2880821 0.9327524 0.138899 0.283888 0.9487438 0.1414091 0.3316012 0.9327615 0.1414091 0.3316012 0.9327615 0.138899 0.283888 0.9487438 0.123348 0.3739611 0.9192054 0.1414091 0.3316012 0.9327615 0.123348 0.3739611 0.9192054 0.05734299 0.310773 0.9487529 0.266169 0.170309 0.9487618 0.2996131 0.255343 0.9192562 0.2792771 0.2279251 0.9327672 0.2792771 0.2279251 0.9327672 0.2996131 0.255343 0.9192562 0.210401 0.235743 0.9487659 0.2792771 0.2279251 0.9327672 0.210401 0.235743 0.9487659 0.2167531 0.2880821 0.9327524 0.2167531 0.2880821 0.9327524 0.210401 0.235743 0.9487659 0.2196601 0.3267971 0.9192134 0.2167531 0.2880821 0.9327524 0.2196601 0.3267971 0.9192134 0.138899 0.283888 0.9487438 -0.393685 -0.008936 0.919202 -0.8582739 0.019482 0.5128219 -0.8670399 -0.09901998 0.4882999 -0.393685 -0.008936 0.919202 -0.8670399 -0.09901998 0.4882999 -0.3119769 -0.05019499 0.9487628 -0.3119769 -0.05019499 0.9487628 -0.8670399 -0.09901998 0.4882999 -0.88432 -0.2264 0.408315 -0.3119769 -0.05019499 0.9487628 -0.88432 -0.2264 0.408315 -0.3765972 -0.114888 0.9192254 -0.3765972 -0.114888 0.9192254 -0.88432 -0.2264 0.408315 -0.895663 -0.364877 0.254269 -0.3765972 -0.114888 0.9192254 -0.895663 -0.364877 0.254269 -0.2869549 -0.1324259 0.9487466 -0.2869549 -0.1324259 0.9487466 -0.895663 -0.364877 0.254269 -0.7938472 -0.4581861 0.3998401 -0.2869549 -0.1324259 0.9487466 -0.7938472 -0.4581861 0.3998401 -0.266169 -0.170309 0.9487618 -0.266169 -0.170309 0.9487618 -0.7938472 -0.4581861 0.3998401 -0.7495766 -0.5820867 0.3151349 -0.266169 -0.170309 0.9487618 -0.7495766 -0.5820867 0.3151349 -0.2996131 -0.255343 0.9192562 -0.2996131 -0.255343 0.9192562 -0.7495766 -0.5820867 0.3151349 -0.6271873 -0.6414042 0.4418561 -0.2996131 -0.255343 0.9192562 -0.6271873 -0.6414042 0.4418561 -0.210401 -0.235743 0.9487659 -0.210401 -0.235743 0.9487659 -0.6271873 -0.6414042 0.4418561 -0.5148111 -0.6950222 0.5019101 -0.210401 -0.235743 0.9487659 -0.5148111 -0.6950222 0.5019101 -0.2196601 -0.3267971 0.9192134 -0.2196601 -0.3267971 0.9192134 -0.5148111 -0.6950222 0.5019101 -0.412856 -0.754586 0.510049 -0.2196601 -0.3267971 0.9192134 -0.412856 -0.754586 0.510049 -0.138899 -0.283888 0.9487438 -0.138899 -0.283888 0.9487438 -0.412856 -0.754586 0.510049 -0.3146149 -0.8255206 0.4685438 -0.138899 -0.283888 0.9487438 -0.3146149 -0.8255206 0.4685438 -0.123348 -0.3739611 0.9192054 -0.123348 -0.3739611 0.9192054 -0.3146149 -0.8255206 0.4685438 -0.210171 -0.9063058 0.3666579 -0.123348 -0.3739611 0.9192054 -0.210171 -0.9063058 0.3666579 -0.05734299 -0.310773 0.9487529 -0.05734299 -0.310773 0.9487529 -0.210171 -0.9063058 0.3666579 -0.08984002 -0.9790692 0.182626 -0.05734299 -0.310773 0.9487529 -0.08984002 -0.9790692 0.182626 -0.01444 -0.3156079 0.9487798 -0.01444 -0.3156079 0.9487798 -0.08984002 -0.9790692 0.182626 0.04153297 -0.9077945 0.4173537 -0.01444 -0.3156079 0.9487798 0.04153297 -0.9077945 0.4173537 0.035964 -0.391932 0.919291 0.035964 -0.391932 0.919291 0.04153297 -0.9077945 0.4173537 0.1688201 -0.9149203 0.3666341 0.035964 -0.391932 0.919291 0.1688201 -0.9149203 0.3666341 0.07138499 -0.3078299 0.9487597 0.07138499 -0.3078299 0.9487597 0.1688201 -0.9149203 0.3666341 0.276731 -0.8389779 0.4685469 0.07138499 -0.3078299 0.9487597 0.276731 -0.8389779 0.4685469 0.1402351 -0.3679641 0.9192044 0.1402351 -0.3679641 0.9192044 0.276731 -0.8389779 0.4685469 0.3780429 -0.7726618 0.5099779 0.1402351 -0.3679641 0.9192044 0.3780429 -0.7726618 0.5099779 0.1516719 -0.2772129 0.9487616 0.1516719 -0.2772129 0.9487616 0.3780429 -0.7726618 0.5099779 0.4825081 -0.7178442 0.5018821 0.1516719 -0.2772129 0.9487616 0.4825081 -0.7178442 0.5018821 0.234356 -0.316393 0.919224 0.234356 -0.316393 0.919224 0.4825081 -0.7178442 0.5018821 0.5972901 -0.6692322 0.4420101 0.234356 -0.316393 0.919224 0.5972901 -0.6692322 0.4420101 0.221 -0.226009 0.948725 0.221 -0.226009 0.948725 0.5972901 -0.6692322 0.4420101 0.7223282 -0.6156011 0.3150831 0.221 -0.226009 0.948725 0.7223282 -0.6156011 0.3150831 0.2495541 -0.1937931 0.9487714 0.2495541 -0.1937931 0.9487714 0.7223282 -0.6156011 0.3150831 0.772085 -0.494021 0.399785 0.2495541 -0.1937931 0.9487714 0.772085 -0.494021 0.399785 0.3407391 -0.1966651 0.9193584 0.3407391 -0.1966651 0.9193584 0.772085 -0.494021 0.399785 0.8781224 -0.4052412 0.2543241 0.3407391 -0.1966651 0.9193584 0.8781224 -0.4052412 0.2543241 0.2927442 -0.1192591 0.9487245 0.2927442 -0.1192591 0.9487245 0.8781224 -0.4052412 0.2543241 0.8731393 -0.2663671 0.4082601 0.2927442 -0.1192591 0.9487245 0.8731393 -0.2663671 0.4082601 0.381379 -0.097639 0.919248 0.381379 -0.097639 0.919248 0.8731393 -0.2663671 0.4082601 0.8615997 -0.1386259 0.4882918 0.381379 -0.097639 0.919248 0.8615997 -0.1386259 0.4882918 0.313942 -0.035854 0.948765 0.313942 -0.035854 0.948765 0.8615997 -0.1386259 0.4882918 0.8582739 -0.019482 0.5128219 0.313942 -0.035854 0.948765 0.8582739 -0.019482 0.5128219 0.393685 0.008936 0.919202 0.393685 0.008936 0.919202 0.8582739 -0.019482 0.5128219 0.8670399 0.09901998 0.4882999 0.393685 0.008936 0.919202 0.8670399 0.09901998 0.4882999 0.3119769 0.05019499 0.9487628 0.3119769 0.05019499 0.9487628 0.8670399 0.09901998 0.4882999 0.88432 0.2264 0.408315 0.3119769 0.05019499 0.9487628 0.88432 0.2264 0.408315 0.3765972 0.114888 0.9192254 0.3765972 0.114888 0.9192254 0.88432 0.2264 0.408315 0.895663 0.364877 0.254269 0.3765972 0.114888 0.9192254 0.895663 0.364877 0.254269 0.2869549 0.1324259 0.9487466 0.2869549 0.1324259 0.9487466 0.895663 0.364877 0.254269 0.7938472 0.4581861 0.3998401 0.2869549 0.1324259 0.9487466 0.7938472 0.4581861 0.3998401 0.266169 0.170309 0.9487618 0.266169 0.170309 0.9487618 0.7938472 0.4581861 0.3998401 0.7495766 0.5820867 0.3151349 0.266169 0.170309 0.9487618 0.7495766 0.5820867 0.3151349 0.2996131 0.255343 0.9192562 0.2996131 0.255343 0.9192562 0.7495766 0.5820867 0.3151349 0.6271873 0.6414042 0.4418561 0.2996131 0.255343 0.9192562 0.6271873 0.6414042 0.4418561 0.210401 0.235743 0.9487659 0.210401 0.235743 0.9487659 0.6271873 0.6414042 0.4418561 0.5148111 0.6950222 0.5019101 0.210401 0.235743 0.9487659 0.5148111 0.6950222 0.5019101 0.2196601 0.3267971 0.9192134 0.2196601 0.3267971 0.9192134 0.5148111 0.6950222 0.5019101 0.412856 0.754586 0.510049 0.2196601 0.3267971 0.9192134 0.412856 0.754586 0.510049 0.138899 0.283888 0.9487438 0.138899 0.283888 0.9487438 0.412856 0.754586 0.510049 0.3146149 0.8255206 0.4685438 0.138899 0.283888 0.9487438 0.3146149 0.8255206 0.4685438 0.123348 0.3739611 0.9192054 0.123348 0.3739611 0.9192054 0.3146149 0.8255206 0.4685438 0.210171 0.9063058 0.3666579 0.123348 0.3739611 0.9192054 0.210171 0.9063058 0.3666579 0.05734299 0.310773 0.9487529 0.05734299 0.310773 0.9487529 0.210171 0.9063058 0.3666579 0.08984002 0.9790692 0.182626 0.05734299 0.310773 0.9487529 0.08984002 0.9790692 0.182626 0.01444 0.3156079 0.9487798 0.01444 0.3156079 0.9487798 0.08984002 0.9790692 0.182626 -0.04153297 0.9077945 0.4173537 0.01444 0.3156079 0.9487798 -0.04153297 0.9077945 0.4173537 -0.035964 0.391932 0.919291 -0.035964 0.391932 0.919291 -0.04153297 0.9077945 0.4173537 -0.1688201 0.9149203 0.3666341 -0.035964 0.391932 0.919291 -0.1688201 0.9149203 0.3666341 -0.07138499 0.3078299 0.9487597 -0.07138499 0.3078299 0.9487597 -0.1688201 0.9149203 0.3666341 -0.276731 0.8389779 0.4685469 -0.07138499 0.3078299 0.9487597 -0.276731 0.8389779 0.4685469 -0.1402351 0.3679641 0.9192044 -0.1402351 0.3679641 0.9192044 -0.276731 0.8389779 0.4685469 -0.3780429 0.7726618 0.5099779 -0.1402351 0.3679641 0.9192044 -0.3780429 0.7726618 0.5099779 -0.1516719 0.2772129 0.9487616 -0.1516719 0.2772129 0.9487616 -0.3780429 0.7726618 0.5099779 -0.4825081 0.7178442 0.5018821 -0.1516719 0.2772129 0.9487616 -0.4825081 0.7178442 0.5018821 -0.234356 0.316393 0.919224 -0.234356 0.316393 0.919224 -0.4825081 0.7178442 0.5018821 -0.5972901 0.6692322 0.4420101 -0.234356 0.316393 0.919224 -0.5972901 0.6692322 0.4420101 -0.221 0.226009 0.948725 -0.221 0.226009 0.948725 -0.5972901 0.6692322 0.4420101 -0.7223282 0.6156011 0.3150831 -0.221 0.226009 0.948725 -0.7223282 0.6156011 0.3150831 -0.2495541 0.1937931 0.9487714 -0.2495541 0.1937931 0.9487714 -0.7223282 0.6156011 0.3150831 -0.772085 0.494021 0.399785 -0.2495541 0.1937931 0.9487714 -0.772085 0.494021 0.399785 -0.3407391 0.1966651 0.9193584 -0.3407391 0.1966651 0.9193584 -0.772085 0.494021 0.399785 -0.8781224 0.4052412 0.2543241 -0.3407391 0.1966651 0.9193584 -0.8781224 0.4052412 0.2543241 -0.2927442 0.1192591 0.9487245 -0.2927442 0.1192591 0.9487245 -0.8781224 0.4052412 0.2543241 -0.8731393 0.2663671 0.4082601 -0.2927442 0.1192591 0.9487245 -0.8731393 0.2663671 0.4082601 -0.381379 0.097639 0.919248 -0.381379 0.097639 0.919248 -0.8731393 0.2663671 0.4082601 -0.8615997 0.1386259 0.4882918 -0.381379 0.097639 0.919248 -0.8615997 0.1386259 0.4882918 -0.313942 0.035854 0.948765 -0.313942 0.035854 0.948765 -0.8615997 0.1386259 0.4882918 -0.8582739 0.019482 0.5128219 -0.313942 0.035854 0.948765 -0.8582739 0.019482 0.5128219 -0.393685 -0.008936 0.919202 0.8615997 -0.1386259 0.4882918 0.8731393 -0.2663671 0.4082601 0.9806231 -0.188746 0.05247301 -0.9806231 0.188746 0.05247301 -0.88432 -0.2264 0.408315 -0.8670399 -0.09901998 0.4882999 -0.5972901 0.6692322 0.4420101 -0.4825081 0.7178442 0.5018821 -0.3268949 0.9436268 0.05204099 -0.3268949 0.9436268 0.05204099 -0.4825081 0.7178442 0.5018821 -0.3780429 0.7726618 0.5099779 -0.3268949 0.9436268 0.05204099 -0.3780429 0.7726618 0.5099779 -0.276731 0.8389779 0.4685469 0.5972901 -0.6692322 0.4420101 0.4825081 -0.7178442 0.5018821 0.3268949 -0.9436268 0.05204099 0.3268949 -0.9436268 0.05204099 0.4825081 -0.7178442 0.5018821 0.3780429 -0.7726618 0.5099779 0.3268949 -0.9436268 0.05204099 0.3780429 -0.7726618 0.5099779 0.276731 -0.8389779 0.4685469 -0.8670399 -0.09901998 0.4882999 -0.8582739 0.019482 0.5128219 -0.9806231 0.188746 0.05247301 -0.9806231 0.188746 0.05247301 -0.8582739 0.019482 0.5128219 -0.8615997 0.1386259 0.4882918 -0.9806231 0.188746 0.05247301 -0.8615997 0.1386259 0.4882918 -0.8731393 0.2663671 0.4082601 -0.8731393 0.2663671 0.4082601 -0.8781224 0.4052412 0.2543241 -0.9806231 0.188746 0.05247301 -0.9806231 0.188746 0.05247301 -0.8781224 0.4052412 0.2543241 -0.772085 0.494021 0.399785 -0.9806231 0.188746 0.05247301 -0.772085 0.494021 0.399785 -0.3268949 0.9436268 0.05204099 -0.3268949 0.9436268 0.05204099 -0.772085 0.494021 0.399785 -0.7223282 0.6156011 0.3150831 -0.3268949 0.9436268 0.05204099 -0.7223282 0.6156011 0.3150831 -0.5972901 0.6692322 0.4420101 0.6537302 0.7548822 0.05281901 0.210171 0.9063058 0.3666579 0.3146149 0.8255206 0.4685438 0.8731393 -0.2663671 0.4082601 0.8781224 -0.4052412 0.2543241 0.9806231 -0.188746 0.05247301 0.9806231 -0.188746 0.05247301 0.8781224 -0.4052412 0.2543241 0.772085 -0.494021 0.399785 0.9806231 -0.188746 0.05247301 0.772085 -0.494021 0.399785 0.3268949 -0.9436268 0.05204099 0.3268949 -0.9436268 0.05204099 0.772085 -0.494021 0.399785 0.7223282 -0.6156011 0.3150831 0.3268949 -0.9436268 0.05204099 0.7223282 -0.6156011 0.3150831 0.5972901 -0.6692322 0.4420101 -0.6537302 -0.7548822 0.05281901 -0.5148111 -0.6950222 0.5019101 -0.6271873 -0.6414042 0.4418561 -0.276731 0.8389779 0.4685469 -0.1688201 0.9149203 0.3666341 -0.3268949 0.9436268 0.05204099 -0.3268949 0.9436268 0.05204099 -0.1688201 0.9149203 0.3666341 -0.04153297 0.9077945 0.4173537 -0.3268949 0.9436268 0.05204099 -0.04153297 0.9077945 0.4173537 0.6537302 0.7548822 0.05281901 0.6537302 0.7548822 0.05281901 -0.04153297 0.9077945 0.4173537 0.08984002 0.9790692 0.182626 0.6537302 0.7548822 0.05281901 0.08984002 0.9790692 0.182626 0.210171 0.9063058 0.3666579 0.3146149 0.8255206 0.4685438 0.412856 0.754586 0.510049 0.6537302 0.7548822 0.05281901 0.6537302 0.7548822 0.05281901 0.412856 0.754586 0.510049 0.5148111 0.6950222 0.5019101 0.6537302 0.7548822 0.05281901 0.5148111 0.6950222 0.5019101 0.6271873 0.6414042 0.4418561 -0.210171 -0.9063058 0.3666579 -0.3146149 -0.8255206 0.4685438 -0.6537302 -0.7548822 0.05281901 -0.6537302 -0.7548822 0.05281901 -0.3146149 -0.8255206 0.4685438 -0.412856 -0.754586 0.510049 -0.6537302 -0.7548822 0.05281901 -0.412856 -0.754586 0.510049 -0.5148111 -0.6950222 0.5019101 0.88432 0.2264 0.408315 0.8670399 0.09901998 0.4882999 0.9806231 -0.188746 0.05247301 0.9806231 -0.188746 0.05247301 0.8670399 0.09901998 0.4882999 0.8582739 -0.019482 0.5128219 0.9806231 -0.188746 0.05247301 0.8582739 -0.019482 0.5128219 0.8615997 -0.1386259 0.4882918 0.276731 -0.8389779 0.4685469 0.1688201 -0.9149203 0.3666341 0.3268949 -0.9436268 0.05204099 0.3268949 -0.9436268 0.05204099 0.1688201 -0.9149203 0.3666341 0.04153297 -0.9077945 0.4173537 0.3268949 -0.9436268 0.05204099 0.04153297 -0.9077945 0.4173537 -0.6537302 -0.7548822 0.05281901 -0.6537302 -0.7548822 0.05281901 0.04153297 -0.9077945 0.4173537 -0.08984002 -0.9790692 0.182626 -0.6537302 -0.7548822 0.05281901 -0.08984002 -0.9790692 0.182626 -0.210171 -0.9063058 0.3666579 -0.6271873 -0.6414042 0.4418561 -0.7495766 -0.5820867 0.3151349 -0.6537302 -0.7548822 0.05281901 -0.6537302 -0.7548822 0.05281901 -0.7495766 -0.5820867 0.3151349 -0.7938472 -0.4581861 0.3998401 -0.6537302 -0.7548822 0.05281901 -0.7938472 -0.4581861 0.3998401 -0.9806231 0.188746 0.05247301 -0.9806231 0.188746 0.05247301 -0.7938472 -0.4581861 0.3998401 -0.895663 -0.364877 0.254269 -0.9806231 0.188746 0.05247301 -0.895663 -0.364877 0.254269 -0.88432 -0.2264 0.408315 0.6271873 0.6414042 0.4418561 0.7495766 0.5820867 0.3151349 0.6537302 0.7548822 0.05281901 0.6537302 0.7548822 0.05281901 0.7495766 0.5820867 0.3151349 0.7938472 0.4581861 0.3998401 0.6537302 0.7548822 0.05281901 0.7938472 0.4581861 0.3998401 0.9806231 -0.188746 0.05247301 0.9806231 -0.188746 0.05247301 0.7938472 0.4581861 0.3998401 0.895663 0.364877 0.254269 0.9806231 -0.188746 0.05247301 0.895663 0.364877 0.254269 0.88432 0.2264 0.408315 0.3268949 0.9436268 -0.05204099 0.6537302 0.7548822 0.05281901 0.9806231 0.188746 -0.05247301 0.9806231 0.188746 -0.05247301 0.6537302 0.7548822 0.05281901 0.9806231 -0.188746 0.05247301 -0.6537302 0.7548822 -0.05281901 -0.3268949 0.9436268 0.05204099 0.3268949 0.9436268 -0.05204099 0.3268949 0.9436268 -0.05204099 -0.3268949 0.9436268 0.05204099 0.6537302 0.7548822 0.05281901 -0.9806231 -0.188746 -0.05247301 -0.9806231 0.188746 0.05247301 -0.6537302 0.7548822 -0.05281901 -0.6537302 0.7548822 -0.05281901 -0.9806231 0.188746 0.05247301 -0.3268949 0.9436268 0.05204099 -0.3268949 -0.9436268 -0.05204099 -0.6537302 -0.7548822 0.05281901 -0.9806231 -0.188746 -0.05247301 -0.9806231 -0.188746 -0.05247301 -0.6537302 -0.7548822 0.05281901 -0.9806231 0.188746 0.05247301 0.6537302 -0.7548822 -0.05281901 0.3268949 -0.9436268 0.05204099 -0.3268949 -0.9436268 -0.05204099 -0.3268949 -0.9436268 -0.05204099 0.3268949 -0.9436268 0.05204099 -0.6537302 -0.7548822 0.05281901 0.9806231 0.188746 -0.05247301 0.9806231 -0.188746 0.05247301 0.6537302 -0.7548822 -0.05281901 0.6537302 -0.7548822 -0.05281901 0.9806231 -0.188746 0.05247301 0.3268949 -0.9436268 0.05204099 -0.9806231 -0.188746 -0.05247301 -0.8844169 0.226424 -0.4080919 -0.8671753 0.09903604 -0.4880562 -0.8671753 0.09903604 -0.4880562 -0.8584216 -0.01948499 -0.5125747 -0.9806231 -0.188746 -0.05247301 -0.9806231 -0.188746 -0.05247301 -0.8584216 -0.01948499 -0.5125747 -0.8617342 -0.138648 -0.4880481 -0.9806231 -0.188746 -0.05247301 -0.8617342 -0.138648 -0.4880481 -0.8732349 -0.266396 -0.4080369 0.6537302 -0.7548822 -0.05281901 0.210189 -0.9063858 -0.3664499 0.3146601 -0.8256393 -0.4683042 0.3146601 -0.8256393 -0.4683042 0.412927 -0.754714 -0.509802 0.6537302 -0.7548822 -0.05281901 0.6537302 -0.7548822 -0.05281901 0.412927 -0.754714 -0.509802 0.514896 -0.695137 -0.501664 0.6537302 -0.7548822 -0.05281901 0.514896 -0.695137 -0.501664 0.627268 -0.6414859 -0.4416229 0.9806231 0.188746 -0.05247301 0.8844169 -0.226424 -0.4080919 0.8671753 -0.09903604 -0.4880562 -0.8732349 -0.266396 -0.4080369 -0.8781598 -0.4052579 -0.2541679 -0.9806231 -0.188746 -0.05247301 -0.9806231 -0.188746 -0.05247301 -0.8781598 -0.4052579 -0.2541679 -0.7721662 -0.4940721 -0.3995651 -0.9806231 -0.188746 -0.05247301 -0.7721662 -0.4940721 -0.3995651 -0.3268949 -0.9436268 -0.05204099 -0.3268949 -0.9436268 -0.05204099 -0.7721662 -0.4940721 -0.3995651 -0.7223752 -0.6156411 -0.3148971 -0.3268949 -0.9436268 -0.05204099 -0.7223752 -0.6156411 -0.3148971 -0.5973661 -0.6693182 -0.4417771 -0.5973661 -0.6693182 -0.4417771 -0.4825871 -0.717963 -0.5016361 -0.3268949 -0.9436268 -0.05204099 -0.3268949 -0.9436268 -0.05204099 -0.4825871 -0.717963 -0.5016361 -0.3781071 -0.7727932 -0.5097311 -0.3268949 -0.9436268 -0.05204099 -0.3781071 -0.7727932 -0.5097311 -0.2767709 -0.8390987 -0.4683068 -0.2767709 -0.8390987 -0.4683068 -0.168835 -0.915001 -0.366426 -0.3268949 -0.9436268 -0.05204099 -0.3268949 -0.9436268 -0.05204099 -0.168835 -0.915001 -0.366426 -0.041538 -0.9078981 -0.4171281 -0.3268949 -0.9436268 -0.05204099 -0.041538 -0.9078981 -0.4171281 0.6537302 -0.7548822 -0.05281901 0.6537302 -0.7548822 -0.05281901 -0.041538 -0.9078981 -0.4171281 0.08984197 -0.9790906 -0.1825099 0.6537302 -0.7548822 -0.05281901 0.08984197 -0.9790906 -0.1825099 0.210189 -0.9063858 -0.3664499 0.627268 -0.6414859 -0.4416229 0.749625 -0.582125 -0.314949 0.6537302 -0.7548822 -0.05281901 0.6537302 -0.7548822 -0.05281901 0.749625 -0.582125 -0.314949 0.7939303 -0.4582342 -0.3996201 0.6537302 -0.7548822 -0.05281901 0.7939303 -0.4582342 -0.3996201 0.9806231 0.188746 -0.05247301 0.9806231 0.188746 -0.05247301 0.7939303 -0.4582342 -0.3996201 0.8957008 -0.3648929 -0.2541129 0.9806231 0.188746 -0.05247301 0.8957008 -0.3648929 -0.2541129 0.8844169 -0.226424 -0.4080919 0.8671753 -0.09903604 -0.4880562 0.8584216 0.01948499 -0.5125747 0.9806231 0.188746 -0.05247301 0.9806231 0.188746 -0.05247301 0.8584216 0.01948499 -0.5125747 0.8617342 0.138648 -0.4880481 0.9806231 0.188746 -0.05247301 0.8617342 0.138648 -0.4880481 0.8732349 0.266396 -0.4080369 -0.514896 0.695137 -0.501664 -0.627268 0.6414859 -0.4416229 -0.6537302 0.7548822 -0.05281901 -0.627268 0.6414859 -0.4416229 -0.749625 0.582125 -0.314949 -0.6537302 0.7548822 -0.05281901 -0.6537302 0.7548822 -0.05281901 -0.749625 0.582125 -0.314949 -0.7939303 0.4582342 -0.3996201 -0.6537302 0.7548822 -0.05281901 -0.7939303 0.4582342 -0.3996201 -0.9806231 -0.188746 -0.05247301 -0.9806231 -0.188746 -0.05247301 -0.7939303 0.4582342 -0.3996201 -0.8957008 0.3648929 -0.2541129 -0.9806231 -0.188746 -0.05247301 -0.8957008 0.3648929 -0.2541129 -0.8844169 0.226424 -0.4080919 0.8732349 0.266396 -0.4080369 0.8781598 0.4052579 -0.2541679 0.9806231 0.188746 -0.05247301 0.9806231 0.188746 -0.05247301 0.8781598 0.4052579 -0.2541679 0.7721662 0.4940721 -0.3995651 0.9806231 0.188746 -0.05247301 0.7721662 0.4940721 -0.3995651 0.3268949 0.9436268 -0.05204099 0.3268949 0.9436268 -0.05204099 0.7721662 0.4940721 -0.3995651 0.7223752 0.6156411 -0.3148971 0.3268949 0.9436268 -0.05204099 0.7223752 0.6156411 -0.3148971 0.5973661 0.6693182 -0.4417771 0.5973661 0.6693182 -0.4417771 0.4825871 0.717963 -0.5016361 0.3268949 0.9436268 -0.05204099 0.3268949 0.9436268 -0.05204099 0.4825871 0.717963 -0.5016361 0.3781071 0.7727932 -0.5097311 0.3268949 0.9436268 -0.05204099 0.3781071 0.7727932 -0.5097311 0.2767709 0.8390987 -0.4683068 -0.210189 0.9063858 -0.3664499 -0.3146601 0.8256393 -0.4683042 -0.6537302 0.7548822 -0.05281901 -0.6537302 0.7548822 -0.05281901 -0.3146601 0.8256393 -0.4683042 -0.412927 0.754714 -0.509802 -0.6537302 0.7548822 -0.05281901 -0.412927 0.754714 -0.509802 -0.514896 0.695137 -0.501664 0.2767709 0.8390987 -0.4683068 0.168835 0.915001 -0.366426 0.3268949 0.9436268 -0.05204099 0.3268949 0.9436268 -0.05204099 0.168835 0.915001 -0.366426 0.041538 0.9078981 -0.4171281 0.3268949 0.9436268 -0.05204099 0.041538 0.9078981 -0.4171281 -0.6537302 0.7548822 -0.05281901 -0.6537302 0.7548822 -0.05281901 0.041538 0.9078981 -0.4171281 -0.08984197 0.9790906 -0.1825099 -0.6537302 0.7548822 -0.05281901 -0.08984197 0.9790906 -0.1825099 -0.210189 0.9063858 -0.3664499 -0.8584216 -0.01948499 -0.5125747 -0.7149383 0.01622801 -0.6989993 -0.711072 -0.08120799 -0.698414 -0.8584216 -0.01948499 -0.5125747 -0.711072 -0.08120799 -0.698414 -0.8617342 -0.138648 -0.4880481 -0.8617342 -0.138648 -0.4880481 -0.711072 -0.08120799 -0.698414 -0.693688 -0.177595 -0.698038 -0.8617342 -0.138648 -0.4880481 -0.693688 -0.177595 -0.698038 -0.8732349 -0.266396 -0.4080369 -0.8732349 -0.266396 -0.4080369 -0.693688 -0.177595 -0.698038 -0.6634392 -0.2702731 -0.6977112 -0.8732349 -0.266396 -0.4080369 -0.6634392 -0.2702731 -0.6977112 -0.8781598 -0.4052579 -0.2541679 -0.8781598 -0.4052579 -0.2541679 -0.6634392 -0.2702731 -0.6977112 -0.6204358 -0.3580979 -0.6977288 -0.8781598 -0.4052579 -0.2541679 -0.6204358 -0.3580979 -0.6977288 -0.7721662 -0.4940721 -0.3995651 -0.7721662 -0.4940721 -0.3995651 -0.6204358 -0.3580979 -0.6977288 -0.6558904 -0.5093343 -0.5571234 -0.7721662 -0.4940721 -0.3995651 -0.6558904 -0.5093343 -0.5571234 -0.7223752 -0.6156411 -0.3148971 -0.7223752 -0.6156411 -0.3148971 -0.6558904 -0.5093343 -0.5571234 -0.4990149 -0.510326 -0.7003939 -0.7223752 -0.6156411 -0.3148971 -0.4990149 -0.510326 -0.7003939 -0.5973661 -0.6693182 -0.4417771 -0.5973661 -0.6693182 -0.4417771 -0.4990149 -0.510326 -0.7003939 -0.425222 -0.574072 -0.699734 -0.5973661 -0.6693182 -0.4417771 -0.425222 -0.574072 -0.699734 -0.4825871 -0.717963 -0.5016361 -0.4825871 -0.717963 -0.5016361 -0.425222 -0.574072 -0.699734 -0.34333 -0.6275119 -0.6988229 -0.4825871 -0.717963 -0.5016361 -0.34333 -0.6275119 -0.6988229 -0.3781071 -0.7727932 -0.5097311 -0.3781071 -0.7727932 -0.5097311 -0.34333 -0.6275119 -0.6988229 -0.2549421 -0.6689442 -0.6982252 -0.3781071 -0.7727932 -0.5097311 -0.2549421 -0.6689442 -0.6982252 -0.2767709 -0.8390987 -0.4683068 -0.2767709 -0.8390987 -0.4683068 -0.2549421 -0.6689442 -0.6982252 -0.161806 -0.697746 -0.697832 -0.2767709 -0.8390987 -0.4683068 -0.161806 -0.697746 -0.697832 -0.168835 -0.915001 -0.366426 -0.168835 -0.915001 -0.366426 -0.161806 -0.697746 -0.697832 -0.06546597 -0.7134486 -0.6976426 -0.168835 -0.915001 -0.366426 -0.06546597 -0.7134486 -0.6976426 -0.041538 -0.9078981 -0.4171281 -0.041538 -0.9078981 -0.4171281 -0.06546597 -0.7134486 -0.6976426 0.03791201 -0.8286403 -0.5584962 -0.041538 -0.9078981 -0.4171281 0.03791201 -0.8286403 -0.5584962 0.08984197 -0.9790906 -0.1825099 0.08984197 -0.9790906 -0.1825099 0.03791201 -0.8286403 -0.5584962 0.129408 -0.701327 -0.700995 0.08984197 -0.9790906 -0.1825099 0.129408 -0.701327 -0.700995 0.210189 -0.9063858 -0.3664499 0.210189 -0.9063858 -0.3664499 0.129408 -0.701327 -0.700995 0.223679 -0.678137 -0.70007 0.210189 -0.9063858 -0.3664499 0.223679 -0.678137 -0.70007 0.3146601 -0.8256393 -0.4683042 0.3146601 -0.8256393 -0.4683042 0.223679 -0.678137 -0.70007 0.3141891 -0.6421543 -0.6992304 0.3146601 -0.8256393 -0.4683042 0.3141891 -0.6421543 -0.6992304 0.412927 -0.754714 -0.509802 0.412927 -0.754714 -0.509802 0.3141891 -0.6421543 -0.6992304 0.399099 -0.593753 -0.698697 0.412927 -0.754714 -0.509802 0.399099 -0.593753 -0.698697 0.514896 -0.695137 -0.501664 0.514896 -0.695137 -0.501664 0.399099 -0.593753 -0.698697 0.47665 -0.534061 -0.698272 0.514896 -0.695137 -0.501664 0.47665 -0.534061 -0.698272 0.627268 -0.6414859 -0.4416229 0.627268 -0.6414859 -0.4416229 0.47665 -0.534061 -0.698272 0.5451671 -0.4646161 -0.6978 0.627268 -0.6414859 -0.4416229 0.5451671 -0.4646161 -0.6978 0.749625 -0.582125 -0.314949 0.749625 -0.582125 -0.314949 0.5451671 -0.4646161 -0.6978 0.6034601 -0.3861251 -0.69767 0.749625 -0.582125 -0.314949 0.6034601 -0.3861251 -0.69767 0.7939303 -0.4582342 -0.3996201 0.7939303 -0.4582342 -0.3996201 0.6034601 -0.3861251 -0.69767 0.7537191 -0.347831 -0.5576031 0.7939303 -0.4582342 -0.3996201 0.7537191 -0.347831 -0.5576031 0.8957008 -0.3648929 -0.2541129 0.8957008 -0.3648929 -0.2541129 0.7537191 -0.347831 -0.5576031 0.6823589 -0.208166 -0.700752 0.8957008 -0.3648929 -0.2541129 0.6823589 -0.208166 -0.700752 0.8844169 -0.226424 -0.4080919 0.8844169 -0.226424 -0.4080919 0.6823589 -0.208166 -0.700752 0.705205 -0.113463 -0.6998659 0.8844169 -0.226424 -0.4080919 0.705205 -0.113463 -0.6998659 0.8671753 -0.09903604 -0.4880562 0.8671753 -0.09903604 -0.4880562 0.705205 -0.113463 -0.6998659 0.7149383 -0.01622801 -0.6989993 0.8671753 -0.09903604 -0.4880562 0.7149383 -0.01622801 -0.6989993 0.8584216 0.01948499 -0.5125747 0.8584216 0.01948499 -0.5125747 0.7149383 -0.01622801 -0.6989993 0.711072 0.08120799 -0.698414 0.8584216 0.01948499 -0.5125747 0.711072 0.08120799 -0.698414 0.8617342 0.138648 -0.4880481 0.8617342 0.138648 -0.4880481 0.711072 0.08120799 -0.698414 0.693688 0.177595 -0.698038 0.8617342 0.138648 -0.4880481 0.693688 0.177595 -0.698038 0.8732349 0.266396 -0.4080369 0.8732349 0.266396 -0.4080369 0.693688 0.177595 -0.698038 0.6634392 0.2702731 -0.6977112 0.8732349 0.266396 -0.4080369 0.6634392 0.2702731 -0.6977112 0.8781598 0.4052579 -0.2541679 0.8781598 0.4052579 -0.2541679 0.6634392 0.2702731 -0.6977112 0.6204358 0.3580979 -0.6977288 0.8781598 0.4052579 -0.2541679 0.6204358 0.3580979 -0.6977288 0.7721662 0.4940721 -0.3995651 0.7721662 0.4940721 -0.3995651 0.6204358 0.3580979 -0.6977288 0.6558904 0.5093343 -0.5571234 0.7721662 0.4940721 -0.3995651 0.6558904 0.5093343 -0.5571234 0.7223752 0.6156411 -0.3148971 0.7223752 0.6156411 -0.3148971 0.6558904 0.5093343 -0.5571234 0.4990149 0.510326 -0.7003939 0.7223752 0.6156411 -0.3148971 0.4990149 0.510326 -0.7003939 0.5973661 0.6693182 -0.4417771 0.5973661 0.6693182 -0.4417771 0.4990149 0.510326 -0.7003939 0.425222 0.574072 -0.699734 0.5973661 0.6693182 -0.4417771 0.425222 0.574072 -0.699734 0.4825871 0.717963 -0.5016361 0.4825871 0.717963 -0.5016361 0.425222 0.574072 -0.699734 0.34333 0.6275119 -0.6988229 0.4825871 0.717963 -0.5016361 0.34333 0.6275119 -0.6988229 0.3781071 0.7727932 -0.5097311 0.3781071 0.7727932 -0.5097311 0.34333 0.6275119 -0.6988229 0.2549421 0.6689442 -0.6982252 0.3781071 0.7727932 -0.5097311 0.2549421 0.6689442 -0.6982252 0.2767709 0.8390987 -0.4683068 0.2767709 0.8390987 -0.4683068 0.2549421 0.6689442 -0.6982252 0.161806 0.697746 -0.697832 0.2767709 0.8390987 -0.4683068 0.161806 0.697746 -0.697832 0.168835 0.915001 -0.366426 0.168835 0.915001 -0.366426 0.161806 0.697746 -0.697832 0.06546597 0.7134486 -0.6976426 0.168835 0.915001 -0.366426 0.06546597 0.7134486 -0.6976426 0.041538 0.9078981 -0.4171281 0.041538 0.9078981 -0.4171281 0.06546597 0.7134486 -0.6976426 -0.03791201 0.8286403 -0.5584962 0.041538 0.9078981 -0.4171281 -0.03791201 0.8286403 -0.5584962 -0.08984197 0.9790906 -0.1825099 -0.08984197 0.9790906 -0.1825099 -0.03791201 0.8286403 -0.5584962 -0.129408 0.701327 -0.700995 -0.08984197 0.9790906 -0.1825099 -0.129408 0.701327 -0.700995 -0.210189 0.9063858 -0.3664499 -0.210189 0.9063858 -0.3664499 -0.129408 0.701327 -0.700995 -0.223679 0.678137 -0.70007 -0.210189 0.9063858 -0.3664499 -0.223679 0.678137 -0.70007 -0.3146601 0.8256393 -0.4683042 -0.3146601 0.8256393 -0.4683042 -0.223679 0.678137 -0.70007 -0.3141891 0.6421543 -0.6992304 -0.3146601 0.8256393 -0.4683042 -0.3141891 0.6421543 -0.6992304 -0.412927 0.754714 -0.509802 -0.412927 0.754714 -0.509802 -0.3141891 0.6421543 -0.6992304 -0.399099 0.593753 -0.698697 -0.412927 0.754714 -0.509802 -0.399099 0.593753 -0.698697 -0.514896 0.695137 -0.501664 -0.514896 0.695137 -0.501664 -0.399099 0.593753 -0.698697 -0.47665 0.534061 -0.698272 -0.514896 0.695137 -0.501664 -0.47665 0.534061 -0.698272 -0.627268 0.6414859 -0.4416229 -0.627268 0.6414859 -0.4416229 -0.47665 0.534061 -0.698272 -0.5451671 0.4646161 -0.6978 -0.627268 0.6414859 -0.4416229 -0.5451671 0.4646161 -0.6978 -0.749625 0.582125 -0.314949 -0.749625 0.582125 -0.314949 -0.5451671 0.4646161 -0.6978 -0.6034601 0.3861251 -0.69767 -0.749625 0.582125 -0.314949 -0.6034601 0.3861251 -0.69767 -0.7939303 0.4582342 -0.3996201 -0.7939303 0.4582342 -0.3996201 -0.6034601 0.3861251 -0.69767 -0.7537191 0.347831 -0.5576031 -0.7939303 0.4582342 -0.3996201 -0.7537191 0.347831 -0.5576031 -0.8957008 0.3648929 -0.2541129 -0.8957008 0.3648929 -0.2541129 -0.7537191 0.347831 -0.5576031 -0.6823589 0.208166 -0.700752 -0.8957008 0.3648929 -0.2541129 -0.6823589 0.208166 -0.700752 -0.8844169 0.226424 -0.4080919 -0.8844169 0.226424 -0.4080919 -0.6823589 0.208166 -0.700752 -0.705205 0.113463 -0.6998659 -0.8844169 0.226424 -0.4080919 -0.705205 0.113463 -0.6998659 -0.8671753 0.09903604 -0.4880562 -0.8671753 0.09903604 -0.4880562 -0.705205 0.113463 -0.6998659 -0.7149383 0.01622801 -0.6989993 -0.8671753 0.09903604 -0.4880562 -0.7149383 0.01622801 -0.6989993 -0.8584216 -0.01948499 -0.5125747 0.02391601 -0.9134102 -0.4063371 -0.06546597 -0.7134486 -0.6976426 -0.1239231 -0.9413695 -0.3137941 -0.1239231 -0.9413695 -0.3137941 -0.06546597 -0.7134486 -0.6976426 -0.161806 -0.697746 -0.697832 -0.1239231 -0.9413695 -0.3137941 -0.161806 -0.697746 -0.697832 -0.269747 -0.9105169 -0.313362 -0.269747 -0.9105169 -0.313362 -0.161806 -0.697746 -0.697832 -0.2549421 -0.6689442 -0.6982252 -0.269747 -0.9105169 -0.313362 -0.2549421 -0.6689442 -0.6982252 -0.408765 -0.857356 -0.312813 -0.408765 -0.857356 -0.312813 -0.2549421 -0.6689442 -0.6982252 -0.34333 -0.6275119 -0.6988229 -0.408765 -0.857356 -0.312813 -0.34333 -0.6275119 -0.6988229 -0.5383351 -0.7828012 -0.3121181 -0.5383351 -0.7828012 -0.3121181 -0.34333 -0.6275119 -0.6988229 -0.425222 -0.574072 -0.699734 -0.5383351 -0.7828012 -0.3121181 -0.425222 -0.574072 -0.699734 -0.6541092 -0.6894932 -0.3110311 -0.6541092 -0.6894932 -0.3110311 -0.425222 -0.574072 -0.699734 -0.4990149 -0.510326 -0.7003939 -0.6541092 -0.6894932 -0.3110311 -0.4990149 -0.510326 -0.7003939 -0.7248192 -0.5562561 -0.4064681 0.8247914 -0.3932402 -0.4063022 0.6034601 -0.3861251 -0.69767 0.7823189 -0.538003 -0.313895 0.7823189 -0.538003 -0.313895 0.6034601 -0.3861251 -0.69767 0.5451671 -0.4646161 -0.6978 0.7823189 -0.538003 -0.313895 0.5451671 -0.4646161 -0.6978 0.688872 -0.653521 -0.313633 0.688872 -0.653521 -0.313633 0.5451671 -0.4646161 -0.6978 0.47665 -0.534061 -0.698272 0.688872 -0.653521 -0.313633 0.47665 -0.534061 -0.698272 0.5782133 -0.7534304 -0.3130691 0.5782133 -0.7534304 -0.3130691 0.47665 -0.534061 -0.698272 0.399099 -0.593753 -0.698697 0.5782133 -0.7534304 -0.3130691 0.399099 -0.593753 -0.698697 0.45353 -0.834711 -0.312359 0.45353 -0.834711 -0.312359 0.399099 -0.593753 -0.698697 0.3141891 -0.6421543 -0.6992304 0.45353 -0.834711 -0.312359 0.3141891 -0.6421543 -0.6992304 0.3170919 -0.8958238 -0.311372 0.3170919 -0.8958238 -0.311372 0.3141891 -0.6421543 -0.6992304 0.223679 -0.678137 -0.70007 0.3170919 -0.8958238 -0.311372 0.223679 -0.678137 -0.70007 0.173484 -0.9347111 -0.310191 0.173484 -0.9347111 -0.310191 0.223679 -0.678137 -0.70007 0.129408 -0.701327 -0.700995 0.173484 -0.9347111 -0.310191 0.129408 -0.701327 -0.700995 0.02391601 -0.9134102 -0.4063371 0.02391601 -0.9134102 -0.4063371 0.129408 -0.701327 -0.700995 0.03791201 -0.8286403 -0.5584962 0.02391601 -0.9134102 -0.4063371 0.03791201 -0.8286403 -0.5584962 -0.06546597 -0.7134486 -0.6976426 -0.4990149 -0.510326 -0.7003939 -0.6558904 -0.5093343 -0.5571234 -0.7248192 -0.5562561 -0.4064681 -0.7248192 -0.5562561 -0.4064681 -0.6558904 -0.5093343 -0.5571234 -0.6204358 -0.3580979 -0.6977288 -0.7248192 -0.5562561 -0.4064681 -0.6204358 -0.3580979 -0.6977288 -0.8342828 -0.4532969 -0.3138379 -0.8342828 -0.4532969 -0.3138379 -0.6204358 -0.3580979 -0.6977288 -0.6634392 -0.2702731 -0.6977112 -0.8342828 -0.4532969 -0.3138379 -0.6634392 -0.2702731 -0.6977112 -0.8951162 -0.3168411 -0.3136541 -0.8951162 -0.3168411 -0.3136541 -0.6634392 -0.2702731 -0.6977112 -0.693688 -0.177595 -0.698038 -0.8951162 -0.3168411 -0.3136541 -0.693688 -0.177595 -0.698038 -0.9337302 -0.173302 -0.3132321 -0.9337302 -0.173302 -0.3132321 -0.693688 -0.177595 -0.698038 -0.711072 -0.08120799 -0.698414 -0.9337302 -0.173302 -0.3132321 -0.711072 -0.08120799 -0.698414 -0.9495509 -0.024862 -0.312626 -0.9495509 -0.024862 -0.312626 -0.711072 -0.08120799 -0.698414 -0.7149383 0.01622801 -0.6989993 -0.9495509 -0.024862 -0.312626 -0.7149383 0.01622801 -0.6989993 -0.942028 0.12401 -0.311777 -0.942028 0.12401 -0.311777 -0.7149383 0.01622801 -0.6989993 -0.705205 0.113463 -0.6998659 -0.942028 0.12401 -0.311777 -0.705205 0.113463 -0.6998659 -0.9113721 0.270001 -0.310645 -0.9113721 0.270001 -0.310645 -0.705205 0.113463 -0.6998659 -0.6823589 0.208166 -0.700752 -0.9113721 0.270001 -0.310645 -0.6823589 0.208166 -0.700752 -0.8247914 0.3932402 -0.4063022 0.7248192 0.5562561 -0.4064681 0.6204358 0.3580979 -0.6977288 0.8342828 0.4532969 -0.3138379 0.8342828 0.4532969 -0.3138379 0.6204358 0.3580979 -0.6977288 0.6634392 0.2702731 -0.6977112 0.8342828 0.4532969 -0.3138379 0.6634392 0.2702731 -0.6977112 0.8951162 0.3168411 -0.3136541 0.8951162 0.3168411 -0.3136541 0.6634392 0.2702731 -0.6977112 0.693688 0.177595 -0.698038 0.8951162 0.3168411 -0.3136541 0.693688 0.177595 -0.698038 0.9337302 0.173302 -0.3132321 0.9337302 0.173302 -0.3132321 0.693688 0.177595 -0.698038 0.711072 0.08120799 -0.698414 0.9337302 0.173302 -0.3132321 0.711072 0.08120799 -0.698414 0.9495509 0.024862 -0.312626 0.9495509 0.024862 -0.312626 0.711072 0.08120799 -0.698414 0.7149383 -0.01622801 -0.6989993 0.9495509 0.024862 -0.312626 0.7149383 -0.01622801 -0.6989993 0.942028 -0.12401 -0.311777 0.942028 -0.12401 -0.311777 0.7149383 -0.01622801 -0.6989993 0.705205 -0.113463 -0.6998659 0.942028 -0.12401 -0.311777 0.705205 -0.113463 -0.6998659 0.9113721 -0.270001 -0.310645 0.9113721 -0.270001 -0.310645 0.705205 -0.113463 -0.6998659 0.6823589 -0.208166 -0.700752 0.9113721 -0.270001 -0.310645 0.6823589 -0.208166 -0.700752 0.8247914 -0.3932402 -0.4063022 0.8247914 -0.3932402 -0.4063022 0.6823589 -0.208166 -0.700752 0.7537191 -0.347831 -0.5576031 0.8247914 -0.3932402 -0.4063022 0.7537191 -0.347831 -0.5576031 0.6034601 -0.3861251 -0.69767 -0.6823589 0.208166 -0.700752 -0.7537191 0.347831 -0.5576031 -0.8247914 0.3932402 -0.4063022 -0.8247914 0.3932402 -0.4063022 -0.7537191 0.347831 -0.5576031 -0.6034601 0.3861251 -0.69767 -0.8247914 0.3932402 -0.4063022 -0.6034601 0.3861251 -0.69767 -0.7823189 0.538003 -0.313895 -0.7823189 0.538003 -0.313895 -0.6034601 0.3861251 -0.69767 -0.5451671 0.4646161 -0.6978 -0.7823189 0.538003 -0.313895 -0.5451671 0.4646161 -0.6978 -0.688872 0.653521 -0.313633 -0.688872 0.653521 -0.313633 -0.5451671 0.4646161 -0.6978 -0.47665 0.534061 -0.698272 -0.688872 0.653521 -0.313633 -0.47665 0.534061 -0.698272 -0.5782133 0.7534304 -0.3130691 -0.5782133 0.7534304 -0.3130691 -0.47665 0.534061 -0.698272 -0.399099 0.593753 -0.698697 -0.5782133 0.7534304 -0.3130691 -0.399099 0.593753 -0.698697 -0.45353 0.834711 -0.312359 -0.45353 0.834711 -0.312359 -0.399099 0.593753 -0.698697 -0.3141891 0.6421543 -0.6992304 -0.45353 0.834711 -0.312359 -0.3141891 0.6421543 -0.6992304 -0.3170919 0.8958238 -0.311372 -0.3170919 0.8958238 -0.311372 -0.3141891 0.6421543 -0.6992304 -0.223679 0.678137 -0.70007 -0.3170919 0.8958238 -0.311372 -0.223679 0.678137 -0.70007 -0.173484 0.9347111 -0.310191 -0.173484 0.9347111 -0.310191 -0.223679 0.678137 -0.70007 -0.129408 0.701327 -0.700995 -0.173484 0.9347111 -0.310191 -0.129408 0.701327 -0.700995 -0.02391601 0.9134102 -0.4063371 -0.129408 0.701327 -0.700995 -0.03791201 0.8286403 -0.5584962 -0.02391601 0.9134102 -0.4063371 -0.02391601 0.9134102 -0.4063371 -0.03791201 0.8286403 -0.5584962 0.06546597 0.7134486 -0.6976426 -0.02391601 0.9134102 -0.4063371 0.06546597 0.7134486 -0.6976426 0.1239231 0.9413695 -0.3137941 0.1239231 0.9413695 -0.3137941 0.06546597 0.7134486 -0.6976426 0.161806 0.697746 -0.697832 0.1239231 0.9413695 -0.3137941 0.161806 0.697746 -0.697832 0.269747 0.9105169 -0.313362 0.269747 0.9105169 -0.313362 0.161806 0.697746 -0.697832 0.2549421 0.6689442 -0.6982252 0.269747 0.9105169 -0.313362 0.2549421 0.6689442 -0.6982252 0.408765 0.857356 -0.312813 0.408765 0.857356 -0.312813 0.2549421 0.6689442 -0.6982252 0.34333 0.6275119 -0.6988229 0.408765 0.857356 -0.312813 0.34333 0.6275119 -0.6988229 0.5383351 0.7828012 -0.3121181 0.5383351 0.7828012 -0.3121181 0.34333 0.6275119 -0.6988229 0.425222 0.574072 -0.699734 0.5383351 0.7828012 -0.3121181 0.425222 0.574072 -0.699734 0.6541092 0.6894932 -0.3110311 0.6541092 0.6894932 -0.3110311 0.425222 0.574072 -0.699734 0.4990149 0.510326 -0.7003939 0.6541092 0.6894932 -0.3110311 0.4990149 0.510326 -0.7003939 0.7248192 0.5562561 -0.4064681 0.7248192 0.5562561 -0.4064681 0.4990149 0.510326 -0.7003939 0.6558904 0.5093343 -0.5571234 0.7248192 0.5562561 -0.4064681 0.6558904 0.5093343 -0.5571234 0.6204358 0.3580979 -0.6977288 -0.9495509 -0.024862 -0.312626 -0.6118999 0.016022 -0.7907729 -0.6463673 -0.08508903 -0.7582673 -0.9495509 -0.024862 -0.312626 -0.6463673 -0.08508903 -0.7582673 -0.9337302 -0.173302 -0.3132321 -0.9337302 -0.173302 -0.3132321 -0.6463673 -0.08508903 -0.7582673 -0.6687173 -0.1981121 -0.7166373 -0.9337302 -0.173302 -0.3132321 -0.6687173 -0.1981121 -0.7166373 -0.8951162 -0.3168411 -0.3136541 -0.8951162 -0.3168411 -0.3136541 -0.6687173 -0.1981121 -0.7166373 -0.569772 -0.271653 -0.775606 -0.8951162 -0.3168411 -0.3136541 -0.569772 -0.271653 -0.775606 -0.8342828 -0.4532969 -0.3138379 -0.8342828 -0.4532969 -0.3138379 -0.569772 -0.271653 -0.775606 -0.823915 -0.566609 -0.010874 -0.8342828 -0.4532969 -0.3138379 -0.823915 -0.566609 -0.010874 -0.7248192 -0.5562561 -0.4064681 -0.7248192 -0.5562561 -0.4064681 -0.823915 -0.566609 -0.010874 -0.4238839 -0.4021309 -0.8115498 -0.7248192 -0.5562561 -0.4064681 -0.4238839 -0.4021309 -0.8115498 -0.6541092 -0.6894932 -0.3110311 -0.6541092 -0.6894932 -0.3110311 -0.4238839 -0.4021309 -0.8115498 -0.5791019 -0.7545878 -0.308607 -0.6541092 -0.6894932 -0.3110311 -0.5791019 -0.7545878 -0.308607 -0.5383351 -0.7828012 -0.3121181 -0.5383351 -0.7828012 -0.3121181 -0.5791019 -0.7545878 -0.308607 -0.4746642 -0.8736084 -0.1072491 -0.5383351 -0.7828012 -0.3121181 -0.4746642 -0.8736084 -0.1072491 -0.408765 -0.857356 -0.312813 -0.408765 -0.857356 -0.312813 -0.4746642 -0.8736084 -0.1072491 -0.3336599 -0.9426306 -0.010884 -0.408765 -0.857356 -0.312813 -0.3336599 -0.9426306 -0.010884 -0.269747 -0.9105169 -0.313362 -0.269747 -0.9105169 -0.313362 -0.3336599 -0.9426306 -0.010884 -0.182314 -0.9822819 -0.043405 -0.269747 -0.9105169 -0.313362 -0.182314 -0.9822819 -0.043405 -0.1239231 -0.9413695 -0.3137941 -0.1239231 -0.9413695 -0.3137941 -0.182314 -0.9822819 -0.043405 -0.02565401 -0.9797955 -0.1983501 -0.1239231 -0.9413695 -0.3137941 -0.02565401 -0.9797955 -0.1983501 0.02391601 -0.9134102 -0.4063371 0.02391601 -0.9134102 -0.4063371 -0.02565401 -0.9797955 -0.1983501 0.118041 -0.8966863 -0.4266382 0.02391601 -0.9134102 -0.4063371 0.118041 -0.8966863 -0.4266382 0.173484 -0.9347111 -0.310191 0.173484 -0.9347111 -0.310191 0.118041 -0.8966863 -0.4266382 0.255574 -0.8626751 -0.436433 0.173484 -0.9347111 -0.310191 0.255574 -0.8626751 -0.436433 0.3170919 -0.8958238 -0.311372 0.3170919 -0.8958238 -0.311372 0.255574 -0.8626751 -0.436433 0.065271 -0.136901 -0.988432 0.3170919 -0.8958238 -0.311372 0.065271 -0.136901 -0.988432 0.45353 -0.834711 -0.312359 0.45353 -0.834711 -0.312359 0.065271 -0.136901 -0.988432 0.566609 -0.823915 -0.010874 0.45353 -0.834711 -0.312359 0.566609 -0.823915 -0.010874 0.5782133 -0.7534304 -0.3130691 0.5782133 -0.7534304 -0.3130691 0.566609 -0.823915 -0.010874 0.2506341 -0.264192 -0.9313352 0.5782133 -0.7534304 -0.3130691 0.2506341 -0.264192 -0.9313352 0.688872 -0.653521 -0.313633 0.688872 -0.653521 -0.313633 0.2506341 -0.264192 -0.9313352 0.3909208 -0.3000088 -0.8701584 0.688872 -0.653521 -0.313633 0.3909208 -0.3000088 -0.8701584 0.7823189 -0.538003 -0.313895 0.7823189 -0.538003 -0.313895 0.3909208 -0.3000088 -0.8701584 0.3097021 -0.168273 -0.9358252 0.7823189 -0.538003 -0.313895 0.3097021 -0.168273 -0.9358252 0.8247914 -0.3932402 -0.4063022 0.8247914 -0.3932402 -0.4063022 0.3097021 -0.168273 -0.9358252 0.9426306 -0.3336599 -0.010884 0.8247914 -0.3932402 -0.4063022 0.9426306 -0.3336599 -0.010884 0.9113721 -0.270001 -0.310645 0.9113721 -0.270001 -0.310645 0.9426306 -0.3336599 -0.010884 0.2740089 -0.05085697 -0.9603815 0.9113721 -0.270001 -0.310645 0.2740089 -0.05085697 -0.9603815 0.942028 -0.12401 -0.311777 0.942028 -0.12401 -0.311777 0.2740089 -0.05085697 -0.9603815 0.9995979 -0.026173 -0.010913 0.942028 -0.12401 -0.311777 0.9995979 -0.026173 -0.010913 0.9495509 0.024862 -0.312626 0.9495509 0.024862 -0.312626 0.9995979 -0.026173 -0.010913 0.3729428 0.04909498 -0.9265546 0.9495509 0.024862 -0.312626 0.3729428 0.04909498 -0.9265546 0.9337302 0.173302 -0.3132321 0.9337302 0.173302 -0.3132321 0.3729428 0.04909498 -0.9265546 0.5277589 0.156353 -0.8348798 0.9337302 0.173302 -0.3132321 0.5277589 0.156353 -0.8348798 0.8951162 0.3168411 -0.3136541 0.8951162 0.3168411 -0.3136541 0.5277589 0.156353 -0.8348798 0.281937 0.13442 -0.9499699 0.8951162 0.3168411 -0.3136541 0.281937 0.13442 -0.9499699 0.8342828 0.4532969 -0.3138379 0.8342828 0.4532969 -0.3138379 0.281937 0.13442 -0.9499699 0.5201721 0.357724 -0.7755351 0.8342828 0.4532969 -0.3138379 0.5201721 0.357724 -0.7755351 0.7248192 0.5562561 -0.4064681 0.7248192 0.5562561 -0.4064681 0.5201721 0.357724 -0.7755351 0.7254331 0.6882051 -0.010982 0.7248192 0.5562561 -0.4064681 0.7254331 0.6882051 -0.010982 0.6541092 0.6894932 -0.3110311 0.6541092 0.6894932 -0.3110311 0.7254331 0.6882051 -0.010982 0.4254929 0.5544309 -0.7152358 0.6541092 0.6894932 -0.3110311 0.4254929 0.5544309 -0.7152358 0.5383351 0.7828012 -0.3121181 0.5383351 0.7828012 -0.3121181 0.4254929 0.5544309 -0.7152358 0.4020661 0.739994 -0.5392141 0.5383351 0.7828012 -0.3121181 0.4020661 0.739994 -0.5392141 0.408765 0.857356 -0.312813 0.408765 0.857356 -0.312813 0.4020661 0.739994 -0.5392141 0.317405 0.8967071 -0.308497 0.408765 0.857356 -0.312813 0.317405 0.8967071 -0.308497 0.269747 0.9105169 -0.313362 0.269747 0.9105169 -0.313362 0.317405 0.8967071 -0.308497 0.1814331 0.9775354 -0.10727 0.269747 0.9105169 -0.313362 0.1814331 0.9775354 -0.10727 0.1239231 0.9413695 -0.3137941 0.1239231 0.9413695 -0.3137941 0.1814331 0.9775354 -0.10727 0.026173 0.9995979 -0.010913 0.1239231 0.9413695 -0.3137941 0.026173 0.9995979 -0.010913 -0.02391601 0.9134102 -0.4063371 -0.02391601 0.9134102 -0.4063371 0.026173 0.9995979 -0.010913 -0.130392 0.9905093 -0.04346702 -0.02391601 0.9134102 -0.4063371 -0.130392 0.9905093 -0.04346702 -0.173484 0.9347111 -0.310191 -0.173484 0.9347111 -0.310191 -0.130392 0.9905093 -0.04346702 -0.2784179 0.9397848 -0.198212 -0.173484 0.9347111 -0.310191 -0.2784179 0.9397848 -0.198212 -0.3170919 0.8958238 -0.311372 -0.3170919 0.8958238 -0.311372 -0.2784179 0.9397848 -0.198212 -0.3892542 0.8164324 -0.4265202 -0.3170919 0.8958238 -0.311372 -0.3892542 0.8164324 -0.4265202 -0.45353 0.834711 -0.312359 -0.45353 0.834711 -0.312359 -0.3892542 0.8164324 -0.4265202 -0.1866571 0.2714211 -0.9441873 -0.45353 0.834711 -0.312359 -0.1866571 0.2714211 -0.9441873 -0.5782133 0.7534304 -0.3130691 -0.5782133 0.7534304 -0.3130691 -0.1866571 0.2714211 -0.9441873 -0.6882051 0.7254331 -0.010982 -0.5782133 0.7534304 -0.3130691 -0.6882051 0.7254331 -0.010982 -0.688872 0.653521 -0.313633 -0.688872 0.653521 -0.313633 -0.6882051 0.7254331 -0.010982 -0.3788581 0.2907521 -0.8785953 -0.688872 0.653521 -0.313633 -0.3788581 0.2907521 -0.8785953 -0.7823189 0.538003 -0.313895 -0.7823189 0.538003 -0.313895 -0.3788581 0.2907521 -0.8785953 -0.08274502 0.04495801 -0.9955562 -0.7823189 0.538003 -0.313895 -0.08274502 0.04495801 -0.9955562 -0.8247914 0.3932402 -0.4063022 -0.8247914 0.3932402 -0.4063022 -0.08274502 0.04495801 -0.9955562 -0.9426306 0.3336599 -0.010884 -0.8247914 0.3932402 -0.4063022 -0.9426306 0.3336599 -0.010884 -0.9113721 0.270001 -0.310645 -0.9113721 0.270001 -0.310645 -0.9426306 0.3336599 -0.010884 -0.407789 0.075686 -0.909934 -0.9113721 0.270001 -0.310645 -0.407789 0.075686 -0.909934 -0.942028 0.12401 -0.311777 -0.942028 0.12401 -0.311777 -0.407789 0.075686 -0.909934 -0.6118999 0.016022 -0.7907729 -0.942028 0.12401 -0.311777 -0.6118999 0.016022 -0.7907729 -0.9495509 -0.024862 -0.312626 0.5201721 0.357724 -0.7755351 0.281937 0.13442 -0.9499699 -0.1866571 0.2714211 -0.9441873 -0.4238839 -0.4021309 -0.8115498 -0.823915 -0.566609 -0.010874 -0.569772 -0.271653 -0.775606 0.9426306 -0.3336599 -0.010884 0.3097021 -0.168273 -0.9358252 0.2740089 -0.05085697 -0.9603815 0.2740089 -0.05085697 -0.9603815 0.3097021 -0.168273 -0.9358252 -0.08274502 0.04495801 -0.9955562 0.566609 -0.823915 -0.010874 0.065271 -0.136901 -0.988432 0.2506341 -0.264192 -0.9313352 0.2506341 -0.264192 -0.9313352 0.065271 -0.136901 -0.988432 -0.08274502 0.04495801 -0.9955562 0.2506341 -0.264192 -0.9313352 -0.08274502 0.04495801 -0.9955562 0.3909208 -0.3000088 -0.8701584 0.3909208 -0.3000088 -0.8701584 -0.08274502 0.04495801 -0.9955562 0.3097021 -0.168273 -0.9358252 -0.6882051 0.7254331 -0.010982 -0.1866571 0.2714211 -0.9441873 -0.3788581 0.2907521 -0.8785953 -0.3788581 0.2907521 -0.8785953 -0.1866571 0.2714211 -0.9441873 0.281937 0.13442 -0.9499699 -0.3788581 0.2907521 -0.8785953 0.281937 0.13442 -0.9499699 -0.08274502 0.04495801 -0.9955562 0.7254331 0.6882051 -0.010982 0.5201721 0.357724 -0.7755351 0.4254929 0.5544309 -0.7152358 0.4254929 0.5544309 -0.7152358 0.5201721 0.357724 -0.7755351 -0.1866571 0.2714211 -0.9441873 0.4254929 0.5544309 -0.7152358 -0.1866571 0.2714211 -0.9441873 0.4020661 0.739994 -0.5392141 0.4020661 0.739994 -0.5392141 -0.1866571 0.2714211 -0.9441873 -0.3892542 0.8164324 -0.4265202 0.4020661 0.739994 -0.5392141 -0.3892542 0.8164324 -0.4265202 0.317405 0.8967071 -0.308497 0.317405 0.8967071 -0.308497 -0.3892542 0.8164324 -0.4265202 -0.2784179 0.9397848 -0.198212 0.317405 0.8967071 -0.308497 -0.2784179 0.9397848 -0.198212 0.1814331 0.9775354 -0.10727 0.1814331 0.9775354 -0.10727 -0.2784179 0.9397848 -0.198212 -0.130392 0.9905093 -0.04346702 0.1814331 0.9775354 -0.10727 -0.130392 0.9905093 -0.04346702 0.026173 0.9995979 -0.010913 0.9995979 -0.026173 -0.010913 0.2740089 -0.05085697 -0.9603815 0.3729428 0.04909498 -0.9265546 0.3729428 0.04909498 -0.9265546 0.2740089 -0.05085697 -0.9603815 -0.08274502 0.04495801 -0.9955562 0.3729428 0.04909498 -0.9265546 -0.08274502 0.04495801 -0.9955562 0.5277589 0.156353 -0.8348798 0.5277589 0.156353 -0.8348798 -0.08274502 0.04495801 -0.9955562 0.281937 0.13442 -0.9499699 -0.4238839 -0.4021309 -0.8115498 -0.569772 -0.271653 -0.775606 0.065271 -0.136901 -0.988432 0.065271 -0.136901 -0.988432 -0.569772 -0.271653 -0.775606 -0.6687173 -0.1981121 -0.7166373 0.065271 -0.136901 -0.988432 -0.6687173 -0.1981121 -0.7166373 -0.6463673 -0.08508903 -0.7582673 0.065271 -0.136901 -0.988432 0.255574 -0.8626751 -0.436433 -0.4238839 -0.4021309 -0.8115498 -0.4238839 -0.4021309 -0.8115498 0.255574 -0.8626751 -0.436433 0.118041 -0.8966863 -0.4266382 -0.4238839 -0.4021309 -0.8115498 0.118041 -0.8966863 -0.4266382 -0.5791019 -0.7545878 -0.308607 -0.5791019 -0.7545878 -0.308607 0.118041 -0.8966863 -0.4266382 -0.02565401 -0.9797955 -0.1983501 -0.5791019 -0.7545878 -0.308607 -0.02565401 -0.9797955 -0.1983501 -0.4746642 -0.8736084 -0.1072491 -0.4746642 -0.8736084 -0.1072491 -0.02565401 -0.9797955 -0.1983501 -0.182314 -0.9822819 -0.043405 -0.4746642 -0.8736084 -0.1072491 -0.182314 -0.9822819 -0.043405 -0.3336599 -0.9426306 -0.010884 -0.9426306 0.3336599 -0.010884 -0.08274502 0.04495801 -0.9955562 -0.407789 0.075686 -0.909934 -0.407789 0.075686 -0.909934 -0.08274502 0.04495801 -0.9955562 0.065271 -0.136901 -0.988432 -0.407789 0.075686 -0.909934 0.065271 -0.136901 -0.988432 -0.6118999 0.016022 -0.7907729 -0.6118999 0.016022 -0.7907729 0.065271 -0.136901 -0.988432 -0.6463673 -0.08508903 -0.7582673 -0.2760361 0.1309831 0.9521805 -0.9797118 0.1999969 0.012887 -0.6148891 -0.024946 0.7882191 0.079904 0.9955161 0.05062701 -0.1599429 0.9870427 0.01284599 -0.3892589 0.9128017 0.123574 -0.6148891 -0.024946 0.7882191 0.263473 -0.125022 0.956531 -0.2760361 0.1309831 0.9521805 -0.2760361 0.1309831 0.9521805 0.263473 -0.125022 0.956531 0.737352 -0.150522 0.658525 -0.2760361 0.1309831 0.9521805 0.737352 -0.150522 0.658525 0.6373978 0.02585899 0.7701008 0.079904 0.9955161 0.05062701 -0.3892589 0.9128017 0.123574 0.3080269 0.9246146 0.2240699 0.3080269 0.9246146 0.2240699 -0.3892589 0.9128017 0.123574 -0.5655531 0.7516641 0.339339 0.3080269 0.9246146 0.2240699 -0.5655531 0.7516641 0.339339 0.4766609 0.7530848 0.4534949 0.4766609 0.7530848 0.4534949 -0.5655531 0.7516641 0.339339 -0.644805 0.5262409 0.5543439 0.4766609 0.7530848 0.4534949 -0.644805 0.5262409 0.5543439 0.5566654 0.5346693 0.6358085 0.5566654 0.5346693 0.6358085 -0.644805 0.5262409 0.5543439 -0.2760361 0.1309831 0.9521805 0.5566654 0.5346693 0.6358085 -0.2760361 0.1309831 0.9521805 0.5817419 0.336158 0.7406579 0.5817419 0.336158 0.7406579 -0.2760361 0.1309831 0.9521805 0.6373978 0.02585899 0.7701008 0.5817419 0.336158 0.7406579 0.6373978 0.02585899 0.7701008 0.9603611 0.278461 0.012892 -0.6148891 -0.024946 0.7882191 -0.7585679 -0.21995 0.613349 0.263473 -0.125022 0.956531 0.263473 -0.125022 0.956531 -0.7585679 -0.21995 0.613349 -0.7106144 -0.4106272 0.5713253 0.263473 -0.125022 0.956531 -0.7106144 -0.4106272 0.5713253 -0.5566121 -0.5346181 0.6358982 0.601177 -0.7990121 0.012877 0.7737413 -0.6314692 0.05070602 0.3811978 -0.8938977 0.2358709 0.3811978 -0.8938977 0.2358709 0.7737413 -0.6314692 0.05070602 0.263473 -0.125022 0.956531 0.1599429 -0.9870427 0.01284599 0.3811978 -0.8938977 0.2358709 -0.07526699 -0.9377479 0.339063 -0.07526699 -0.9377479 0.339063 0.3811978 -0.8938977 0.2358709 0.263473 -0.125022 0.956531 -0.07526699 -0.9377479 0.339063 0.263473 -0.125022 0.956531 -0.2630662 -0.7896535 0.5542954 -0.2630662 -0.7896535 0.5542954 0.263473 -0.125022 0.956531 -0.5566121 -0.5346181 0.6358982 -0.2630662 -0.7896535 0.5542954 -0.5566121 -0.5346181 0.6358982 -0.5347729 -0.8448978 0.012874</float_array>
          <technique_common>
            <accessor source="#MeshShape-normals-array" count="1956" stride="3">
              <param name="X" type="float"/>
              <param name="Y" type="float"/>
              <param name="Z" type="float"/>
            </accessor>
          </technique_common>
        </source>
        <vertices id="MeshShape-vertices" name="MeshShape-vertices">
          <input semantic="POSITION" source="#MeshShape-positions"/>
        </vertices>
        <triangles material="initialShadingGroup" count="652">
          <input semantic="VERTEX" source="#MeshShape-vertices" offset="0"/>
          <input semantic="NORMAL" source="#MeshShape-normals" offset="1"/>
          <p>113 0 112 1 114 2 113 3 114 4 115 5 115 6 114 7 118 8 115 9 118 10 119 11 119 12 118 13 126 14 119 15 126 16 127 17 127 18 126 19 138 20 127 21 138 22 139 23 139 24 138 25 146 26 139 27 146 28 147 29 147 30 146 31 158 32 147 33 158 34 159 35 159 36 158 37 166 38 159 39 166 40 167 41 167 42 166 43 178 44 167 45 178 46 179 47 179 48 178 49 186 50 179 51 186 52 187 53 187 54 186 55 198 56 187 57 198 58 199 59 199 60 198 61 206 62 199 63 206 64 207 65 207 66 206 67 210 68 207 69 210 70 211 71 211 72 210 73 214 74 211 75 214 76 215 77 215 78 214 79 212 80 215 81 212 82 213 83 213 84 212 85 208 86 213 87 208 88 209 89 209 90 208 91 200 92 209 93 200 94 201 95 201 96 200 97 188 98 201 99 188 100 189 101 189 102 188 103 180 104 189 105 180 106 181 107 181 108 180 109 168 110 181 111 168 112 169 113 169 114 168 115 160 116 169 117 160 118 161 119 161 120 160 121 148 122 161 123 148 124 149 125 149 126 148 127 140 128 149 129 140 130 141 131 141 132 140 133 128 134 141 135 128 136 129 137 129 138 128 139 120 140 129 141 120 142 121 143 121 144 120 145 116 146 121 147 116 148 117 149 117 150 116 151 112 152 117 153 112 154 113 155 114 156 25 157 118 158 118 159 25 160 33 161 118 162 33 163 126 164 112 165 9 166 114 167 114 168 9 169 17 170 114 171 17 172 25 173 146 174 133 175 158 176 158 177 133 178 153 179 158 180 153 181 166 182 214 183 210 184 317 185 206 186 301 187 210 188 210 189 301 190 309 191 210 192 309 193 317 194 186 195 263 196 198 197 198 198 263 199 279 200 198 201 279 202 206 203 206 204 279 205 293 206 206 207 293 208 301 209 153 210 173 211 166 212 166 213 173 214 193 215 166 216 193 217 178 218 138 219 95 220 146 221 146 222 95 223 107 224 146 225 107 226 133 227 116 228 13 229 112 230 112 231 13 232 5 233 112 234 5 235 9 236 193 237 219 238 178 239 178 240 219 241 231 242 178 243 231 244 186 245 186 246 231 247 247 248 186 249 247 250 263 251 120 252 29 253 116 254 116 255 29 256 21 257 116 258 21 259 13 260 140 261 67 262 128 263 128 264 67 265 51 266 128 267 51 268 120 269 120 270 51 271 37 272 120 273 37 274 29 275 212 276 305 277 208 278 208 279 305 280 297 281 208 282 297 283 200 284 317 285 325 286 214 287 214 288 325 289 321 290 214 291 321 292 212 293 212 294 321 295 313 296 212 297 313 298 305 299 33 300 47 301 126 302 126 303 47 304 63 305 126 306 63 307 138 308 138 309 63 310 79 311 138 312 79 313 95 314 148 315 99 316 140 317 140 318 99 319 83 320 140 321 83 322 67 323 160 324 137 325 148 326 148 327 137 328 111 329 148 330 111 331 99 332 180 333 197 334 168 335 168 336 197 337 177 338 168 339 177 340 160 341 160 342 177 343 157 344 160 345 157 346 137 347 188 348 235 349 180 350 180 351 235 352 223 353 180 354 223 355 197 356 297 357 283 358 200 359 200 360 283 361 267 362 200 363 267 364 188 365 188 366 267 367 251 368 188 369 251 370 235 371 5 372 4 373 8 374 5 375 8 376 9 377 9 378 8 379 16 380 9 381 16 382 17 383 17 384 16 385 24 386 17 387 24 388 25 389 25 390 24 391 32 392 25 393 32 394 33 395 33 396 32 397 46 398 33 399 46 400 47 401 47 402 46 403 62 404 47 405 62 406 63 407 63 408 62 409 78 410 63 411 78 412 79 413 79 414 78 415 94 416 79 417 94 418 95 419 95 420 94 421 106 422 95 423 106 424 107 425 107 426 106 427 132 428 107 429 132 430 133 431 133 432 132 433 152 434 133 435 152 436 153 437 153 438 152 439 172 440 153 441 172 442 173 443 173 444 172 445 192 446 173 447 192 448 193 449 193 450 192 451 218 452 193 453 218 454 219 455 219 456 218 457 230 458 219 459 230 460 231 461 231 462 230 463 246 464 231 465 246 466 247 467 247 468 246 469 262 470 247 471 262 472 263 473 263 474 262 475 278 476 263 477 278 478 279 479 279 480 278 481 292 482 279 483 292 484 293 485 293 486 292 487 300 488 293 489 300 490 301 491 301 492 300 493 308 494 301 495 308 496 309 497 309 498 308 499 316 500 309 501 316 502 317 503 317 504 316 505 324 506 317 507 324 508 325 509 325 510 324 511 320 512 325 513 320 514 321 515 321 516 320 517 312 518 321 519 312 520 313 521 313 522 312 523 304 524 313 525 304 526 305 527 305 528 304 529 296 530 305 531 296 532 297 533 297 534 296 535 282 536 297 537 282 538 283 539 283 540 282 541 266 542 283 543 266 544 267 545 267 546 266 547 250 548 267 549 250 550 251 551 251 552 250 553 234 554 251 555 234 556 235 557 235 558 234 559 222 560 235 561 222 562 223 563 223 564 222 565 196 566 223 567 196 568 197 569 197 570 196 571 176 572 197 573 176 574 177 575 177 576 176 577 156 578 177 579 156 580 157 581 157 582 156 583 136 584 157 585 136 586 137 587 137 588 136 589 110 590 137 591 110 592 111 593 111 594 110 595 98 596 111 597 98 598 99 599 99 600 98 601 82 602 99 603 82 604 83 605 83 606 82 607 66 608 83 609 66 610 67 611 67 612 66 613 50 614 67 615 50 616 51 617 51 618 50 619 36 620 51 621 36 622 37 623 37 624 36 625 28 626 37 627 28 628 29 629 29 630 28 631 20 632 29 633 20 634 21 635 21 636 20 637 12 638 21 639 12 640 13 641 13 642 12 643 4 644 13 645 4 646 5 647 316 648 308 649 327 650 1 651 16 652 8 653 66 654 82 655 75 656 75 657 82 658 98 659 75 660 98 661 110 662 262 663 246 664 253 665 253 666 246 667 230 668 253 669 230 670 218 671 8 672 4 673 1 674 1 675 4 676 12 677 1 678 12 679 20 680 20 681 28 682 1 683 1 684 28 685 36 686 1 687 36 688 75 689 75 690 36 691 50 692 75 693 50 694 66 695 255 696 196 697 222 698 308 699 300 700 327 701 327 702 300 703 292 704 327 705 292 706 253 707 253 708 292 709 278 710 253 711 278 712 262 713 73 714 78 715 62 716 110 717 136 718 75 719 75 720 136 721 156 722 75 723 156 724 255 725 255 726 156 727 176 728 255 729 176 730 196 731 222 732 234 733 255 734 255 735 234 736 250 737 255 738 250 739 266 740 132 741 106 742 73 743 73 744 106 745 94 746 73 747 94 748 78 749 312 750 320 751 327 752 327 753 320 754 324 755 327 756 324 757 316 758 218 759 192 760 253 761 253 762 192 763 172 764 253 765 172 766 73 767 73 768 172 769 152 770 73 771 152 772 132 773 62 774 46 775 73 776 73 777 46 778 32 779 73 780 32 781 1 782 1 783 32 784 24 785 1 786 24 787 16 788 266 789 282 790 255 791 255 792 282 793 296 794 255 795 296 796 327 797 327 798 296 799 304 800 327 801 304 802 312 803 254 804 255 805 326 806 326 807 255 808 327 809 74 810 75 811 254 812 254 813 75 814 255 815 0 816 1 817 74 818 74 819 1 820 75 821 72 822 73 823 0 824 0 825 73 826 1 827 252 828 253 829 72 830 72 831 253 832 73 833 326 834 327 835 252 836 252 837 327 838 253 839 0 840 19 841 11 842 11 843 3 844 0 845 0 846 3 847 7 848 0 849 7 850 15 851 252 852 191 853 217 854 217 855 229 856 252 857 252 858 229 859 245 860 252 861 245 862 261 863 326 864 307 865 315 866 15 867 23 868 0 869 0 870 23 871 31 872 0 873 31 874 72 875 72 876 31 877 45 878 72 879 45 880 61 881 61 882 77 883 72 884 72 885 77 886 93 887 72 888 93 889 105 890 105 891 131 892 72 893 72 894 131 895 151 896 72 897 151 898 252 899 252 900 151 901 171 902 252 903 171 904 191 905 261 906 277 907 252 908 252 909 277 910 291 911 252 912 291 913 326 914 326 915 291 916 299 917 326 918 299 919 307 920 315 921 323 922 326 923 326 924 323 925 319 926 326 927 319 928 311 929 81 930 65 931 74 932 65 933 49 934 74 935 74 936 49 937 35 938 74 939 35 940 0 941 0 942 35 943 27 944 0 945 27 946 19 947 311 948 303 949 326 950 326 951 303 952 295 953 326 954 295 955 254 956 254 957 295 958 281 959 254 960 281 961 265 962 265 963 249 964 254 965 254 966 249 967 233 968 254 969 233 970 221 971 135 972 109 973 74 974 74 975 109 976 97 977 74 978 97 979 81 980 221 981 195 982 254 983 254 984 195 985 175 986 254 987 175 988 74 989 74 990 175 991 155 992 74 993 155 994 135 995 3 996 2 997 6 998 3 999 6 1000 7 1001 7 1002 6 1003 14 1004 7 1005 14 1006 15 1007 15 1008 14 1009 22 1010 15 1011 22 1012 23 1013 23 1014 22 1015 30 1016 23 1017 30 1018 31 1019 31 1020 30 1021 44 1022 31 1023 44 1024 45 1025 45 1026 44 1027 60 1028 45 1029 60 1030 61 1031 61 1032 60 1033 76 1034 61 1035 76 1036 77 1037 77 1038 76 1039 92 1040 77 1041 92 1042 93 1043 93 1044 92 1045 104 1046 93 1047 104 1048 105 1049 105 1050 104 1051 130 1052 105 1053 130 1054 131 1055 131 1056 130 1057 150 1058 131 1059 150 1060 151 1061 151 1062 150 1063 170 1064 151 1065 170 1066 171 1067 171 1068 170 1069 190 1070 171 1071 190 1072 191 1073 191 1074 190 1075 216 1076 191 1077 216 1078 217 1079 217 1080 216 1081 228 1082 217 1083 228 1084 229 1085 229 1086 228 1087 244 1088 229 1089 244 1090 245 1091 245 1092 244 1093 260 1094 245 1095 260 1096 261 1097 261 1098 260 1099 276 1100 261 1101 276 1102 277 1103 277 1104 276 1105 290 1106 277 1107 290 1108 291 1109 291 1110 290 1111 298 1112 291 1113 298 1114 299 1115 299 1116 298 1117 306 1118 299 1119 306 1120 307 1121 307 1122 306 1123 314 1124 307 1125 314 1126 315 1127 315 1128 314 1129 322 1130 315 1131 322 1132 323 1133 323 1134 322 1135 318 1136 323 1137 318 1138 319 1139 319 1140 318 1141 310 1142 319 1143 310 1144 311 1145 311 1146 310 1147 302 1148 311 1149 302 1150 303 1151 303 1152 302 1153 294 1154 303 1155 294 1156 295 1157 295 1158 294 1159 280 1160 295 1161 280 1162 281 1163 281 1164 280 1165 264 1166 281 1167 264 1168 265 1169 265 1170 264 1171 248 1172 265 1173 248 1174 249 1175 249 1176 248 1177 232 1178 249 1179 232 1180 233 1181 233 1182 232 1183 220 1184 233 1185 220 1186 221 1187 221 1188 220 1189 194 1190 221 1191 194 1192 195 1193 195 1194 194 1195 174 1196 195 1197 174 1198 175 1199 175 1200 174 1201 154 1202 175 1203 154 1204 155 1205 155 1206 154 1207 134 1208 155 1209 134 1210 135 1211 135 1212 134 1213 108 1214 135 1215 108 1216 109 1217 109 1218 108 1219 96 1220 109 1221 96 1222 97 1223 97 1224 96 1225 80 1226 97 1227 80 1228 81 1229 81 1230 80 1231 64 1232 81 1233 64 1234 65 1235 65 1236 64 1237 48 1238 65 1239 48 1240 49 1241 49 1242 48 1243 34 1244 49 1245 34 1246 35 1247 35 1248 34 1249 26 1250 35 1251 26 1252 27 1253 27 1254 26 1255 18 1256 27 1257 18 1258 19 1259 19 1260 18 1261 10 1262 19 1263 10 1264 11 1265 11 1266 10 1267 2 1268 11 1269 2 1270 3 1271 163 1272 150 1273 143 1274 143 1275 150 1276 130 1277 143 1278 130 1279 123 1280 123 1281 130 1282 104 1283 123 1284 104 1285 101 1286 101 1287 104 1288 92 1289 101 1290 92 1291 89 1292 89 1293 92 1294 76 1295 89 1296 76 1297 85 1298 85 1299 76 1300 60 1301 85 1302 60 1303 69 1304 269 1305 290 1306 257 1307 257 1308 290 1309 276 1310 257 1311 276 1312 241 1313 241 1314 276 1315 260 1316 241 1317 260 1318 237 1319 237 1320 260 1321 244 1322 237 1323 244 1324 225 1325 225 1326 244 1327 228 1328 225 1329 228 1330 203 1331 203 1332 228 1333 216 1334 203 1335 216 1336 183 1337 183 1338 216 1339 190 1340 183 1341 190 1342 163 1343 163 1344 190 1345 170 1346 163 1347 170 1348 150 1349 60 1350 44 1351 69 1352 69 1353 44 1354 30 1355 69 1356 30 1357 57 1358 57 1359 30 1360 22 1361 57 1362 22 1363 53 1364 53 1365 22 1366 14 1367 53 1368 14 1369 41 1370 41 1371 14 1372 6 1373 41 1374 6 1375 39 1376 39 1377 6 1378 2 1379 39 1380 2 1381 43 1382 43 1383 2 1384 10 1385 43 1386 10 1387 55 1388 55 1389 10 1390 18 1391 55 1392 18 1393 59 1394 259 1395 294 1396 271 1397 271 1398 294 1399 302 1400 271 1401 302 1402 275 1403 275 1404 302 1405 310 1406 275 1407 310 1408 287 1409 287 1410 310 1411 318 1412 287 1413 318 1414 289 1415 289 1416 318 1417 322 1418 289 1419 322 1420 285 1421 285 1422 322 1423 314 1424 285 1425 314 1426 273 1427 273 1428 314 1429 306 1430 273 1431 306 1432 269 1433 269 1434 306 1435 298 1436 269 1437 298 1438 290 1439 18 1440 26 1441 59 1442 59 1443 26 1444 34 1445 59 1446 34 1447 71 1448 71 1449 34 1450 48 1451 71 1452 48 1453 87 1454 87 1455 48 1456 64 1457 87 1458 64 1459 91 1460 91 1461 64 1462 80 1463 91 1464 80 1465 103 1466 103 1467 80 1468 96 1469 103 1470 96 1471 125 1472 125 1473 96 1474 108 1475 125 1476 108 1477 145 1478 145 1479 108 1480 134 1481 145 1482 134 1483 165 1484 134 1485 154 1486 165 1487 165 1488 154 1489 174 1490 165 1491 174 1492 185 1493 185 1494 174 1495 194 1496 185 1497 194 1498 205 1499 205 1500 194 1501 220 1502 205 1503 220 1504 227 1505 227 1506 220 1507 232 1508 227 1509 232 1510 239 1511 239 1512 232 1513 248 1514 239 1515 248 1516 243 1517 243 1518 248 1519 264 1520 243 1521 264 1522 259 1523 259 1524 264 1525 280 1526 259 1527 280 1528 294 1529 39 1530 38 1531 40 1532 39 1533 40 1534 41 1535 41 1536 40 1537 52 1538 41 1539 52 1540 53 1541 53 1542 52 1543 56 1544 53 1545 56 1546 57 1547 57 1548 56 1549 68 1550 57 1551 68 1552 69 1553 69 1554 68 1555 84 1556 69 1557 84 1558 85 1559 85 1560 84 1561 88 1562 85 1563 88 1564 89 1565 89 1566 88 1567 100 1568 89 1569 100 1570 101 1571 101 1572 100 1573 122 1574 101 1575 122 1576 123 1577 123 1578 122 1579 142 1580 123 1581 142 1582 143 1583 143 1584 142 1585 162 1586 143 1587 162 1588 163 1589 163 1590 162 1591 182 1592 163 1593 182 1594 183 1595 183 1596 182 1597 202 1598 183 1599 202 1600 203 1601 203 1602 202 1603 224 1604 203 1605 224 1606 225 1607 225 1608 224 1609 236 1610 225 1611 236 1612 237 1613 237 1614 236 1615 240 1616 237 1617 240 1618 241 1619 241 1620 240 1621 256 1622 241 1623 256 1624 257 1625 257 1626 256 1627 268 1628 257 1629 268 1630 269 1631 269 1632 268 1633 272 1634 269 1635 272 1636 273 1637 273 1638 272 1639 284 1640 273 1641 284 1642 285 1643 285 1644 284 1645 288 1646 285 1647 288 1648 289 1649 289 1650 288 1651 286 1652 289 1653 286 1654 287 1655 287 1656 286 1657 274 1658 287 1659 274 1660 275 1661 275 1662 274 1663 270 1664 275 1665 270 1666 271 1667 271 1668 270 1669 258 1670 271 1671 258 1672 259 1673 259 1674 258 1675 242 1676 259 1677 242 1678 243 1679 243 1680 242 1681 238 1682 243 1683 238 1684 239 1685 239 1686 238 1687 226 1688 239 1689 226 1690 227 1691 227 1692 226 1693 204 1694 227 1695 204 1696 205 1697 205 1698 204 1699 184 1700 205 1701 184 1702 185 1703 185 1704 184 1705 164 1706 185 1707 164 1708 165 1709 165 1710 164 1711 144 1712 165 1713 144 1714 145 1715 145 1716 144 1717 124 1718 145 1719 124 1720 125 1721 125 1722 124 1723 102 1724 125 1725 102 1726 103 1727 103 1728 102 1729 90 1730 103 1731 90 1732 91 1733 91 1734 90 1735 86 1736 91 1737 86 1738 87 1739 87 1740 86 1741 70 1742 87 1743 70 1744 71 1745 71 1746 70 1747 58 1748 71 1749 58 1750 59 1751 59 1752 58 1753 54 1754 59 1755 54 1756 55 1757 55 1758 54 1759 42 1760 55 1761 42 1762 43 1763 43 1764 42 1765 38 1766 43 1767 38 1768 39 1769 258 1770 270 1771 90 1772 84 1773 68 1774 56 1775 272 1776 268 1777 284 1778 284 1779 268 1780 58 1781 236 1782 224 1783 240 1784 240 1785 224 1786 58 1787 240 1788 58 1789 256 1790 256 1791 58 1792 268 1793 86 1794 90 1795 70 1796 70 1797 90 1798 270 1799 70 1800 270 1801 58 1802 242 1803 258 1804 238 1805 238 1806 258 1807 90 1808 238 1809 90 1810 226 1811 226 1812 90 1813 102 1814 226 1815 102 1816 204 1817 204 1818 102 1819 124 1820 204 1821 124 1822 184 1823 184 1824 124 1825 144 1826 184 1827 144 1828 164 1829 288 1830 284 1831 286 1832 286 1833 284 1834 58 1835 286 1836 58 1837 274 1838 274 1839 58 1840 270 1841 84 1842 56 1843 224 1844 224 1845 56 1846 52 1847 224 1848 52 1849 40 1850 224 1851 202 1852 84 1853 84 1854 202 1855 182 1856 84 1857 182 1858 88 1859 88 1860 182 1861 162 1862 88 1863 162 1864 100 1865 100 1866 162 1867 142 1868 100 1869 142 1870 122 1871 54 1872 58 1873 42 1874 42 1875 58 1876 224 1877 42 1878 224 1879 38 1880 38 1881 224 1882 40 1883 121 1884 117 1885 113 1886 169 1887 161 1888 149 1889 113 1890 207 1891 121 1892 121 1893 207 1894 211 1895 121 1896 211 1897 215 1898 169 1899 149 1900 181 1901 181 1902 149 1903 141 1904 181 1905 141 1906 189 1907 189 1908 141 1909 129 1910 189 1911 129 1912 201 1913 201 1914 129 1915 121 1916 201 1917 121 1918 209 1919 209 1920 121 1921 215 1922 209 1923 215 1924 213 1925 113 1926 115 1927 207 1928 207 1929 115 1930 119 1931 207 1932 119 1933 127 1934 187 1935 199 1936 179 1937 179 1938 199 1939 207 1940 167 1941 179 1942 159 1943 159 1944 179 1945 207 1946 159 1947 207 1948 147 1949 147 1950 207 1951 127 1952 147 1953 127 1954 139 1955</p>
        </triangles>
      </mesh>
      <extra>
        <technique profile="OpenCOLLADAMaya">
          <originalMayaNodeId>MeshShape</originalMayaNodeId>
          <double_sided>1</double_sided>
        </technique>
      </extra>
    </geometry>
  </library_geometries>
  <library_visual_scenes>
    <visual_scene id="VisualSceneNode" name="untitled">
      <node id="tskbd_panel_assembly_slot2_b04_base_Mesh" name="Mesh" type="NODE">
        <translate sid="translate">0 0 0</translate>
        <rotate sid="rotateZ">0 0 1 0</rotate>
        <rotate sid="rotateY">0 1 0 0</rotate>
        <rotate sid="rotateX">1 0 0 0</rotate>
        <scale sid="scale">1 1 1</scale>
        <instance_geometry url="#MeshShape">
          <bind_material>
            <technique_common>
              <instance_material symbol="initialShadingGroup" target="#lambert1"/>
            </technique_common>
          </bind_material>
        </instance_geometry>
        <extra>
          <technique profile="OpenCOLLADAMaya">
            <originalMayaNodeId>Mesh</originalMayaNodeId>
          </technique>
        </extra>
      </node>
    </visual_scene>
  </library_visual_scenes>
  <scene>
    <instance_visual_scene url="#VisualSceneNode"/>
  </scene>
</COLLADA>