<?xml version="1.0" encoding="utf-8"?>
<COLLADA xmlns="http://www.collada.org/2005/11/COLLADASchema" version="1.4.1">
  <asset>
    <contributor>
      <author>Karl</author>
      <authoring_tool>OpenCOLLADA2011 x64</authoring_tool>
      <comments>
			ColladaMaya export options: 
			bakeTransforms=0;relativePaths=0;copyTextures=0;exportTriangles=1;exportCgfxFileReferences=1;
			isSampling=0;curveConstrainSampling=0;removeStaticCurves=1;exportPolygonMeshes=1;exportLights=0;
			exportCameras=0;exportJointsAndSkin=0;exportAnimations=0;exportInvisibleNodes=0;exportDefaultCameras=0;
			exportTexCoords=1;exportNormals=1;exportNormalsPerVertex=1;exportVertexColors=1;exportVertexColorsPerVertex=1;
			exportTexTangents=0;exportTangents=0;exportReferencedMaterials=0;exportMaterialsOnly=0;
			exportXRefs=1;dereferenceXRefs=1;exportCameraAsLookat=0;cameraXFov=0;cameraYFov=1;doublePrecision=0
		</comments>
      <source_data>file:///C:/Users/Karl/Documents/maya/projects/default/untitled</source_data>
    </contributor>
    <created>2012-06-22T17:46:41</created>
    <modified>2012-06-22T17:46:41</modified>
    <unit name="centimeter" meter="0.01"/>
    <up_axis>Y_UP</up_axis>
  </asset>
  <library_materials>
    <material id="material_1" name="material_1">
      <instance_effect url="#material_1-fx"/>
    </material>
    <material id="material_3" name="material_3">
      <instance_effect url="#material_3-fx"/>
    </material>
  </library_materials>
  <library_effects>
    <effect id="material_1-fx">
      <profile_COMMON>
        <technique sid="common">
          <phong>
            <emission>
              <color>0 0 0 1</color>
            </emission>
            <ambient>
              <color>0.2 0.2 0.2 1</color>
            </ambient>
            <diffuse>
              <color>0.599216 0.599216 0.599216 1</color>
            </diffuse>
            <specular>
              <color>1 1 1 1</color>
            </specular>
            <shininess>
              <float>2</float>
            </shininess>
            <reflective>
              <color>0 0 0 1</color>
            </reflective>
            <reflectivity>
              <float>0.5</float>
            </reflectivity>
            <transparent opaque="RGB_ZERO">
              <color>0 0 0 1</color>
            </transparent>
            <transparency>
              <float>1</float>
            </transparency>
          </phong>
        </technique>
      </profile_COMMON>
    </effect>
    <effect id="material_3-fx">
      <profile_COMMON>
        <technique sid="common">
          <phong>
            <emission>
              <color>0 0 0 1</color>
            </emission>
            <ambient>
              <color>0.2 0.2 0.2 1</color>
            </ambient>
            <diffuse>
              <color>0.8 0.8 0.8 1</color>
            </diffuse>
            <specular>
              <color>1 1 1 1</color>
            </specular>
            <shininess>
              <float>2</float>
            </shininess>
            <reflective>
              <color>0 0 0 1</color>
            </reflective>
            <reflectivity>
              <float>0.5</float>
            </reflectivity>
            <transparent opaque="RGB_ZERO">
              <color>0 0 0 1</color>
            </transparent>
            <transparency>
              <float>1</float>
            </transparency>
          </phong>
        </technique>
      </profile_COMMON>
    </effect>
  </library_effects>
  <library_geometries>
    <geometry id="MeshShape" name="MeshShape">
      <mesh>
        <source id="MeshShape-positions" name="MeshShape-positions">
          <float_array id="MeshShape-positions-array" count="1050">-0.109855 -0.154305 0 -0.109855 -0.154305 0.003239 -0.109855 0.154305 0 -0.109855 0.154305 0.003239 -0.109833 -0.154305 0.003494 -0.109833 0.154305 0.003494 -0.109793 -0.154305 0.00363 -0.109793 0.154305 0.00363 -0.109765 -0.155369 0.003239 -0.109765 0.155369 0.003239 -0.109744 -0.155365 0.003494 -0.109744 0.155365 0.003494 -0.109726 -0.154305 0.003853 -0.109726 0.154305 0.003853 -0.109696 -0.155718 0 -0.109696 0.155718 0 -0.109663 -0.155708 0.003239 -0.109663 0.155708 0.003239 -0.109641 -0.154305 0.003995 -0.109641 0.154305 0.003995 -0.109638 -0.155347 0.003853 -0.109638 0.155347 0.003853 -0.109533 -0.154305 0.004175 -0.109533 0.154305 0.004175 -0.109448 -0.155315 0.004175 -0.109448 0.155315 0.004175 -0.1094 -0.154305 0.004308 -0.1094 0.154305 0.004308 -0.109316 -0.156866 0.003239 -0.109316 0.156866 0.003239 -0.109296 -0.156857 0.003494 -0.109296 0.156857 0.003494 -0.109268 -0.154305 0.004441 -0.109268 0.154305 0.004441 -0.109226 -0.15706 0 -0.109226 0.15706 0 -0.109207 -0.157048 0.003239 -0.109207 0.157048 0.003239 -0.109197 -0.156814 0.003853 -0.109197 0.156814 0.003853 -0.109186 -0.15527 0.004441 -0.109186 0.15527 0.004441 -0.109087 -0.154305 0.004549 -0.109087 0.154305 0.004549 -0.109021 -0.156736 0.004175 -0.109021 0.156736 0.004175 -0.108946 -0.154305 0.004633 -0.108946 0.154305 0.004633 -0.108869 -0.155216 0.004633 -0.108869 0.155216 0.004633 -0.108778 -0.156629 0.004441 -0.108778 0.156629 0.004441 -0.108722 -0.154305 0.0047 -0.108722 0.154305 0.0047 -0.108586 -0.154305 0.004741 -0.108586 0.154305 0.004741 -0.108514 -0.155156 0.004741 -0.108514 0.155156 0.004741 -0.108514 -0.158208 0.003239 -0.108514 0.158208 0.003239 -0.108497 -0.158195 0.003494 -0.108497 0.158195 0.003494 -0.108484 -0.156499 0.004633 -0.108484 0.156499 0.004633 -0.10847 -0.158264 0 -0.10847 0.158264 0 -0.108464 -0.158258 0.003239 -0.108464 0.158258 0.003239 -0.108412 -0.158129 0.003853 -0.108412 0.158129 0.003853 -0.108331 -0.154305 0.004763 -0.108331 0.154305 0.004763 -0.108263 -0.155113 0.004763 -0.108263 0.155113 0.004763 -0.10826 -0.15801 0.004175 -0.10826 0.15801 0.004175 -0.108155 -0.156354 0.004741 -0.108155 0.156354 0.004741 -0.108051 -0.157847 0.004441 -0.108051 0.157847 0.004441 -0.107921 -0.156251 0.004763 -0.107921 0.156251 0.004763 -0.107796 -0.157649 0.004633 -0.107796 0.157649 0.004633 -0.107513 -0.157428 0.004741 -0.107513 0.157428 0.004741 -0.107464 -0.15927 0 -0.107464 0.15927 0 -0.107458 -0.159264 0.003239 -0.107458 0.159264 0.003239 -0.107408 -0.159314 0.003239 -0.107408 0.159314 0.003239 -0.107395 -0.159297 0.003494 -0.107395 0.159297 0.003494 -0.107329 -0.159212 0.003853 -0.107329 0.159212 0.003853 -0.107312 -0.157271 0.004763 -0.107312 0.157271 0.004763 -0.10721 -0.15906 0.004175 -0.10721 0.15906 0.004175 -0.107047 -0.158851 0.004441 -0.107047 0.158851 0.004441 -0.106849 -0.158596 0.004633 -0.106849 0.158596 0.004633 -0.106628 -0.158313 0.004741 -0.106628 0.158313 0.004741 -0.106471 -0.158112 0.004763 -0.106471 0.158112 0.004763 -0.10626 -0.160026 0 -0.10626 0.160026 0 -0.106248 -0.160007 0.003239 -0.106248 0.160007 0.003239 -0.106066 -0.160116 0.003239 -0.106066 0.160116 0.003239 -0.106057 -0.160096 0.003494 -0.106057 0.160096 0.003494 -0.106014 -0.159997 0.003853 -0.106014 0.159997 0.003853 -0.105936 -0.159821 0.004175 -0.105936 0.159821 0.004175 -0.105829 -0.159578 0.004441 -0.105829 0.159578 0.004441 -0.105699 -0.159284 0.004633 -0.105699 0.159284 0.004633 -0.105554 -0.158955 0.004741 -0.105554 0.158955 0.004741 -0.105451 -0.158721 0.004763 -0.105451 0.158721 0.004763 -0.104918 -0.160496 0 -0.104918 0.160496 0 -0.104908 -0.160463 0.003239 -0.104908 0.160463 0.003239 -0.104569 -0.160565 0.003239 -0.104569 0.160565 0.003239 -0.104565 -0.160544 0.003494 -0.104565 0.160544 0.003494 -0.104547 -0.160438 0.003853 -0.104547 0.160438 0.003853 -0.104515 -0.160248 0.004175 -0.104515 0.160248 0.004175 -0.10447 -0.159986 0.004441 -0.10447 0.159986 0.004441 -0.104416 -0.159669 0.004633 -0.104416 0.159669 0.004633 -0.104356 -0.159314 0.004741 -0.104356 0.159314 0.004741 -0.104313 -0.159063 0.004763 -0.104313 0.159063 0.004763 -0.103505 -0.160655 0 -0.103505 -0.160655 0.003239 -0.103505 -0.160633 0.003494 -0.103505 -0.160593 0.00363 -0.103505 -0.160526 0.003853 -0.103505 -0.160441 0.003995 -0.103505 -0.160333 0.004175 -0.103505 -0.1602 0.004308 -0.103505 -0.160068 0.004441 -0.103505 -0.159887 0.004549 -0.103505 -0.159746 0.004633 -0.103505 -0.159522 0.0047 -0.103505 -0.159386 0.004741 -0.103505 -0.159131 0.004763 -0.103505 0.159131 0.004763 -0.103505 0.159386 0.004741 -0.103505 0.159522 0.0047 -0.103505 0.159746 0.004633 -0.103505 0.159887 0.004549 -0.103505 0.160068 0.004441 -0.103505 0.1602 0.004308 -0.103505 0.160333 0.004175 -0.103505 0.160441 0.003995 -0.103505 0.160526 0.003853 -0.103505 0.160593 0.00363 -0.103505 0.160633 0.003494 -0.103505 0.160655 0 -0.103505 0.160655 0.003239 0.103505 -0.160655 0 0.103505 -0.160655 0.003239 0.103505 -0.160633 0.003494 0.103505 -0.160593 0.00363 0.103505 -0.160526 0.003853 0.103505 -0.160441 0.003995 0.103505 -0.160333 0.004175 0.103505 -0.1602 0.004308 0.103505 -0.160068 0.004441 0.103505 -0.159887 0.004549 0.103505 -0.159746 0.004633 0.103505 -0.159522 0.0047 0.103505 -0.159386 0.004741 0.103505 -0.159131 0.004763 0.103505 0.159131 0.004763 0.103505 0.159386 0.004741 0.103505 0.159522 0.0047 0.103505 0.159746 0.004633 0.103505 0.159887 0.004549 0.103505 0.160068 0.004441 0.103505 0.1602 0.004308 0.103505 0.160333 0.004175 0.103505 0.160441 0.003995 0.103505 0.160526 0.003853 0.103505 0.160593 0.00363 0.103505 0.160633 0.003494 0.103505 0.160655 0 0.103505 0.160655 0.003239 0.104313 -0.159063 0.004763 0.104313 0.159063 0.004763 0.104356 -0.159314 0.004741 0.104356 0.159314 0.004741 0.104416 -0.159669 0.004633 0.104416 0.159669 0.004633 0.10447 -0.159986 0.004441 0.10447 0.159986 0.004441 0.104515 -0.160248 0.004175 0.104515 0.160248 0.004175 0.104547 -0.160438 0.003853 0.104547 0.160438 0.003853 0.104565 -0.160544 0.003494 0.104565 0.160544 0.003494 0.104569 -0.160565 0.003239 0.104569 0.160565 0.003239 0.104908 -0.160463 0.003239 0.104918 -0.160496 0 0.105135 0.160395 0.003239 0.105149 0.160439 0 0.105451 -0.158721 0.004763 0.105451 0.158721 0.004763 0.105554 -0.158955 0.004741 0.105554 0.158955 0.004741 0.105699 -0.159284 0.004633 0.105699 0.159284 0.004633 0.105829 -0.159578 0.004441 0.105829 0.159578 0.004441 0.105936 -0.159821 0.004175 0.105936 0.159821 0.004175 0.106014 -0.159997 0.003853 0.106014 0.159997 0.003853 0.106057 -0.160096 0.003494 0.106057 0.160096 0.003494 0.106066 -0.160116 0.003239 0.106066 0.160116 0.003239 0.106248 -0.160007 0.003239 0.10626 -0.160026 0 0.106471 -0.158112 0.004763 0.106471 0.158112 0.004763 0.106628 -0.158313 0.004741 0.106628 0.158313 0.004741 0.106656 0.159763 0.003239 0.10668 0.159804 0 0.106849 -0.158596 0.004633 0.106849 0.158596 0.004633 0.107047 -0.158851 0.004441 0.107047 0.158851 0.004441 0.10721 -0.15906 0.004175 0.10721 0.15906 0.004175 0.107312 -0.157271 0.004763 0.107312 0.157271 0.004763 0.107329 -0.159212 0.003853 0.107329 0.159212 0.003853 0.107395 -0.159297 0.003494 0.107395 0.159297 0.003494 0.107408 -0.159314 0.003239 0.107408 0.159314 0.003239 0.107458 -0.159264 0.003239 0.107464 -0.15927 0 0.107513 -0.157428 0.004741 0.107513 0.157428 0.004741 0.107796 -0.157649 0.004633 0.107796 0.157649 0.004633 0.107921 -0.156251 0.004763 0.107921 0.156251 0.004763 0.107961 0.158761 0.003239 0.107995 0.158795 0 0.108051 -0.157847 0.004441 0.108051 0.157847 0.004441 0.108155 -0.156354 0.004741 0.108155 0.156354 0.004741 0.10826 -0.15801 0.004175 0.10826 0.15801 0.004175 0.108263 -0.155113 0.004763 0.108263 0.155113 0.004763 0.108331 -0.154305 0.004763 0.108331 0.154305 0.004763 0.108412 -0.158129 0.003853 0.108412 0.158129 0.003853 0.108464 -0.158258 0.003239 0.10847 -0.158264 0 0.108484 -0.156499 0.004633 0.108484 0.156499 0.004633 0.108497 -0.158195 0.003494 0.108497 0.158195 0.003494 0.108514 -0.158208 0.003239 0.108514 0.158208 0.003239 0.108514 -0.155156 0.004741 0.108514 0.155156 0.004741 0.108586 -0.154305 0.004741 0.108586 0.154305 0.004741 0.108722 -0.154305 0.0047 0.108722 0.154305 0.0047 0.108778 -0.156629 0.004441 0.108778 0.156629 0.004441 0.108869 -0.155216 0.004633 0.108869 0.155216 0.004633 0.108946 -0.154305 0.004633 0.108946 0.154305 0.004633 0.108963 0.157456 0.003239 0.109004 0.15748 0 0.109021 -0.156736 0.004175 0.109021 0.156736 0.004175 0.109087 -0.154305 0.004549 0.109087 0.154305 0.004549 0.109186 -0.15527 0.004441 0.109186 0.15527 0.004441 0.109197 -0.156814 0.003853 0.109197 0.156814 0.003853 0.109207 -0.157048 0.003239 0.109226 -0.15706 0 0.109268 -0.154305 0.004441 0.109268 0.154305 0.004441 0.109296 -0.156857 0.003494 0.109296 0.156857 0.003494 0.109316 -0.156866 0.003239 0.109316 0.156866 0.003239 0.1094 -0.154305 0.004308 0.1094 0.154305 0.004308 0.109448 -0.155315 0.004175 0.109448 0.155315 0.004175 0.109533 -0.154305 0.004175 0.109533 0.154305 0.004175 0.109595 0.155935 0.003239 0.109638 -0.155347 0.003853 0.109638 0.155347 0.003853 0.109639 0.155949 0 0.109641 -0.154305 0.003995 0.109641 0.154305 0.003995 0.109663 -0.155708 0.003239 0.109696 -0.155718 0 0.109726 -0.154305 0.003853 0.109726 0.154305 0.003853 0.109744 -0.155365 0.003494 0.109744 0.155365 0.003494 0.109765 -0.155369 0.003239 0.109765 0.155369 0.003239 0.109793 -0.154305 0.00363 0.109793 0.154305 0.00363 0.109833 -0.154305 0.003494 0.109833 0.154305 0.003494 0.109855 -0.154305 0 0.109855 -0.154305 0.003239 0.109855 0.154305 0 0.109855 0.154305 0.003239</float_array>
          <technique_common>
            <accessor source="#MeshShape-positions-array" count="350" stride="3">
              <param name="X" type="float"/>
              <param name="Y" type="float"/>
              <param name="Z" type="float"/>
            </accessor>
          </technique_common>
        </source>
        <source id="MeshShape-normals" name="MeshShape-normals">
          <float_array id="MeshShape-normals-array" count="6264">0.9586158 -3.98e-4 0.2847029 0.9370832 -1.66e-4 0.3491061 0.9061251 -0.191037 0.3774151 0.8578224 -3.32e-4 0.5139462 0.8161318 -1.42e-4 0.5778659 0.7873604 -0.1667611 0.5935103 0.7079977 -2.54e-4 0.7062148 0.64333 -1.1e-4 0.765589 0.6210904 -0.1325581 0.7724475 0.5122321 -1.68e-4 0.8588471 0.4211419 0 0.9069948 0.4150231 -0.08974003 0.9053743 0.287045 0 0.9579171 0.1934081 0 0.9811184 0.208498 -0.04828301 0.9768302 1.48e-4 -0.287692 0.957723 0 -0.347198 0.9377919 0.076029 -0.372288 0.924998 2.72e-4 -0.512046 0.858958 1.57e-4 -0.5771068 0.8166687 0.120346 -0.5843781 0.8025081 3.78e-4 -0.708891 0.705318 2.2e-4 -0.7663437 0.6424308 0.1571851 -0.7591463 0.6316563 4.57e-4 -0.8576312 0.5142651 2.76e-4 -0.9059607 0.4233618 0.184759 -0.8877219 0.4216799 5.04e-4 -0.9581044 0.2864191 3.12e-4 -0.9818045 0.1898939 0.2025149 -0.9562555 0.2110999 0.2025149 -0.9562555 0.2110999 3.12e-4 -0.9818045 0.1898939 2.32e-4 -0.9999801 0.006313001 0.002039 -0.009686 0.999951 0 0 1 0 -0.130463 0.9914532 0 -0.130463 0.9914532 0.040952 -0.210401 0.9767571 0.002039 -0.009686 0.999951 0.002039 -0.009686 0.999951 0.040952 -0.210401 0.9767571 0.07600003 -0.1946131 0.9779314 0.002039 -0.009686 0.999951 0.07600003 -0.1946131 0.9779314 0.008250998 -0.016741 0.9998258 0.008250998 -0.016741 0.9998258 0.07600003 -0.1946131 0.9779314 0.1214321 -0.1702651 0.9778876 0.008250998 -0.016741 0.9998258 0.1214321 -0.1702651 0.9778876 0.04055502 -0.04769302 0.9980385 0.04055502 -0.04769302 0.9980385 0.1214321 -0.1702651 0.9778876 0.1593699 -0.13553 0.9778717 0.04055502 -0.04769302 0.9980385 0.1593699 -0.13553 0.9778717 0.02830399 -0.02017399 0.9993958 0.02830399 -0.02017399 0.9993958 0.1593699 -0.13553 0.9778717 0.18748 -0.09239602 0.9779133 0.02830399 -0.02017399 0.9993958 0.18748 -0.09239602 0.9779133 0.01048 -0.004090999 0.9999368 0.01048 -0.004090999 0.9999368 0.18748 -0.09239602 0.9779133 0.208498 -0.04828301 0.9768302 0.01048 -0.004090999 0.9999368 0.208498 -0.04828301 0.9768302 0.005938999 -0.001023 0.9999819 0.005938999 -0.001023 0.9999819 0.208498 -0.04828301 0.9768302 0.1934081 0 0.9811184 0.005938999 -0.001023 0.9999819 0.1934081 0 0.9811184 0.004267 0 0.9999909 0.9999802 -2.91e-4 0.006297002 0.9916511 -2.86e-4 0.12895 0.9924008 -0.123024 0.002418 0.9924008 -0.123024 0.002418 0.9916511 -2.86e-4 0.12895 0.958725 -0.196482 0.205527 0.9924008 -0.123024 0.002418 0.958725 -0.196482 0.205527 0.9576351 -0.287249 0.020568 0.9576351 -0.287249 0.020568 0.958725 -0.196482 0.205527 0.9085703 -0.3626851 0.2072671 0.9576351 -0.287249 0.020568 0.9085703 -0.3626851 0.2072671 0.9452882 -0.3261981 0.005000001 0.9452882 -0.3261981 0.005000001 0.9085703 -0.3626851 0.2072671 0.8582772 -0.5128911 0.017404 0.8582772 -0.5128911 0.017404 0.9085703 -0.3626851 0.2072671 0.7943407 -0.5711428 0.2069269 0.8582772 -0.5128911 0.017404 0.7943407 -0.5711428 0.2069269 0.8496257 -0.5273598 0.005283998 0.8496257 -0.5273598 0.005283998 0.7943407 -0.5711428 0.2069269 0.7070397 -0.7070397 0.01378199 0.7070397 -0.7070397 0.01378199 0.7943407 -0.5711428 0.2069269 0.6205217 -0.7600107 0.1932269 0.7070397 -0.7070397 0.01378199 0.6205217 -0.7600107 0.1932269 0.7070962 -0.7070942 0.005741002 0.4059642 -0.8900354 0.2074371 0.5128912 -0.8582773 0.017403 0.6205217 -0.7600107 0.1932269 0.6205217 -0.7600107 0.1932269 0.5128912 -0.8582773 0.017403 0.5273598 -0.8496257 0.005283998 0.6205217 -0.7600107 0.1932269 0.5273598 -0.8496257 0.005283998 0.7070962 -0.7070942 0.005741002 2.32e-4 -0.9999801 0.006313001 0.1241419 -0.9922645 0 0.2025149 -0.9562555 0.2110999 0.2025149 -0.9562555 0.2110999 0.1241419 -0.9922645 0 0.287249 -0.9576351 0.020569 0.2025149 -0.9562555 0.2110999 0.287249 -0.9576351 0.020569 0.4059642 -0.8900354 0.2074371 0.4059642 -0.8900354 0.2074371 0.287249 -0.9576351 0.020569 0.3261981 -0.9452882 0.004998001 0.4059642 -0.8900354 0.2074371 0.3261981 -0.9452882 0.004998001 0.5128912 -0.8582773 0.017403 0.4211419 0 0.9069948 0.287045 0 0.9579171 0.4150231 -0.08974003 0.9053743 0.4150231 -0.08974003 0.9053743 0.287045 0 0.9579171 0.208498 -0.04828301 0.9768302 0.4150231 -0.08974003 0.9053743 0.208498 -0.04828301 0.9768302 0.3684699 -0.168624 0.9142188 0.3684699 -0.168624 0.9142188 0.208498 -0.04828301 0.9768302 0.18748 -0.09239602 0.9779133 0.3684699 -0.168624 0.9142188 0.18748 -0.09239602 0.9779133 0.3158911 -0.2534931 0.9143053 0.3158911 -0.2534931 0.9143053 0.18748 -0.09239602 0.9779133 0.1593699 -0.13553 0.9778717 0.3158911 -0.2534931 0.9143053 0.1593699 -0.13553 0.9778717 0.244627 -0.323129 0.9141911 0.244627 -0.323129 0.9141911 0.1593699 -0.13553 0.9778717 0.1214321 -0.1702651 0.9778876 0.244627 -0.323129 0.9141911 0.1214321 -0.1702651 0.9778876 0.1584109 -0.3733868 0.9140506 0.1584109 -0.3733868 0.9140506 0.1214321 -0.1702651 0.9778876 0.07600003 -0.1946131 0.9779314 0.1584109 -0.3733868 0.9140506 0.07600003 -0.1946131 0.9779314 0.076029 -0.372288 0.924998 0.076029 -0.372288 0.924998 0.07600003 -0.1946131 0.9779314 0.040952 -0.210401 0.9767571 0.076029 -0.372288 0.924998 0.040952 -0.210401 0.9767571 1.48e-4 -0.287692 0.957723 1.48e-4 -0.287692 0.957723 0.040952 -0.210401 0.9767571 0 -0.130463 0.9914532 0.64333 -1.1e-4 0.765589 0.5122321 -1.68e-4 0.8588471 0.6210904 -0.1325581 0.7724475 0.6210904 -0.1325581 0.7724475 0.5122321 -1.68e-4 0.8588471 0.4150231 -0.08974003 0.9053743 0.6210904 -0.1325581 0.7724475 0.4150231 -0.08974003 0.9053743 0.5623888 -0.2536179 0.7870177 0.5623888 -0.2536179 0.7870177 0.4150231 -0.08974003 0.9053743 0.3684699 -0.168624 0.9142188 0.5623888 -0.2536179 0.7870177 0.3684699 -0.168624 0.9142188 0.4829979 -0.3832079 0.7873148 0.4829979 -0.3832079 0.7873148 0.3684699 -0.168624 0.9142188 0.3158911 -0.2534931 0.9143053 0.4829979 -0.3832079 0.7873148 0.3158911 -0.2534931 0.9143053 0.3744242 -0.4893682 0.7876074 0.3744242 -0.4893682 0.7876074 0.3158911 -0.2534931 0.9143053 0.244627 -0.323129 0.9141911 0.3744242 -0.4893682 0.7876074 0.244627 -0.323129 0.9141911 0.2436529 -0.5662519 0.7873958 0.2436529 -0.5662519 0.7873958 0.244627 -0.323129 0.9141911 0.1584109 -0.3733868 0.9140506 0.2436529 -0.5662519 0.7873958 0.1584109 -0.3733868 0.9140506 0.120346 -0.5843781 0.8025081 0.120346 -0.5843781 0.8025081 0.1584109 -0.3733868 0.9140506 0.076029 -0.372288 0.924998 0.120346 -0.5843781 0.8025081 0.076029 -0.372288 0.924998 2.72e-4 -0.512046 0.858958 2.72e-4 -0.512046 0.858958 0.076029 -0.372288 0.924998 0 -0.347198 0.9377919 0.8161318 -1.42e-4 0.5778659 0.7079977 -2.54e-4 0.7062148 0.7873604 -0.1667611 0.5935103 0.7873604 -0.1667611 0.5935103 0.7079977 -2.54e-4 0.7062148 0.6210904 -0.1325581 0.7724475 0.7873604 -0.1667611 0.5935103 0.6210904 -0.1325581 0.7724475 0.7208669 -0.322421 0.613511 0.7208669 -0.322421 0.613511 0.6210904 -0.1325581 0.7724475 0.5623888 -0.2536179 0.7870177 0.7208669 -0.322421 0.613511 0.5623888 -0.2536179 0.7870177 0.6202654 -0.4887883 0.6134794 0.6202654 -0.4887883 0.6134794 0.5623888 -0.2536179 0.7870177 0.4829979 -0.3832079 0.7873148 0.6202654 -0.4887883 0.6134794 0.4829979 -0.3832079 0.7873148 0.4820741 -0.6257512 0.6132211 0.4820741 -0.6257512 0.6132211 0.4829979 -0.3832079 0.7873148 0.3744242 -0.4893682 0.7876074 0.4820741 -0.6257512 0.6132211 0.3744242 -0.4893682 0.7876074 0.31464 -0.7245839 0.6131719 0.31464 -0.7245839 0.6131719 0.3744242 -0.4893682 0.7876074 0.2436529 -0.5662519 0.7873958 0.31464 -0.7245839 0.6131719 0.2436529 -0.5662519 0.7873958 0.1571851 -0.7591463 0.6316563 0.1571851 -0.7591463 0.6316563 0.2436529 -0.5662519 0.7873958 0.120346 -0.5843781 0.8025081 0.1571851 -0.7591463 0.6316563 0.120346 -0.5843781 0.8025081 3.78e-4 -0.708891 0.705318 3.78e-4 -0.708891 0.705318 0.120346 -0.5843781 0.8025081 1.57e-4 -0.5771068 0.8166687 0.9370832 -1.66e-4 0.3491061 0.8578224 -3.32e-4 0.5139462 0.9061251 -0.191037 0.3774151 0.9061251 -0.191037 0.3774151 0.8578224 -3.32e-4 0.5139462 0.7873604 -0.1667611 0.5935103 0.9061251 -0.191037 0.3774151 0.7873604 -0.1667611 0.5935103 0.8364216 -0.3718538 0.4026458 0.8364216 -0.3718538 0.4026458 0.7873604 -0.1667611 0.5935103 0.7208669 -0.322421 0.613511 0.8364216 -0.3718538 0.4026458 0.7208669 -0.322421 0.613511 0.7202209 -0.564854 0.4027679 0.7202209 -0.564854 0.4027679 0.7208669 -0.322421 0.613511 0.6202654 -0.4887883 0.6134794 0.7202209 -0.564854 0.4027679 0.6202654 -0.4887883 0.6134794 0.560077 -0.723767 0.403082 0.560077 -0.723767 0.403082 0.6202654 -0.4887883 0.6134794 0.4820741 -0.6257512 0.6132211 0.560077 -0.723767 0.403082 0.4820741 -0.6257512 0.6132211 0.3664068 -0.8387785 0.4027368 0.3664068 -0.8387785 0.4027368 0.4820741 -0.6257512 0.6132211 0.31464 -0.7245839 0.6131719 0.3664068 -0.8387785 0.4027368 0.31464 -0.7245839 0.6131719 0.184759 -0.8877219 0.4216799 0.184759 -0.8877219 0.4216799 0.31464 -0.7245839 0.6131719 0.1571851 -0.7591463 0.6316563 0.184759 -0.8877219 0.4216799 0.1571851 -0.7591463 0.6316563 4.57e-4 -0.8576312 0.5142651 4.57e-4 -0.8576312 0.5142651 0.1571851 -0.7591463 0.6316563 2.2e-4 -0.7663437 0.6424308 0.9916511 -2.86e-4 0.12895 0.9586158 -3.98e-4 0.2847029 0.958725 -0.196482 0.205527 0.958725 -0.196482 0.205527 0.9586158 -3.98e-4 0.2847029 0.9061251 -0.191037 0.3774151 0.958725 -0.196482 0.205527 0.9061251 -0.191037 0.3774151 0.9085703 -0.3626851 0.2072671 0.9085703 -0.3626851 0.2072671 0.9061251 -0.191037 0.3774151 0.8364216 -0.3718538 0.4026458 0.9085703 -0.3626851 0.2072671 0.8364216 -0.3718538 0.4026458 0.7943407 -0.5711428 0.2069269 0.7943407 -0.5711428 0.2069269 0.8364216 -0.3718538 0.4026458 0.7202209 -0.564854 0.4027679 0.7943407 -0.5711428 0.2069269 0.7202209 -0.564854 0.4027679 0.6205217 -0.7600107 0.1932269 0.6205217 -0.7600107 0.1932269 0.7202209 -0.564854 0.4027679 0.560077 -0.723767 0.403082 0.6205217 -0.7600107 0.1932269 0.560077 -0.723767 0.403082 0.4059642 -0.8900354 0.2074371 0.4059642 -0.8900354 0.2074371 0.560077 -0.723767 0.403082 0.3664068 -0.8387785 0.4027368 0.4059642 -0.8900354 0.2074371 0.3664068 -0.8387785 0.4027368 0.2025149 -0.9562555 0.2110999 0.2025149 -0.9562555 0.2110999 0.3664068 -0.8387785 0.4027368 0.184759 -0.8877219 0.4216799 0.2025149 -0.9562555 0.2110999 0.184759 -0.8877219 0.4216799 5.04e-4 -0.9581044 0.2864191 5.04e-4 -0.9581044 0.2864191 0.184759 -0.8877219 0.4216799 2.76e-4 -0.9059607 0.4233618 -4.33e-4 -0.9999801 0.006299001 2.32e-4 -0.9999801 0.006313001 -4.26e-4 -0.9916499 0.128959 -4.26e-4 -0.9916499 0.128959 2.32e-4 -0.9999801 0.006313001 3.12e-4 -0.9818045 0.1898939 -4.26e-4 -0.9916499 0.128959 3.12e-4 -0.9818045 0.1898939 -5.92e-4 -0.9586263 0.2846671 -5.92e-4 -0.9586263 0.2846671 3.12e-4 -0.9818045 0.1898939 5.04e-4 -0.9581044 0.2864191 -5.92e-4 -0.9586263 0.2846671 5.04e-4 -0.9581044 0.2864191 -2.47e-4 -0.9370694 0.3491432 -2.47e-4 -0.9370694 0.3491432 5.04e-4 -0.9581044 0.2864191 2.76e-4 -0.9059607 0.4233618 -2.47e-4 -0.9370694 0.3491432 2.76e-4 -0.9059607 0.4233618 -4.94e-4 -0.8577984 0.5139862 -4.94e-4 -0.8577984 0.5139862 2.76e-4 -0.9059607 0.4233618 4.57e-4 -0.8576312 0.5142651 -4.94e-4 -0.8577984 0.5139862 4.57e-4 -0.8576312 0.5142651 -2.12e-4 -0.8161132 0.5778921 -2.12e-4 -0.8161132 0.5778921 4.57e-4 -0.8576312 0.5142651 2.2e-4 -0.7663437 0.6424308 -2.12e-4 -0.8161132 0.5778921 2.2e-4 -0.7663437 0.6424308 -3.77e-4 -0.7080107 0.7062017 -3.77e-4 -0.7080107 0.7062017 2.2e-4 -0.7663437 0.6424308 3.78e-4 -0.708891 0.705318 -3.77e-4 -0.7080107 0.7062017 3.78e-4 -0.708891 0.705318 -1.64e-4 -0.6432958 0.7656177 -1.64e-4 -0.6432958 0.7656177 3.78e-4 -0.708891 0.705318 1.57e-4 -0.5771068 0.8166687 -1.64e-4 -0.6432958 0.7656177 1.57e-4 -0.5771068 0.8166687 -2.51e-4 -0.5122321 0.8588471 -2.51e-4 -0.5122321 0.8588471 1.57e-4 -0.5771068 0.8166687 2.72e-4 -0.512046 0.858958 -2.51e-4 -0.5122321 0.8588471 2.72e-4 -0.512046 0.858958 -1e-4 -0.4210981 0.9070151 -1e-4 -0.4210981 0.9070151 2.72e-4 -0.512046 0.858958 0 -0.347198 0.9377919 -1e-4 -0.4210981 0.9070151 0 -0.347198 0.9377919 -1.26e-4 -0.2870381 0.9579192 -1.26e-4 -0.2870381 0.9579192 0 -0.347198 0.9377919 1.48e-4 -0.287692 0.957723 -1.26e-4 -0.2870381 0.9579192 1.48e-4 -0.287692 0.957723 0 -0.193508 0.9810988 0 -0.193508 0.9810988 1.48e-4 -0.287692 0.957723 0 -0.130463 0.9914532 0 -0.193508 0.9810988 0 -0.130463 0.9914532 0 0 1 0 0 1 0 -0.130463 0.9914532 0 0 1 -0.2876968 0 0.9577215 -0.347173 0 0.9378011 -0.3722889 -0.07602798 0.9249977 -0.5120448 -1.83e-4 0.8589587 -0.5770733 -1.06e-4 0.8166924 -0.5843782 -0.120344 0.8025083 -0.7088866 -2.54e-4 0.7053226 -0.7663023 -1.48e-4 0.6424803 -0.7591459 -0.157185 0.6316569 -0.8576421 -3.07e-4 0.5142471 -0.905955 -1.86e-4 0.423374 -0.8877228 -0.184759 0.4216779 -0.9580942 -3.39e-4 0.2864531 -0.9818274 -3.47e-4 0.1897761 -0.9503207 -0.2153839 0.2247229 -5.92e-4 -0.9586263 0.2846671 -2.47e-4 -0.9370694 0.3491432 -0.191037 -0.9061248 0.3774159 -4.94e-4 -0.8577984 0.5139862 -2.12e-4 -0.8161132 0.5778921 -0.16676 -0.7873622 0.5935081 -3.77e-4 -0.7080107 0.7062017 -1.64e-4 -0.6432958 0.7656177 -0.1325589 -0.6210887 0.7724487 -2.51e-4 -0.5122321 0.8588471 -1e-4 -0.4210981 0.9070151 -0.08974101 -0.4150211 0.9053751 -1.26e-4 -0.2870381 0.9579192 0 -0.193508 0.9810988 -0.04484502 -0.1982781 0.9791195 -0.04484502 -0.1982781 0.9791195 0 -0.193508 0.9810988 0 0 1 -4.33e-4 -0.9999801 0.006299001 -4.26e-4 -0.9916499 0.128959 -0.1230271 -0.9924005 0.002419001 -0.1230271 -0.9924005 0.002419001 -4.26e-4 -0.9916499 0.128959 -0.196481 -0.958726 0.205523 -0.1230271 -0.9924005 0.002419001 -0.196481 -0.958726 0.205523 -0.287249 -0.9576351 0.020569 -0.287249 -0.9576351 0.020569 -0.196481 -0.958726 0.205523 -0.3626838 -0.9085715 0.2072639 -0.5711439 -0.7943389 0.206931 -0.5128912 -0.8582773 0.017403 -0.3626838 -0.9085715 0.2072639 -0.3626838 -0.9085715 0.2072639 -0.5128912 -0.8582773 0.017403 -0.3261981 -0.9452882 0.004998001 -0.3626838 -0.9085715 0.2072639 -0.3261981 -0.9452882 0.004998001 -0.287249 -0.9576351 0.020569 -0.8496257 -0.5273598 0.005283998 -0.7070962 -0.7070942 0.005742001 -0.7600107 -0.6205227 0.1932239 -0.7600107 -0.6205227 0.1932239 -0.7070962 -0.7070942 0.005742001 -0.7070396 -0.7070396 0.01378499 -0.7600107 -0.6205227 0.1932239 -0.7070396 -0.7070396 0.01378499 -0.5711439 -0.7943389 0.206931 -0.5711439 -0.7943389 0.206931 -0.7070396 -0.7070396 0.01378499 -0.5273598 -0.8496257 0.005283998 -0.5711439 -0.7943389 0.206931 -0.5273598 -0.8496257 0.005283998 -0.5128912 -0.8582773 0.017403 -0.8496257 -0.5273598 0.005283998 -0.7600107 -0.6205227 0.1932239 -0.8582772 -0.5128911 0.017404 -0.8582772 -0.5128911 0.017404 -0.7600107 -0.6205227 0.1932239 -0.890036 -0.405965 0.207433 -0.8582772 -0.5128911 0.017404 -0.890036 -0.405965 0.207433 -0.9452882 -0.3261981 0.005000001 -0.9452882 -0.3261981 0.005000001 -0.890036 -0.405965 0.207433 -0.9576351 -0.287249 0.020568 -0.9576351 -0.287249 0.020568 -0.890036 -0.405965 0.207433 -0.9503207 -0.2153839 0.2247229 -0.9576351 -0.287249 0.020568 -0.9503207 -0.2153839 0.2247229 -0.9924008 -0.123024 0.002418 -0.9924008 -0.123024 0.002418 -0.9503207 -0.2153839 0.2247229 -0.9818274 -3.47e-4 0.1897761 -0.9924008 -0.123024 0.002418 -0.9818274 -3.47e-4 0.1897761 -0.9999802 -1.46e-4 0.006297002 -0.009686 -0.002039 0.999951 -0.004322999 0 0.9999906 -0.130459 0 0.9914538 0 0 1 -8.89e-4 -0.004219999 0.9999908 -0.04484502 -0.1982781 0.9791195 -0.04484502 -0.1982781 0.9791195 -8.89e-4 -0.004219999 0.9999908 -0.004090999 -0.01048 0.9999368 -0.04484502 -0.1982781 0.9791195 -0.004090999 -0.01048 0.9999368 -0.09239697 -0.187482 0.9779128 -0.09239697 -0.187482 0.9779128 -0.004090999 -0.01048 0.9999368 -0.02017399 -0.02830399 0.9993958 -0.09239697 -0.187482 0.9779128 -0.02017399 -0.02830399 0.9993958 -0.1355309 -0.1593699 0.9778715 -0.1355309 -0.1593699 0.9778715 -0.02017399 -0.02830399 0.9993958 -0.04769402 -0.04055502 0.9980384 -0.1355309 -0.1593699 0.9778715 -0.04769402 -0.04055502 0.9980384 -0.170264 -0.121431 0.9778879 -0.170264 -0.121431 0.9778879 -0.04769402 -0.04055502 0.9980384 -0.016741 -0.008250998 0.9998258 -0.170264 -0.121431 0.9778879 -0.016741 -0.008250998 0.9998258 -0.194611 -0.07599999 0.9779319 -0.194611 -0.07599999 0.9779319 -0.016741 -0.008250998 0.9998258 -0.009686 -0.002039 0.999951 -0.194611 -0.07599999 0.9779319 -0.009686 -0.002039 0.999951 -0.210401 -0.040952 0.9767571 -0.210401 -0.040952 0.9767571 -0.009686 -0.002039 0.999951 -0.130459 0 0.9914538 -1e-4 -0.4210981 0.9070151 -1.26e-4 -0.2870381 0.9579192 -0.08974101 -0.4150211 0.9053751 -0.08974101 -0.4150211 0.9053751 -1.26e-4 -0.2870381 0.9579192 -0.04484502 -0.1982781 0.9791195 -0.08974101 -0.4150211 0.9053751 -0.04484502 -0.1982781 0.9791195 -0.168625 -0.368471 0.9142181 -0.168625 -0.368471 0.9142181 -0.04484502 -0.1982781 0.9791195 -0.09239697 -0.187482 0.9779128 -0.168625 -0.368471 0.9142181 -0.09239697 -0.187482 0.9779128 -0.2534941 -0.3158931 0.9143043 -0.2534941 -0.3158931 0.9143043 -0.09239697 -0.187482 0.9779128 -0.1355309 -0.1593699 0.9778715 -0.2534941 -0.3158931 0.9143043 -0.1355309 -0.1593699 0.9778715 -0.323128 -0.244625 0.914192 -0.323128 -0.244625 0.914192 -0.1355309 -0.1593699 0.9778715 -0.170264 -0.121431 0.9778879 -0.323128 -0.244625 0.914192 -0.170264 -0.121431 0.9778879 -0.3733868 -0.1584109 0.9140506 -0.3733868 -0.1584109 0.9140506 -0.170264 -0.121431 0.9778879 -0.194611 -0.07599999 0.9779319 -0.3733868 -0.1584109 0.9140506 -0.194611 -0.07599999 0.9779319 -0.3722889 -0.07602798 0.9249977 -0.3722889 -0.07602798 0.9249977 -0.194611 -0.07599999 0.9779319 -0.210401 -0.040952 0.9767571 -0.3722889 -0.07602798 0.9249977 -0.210401 -0.040952 0.9767571 -0.2876968 0 0.9577215 -0.2876968 0 0.9577215 -0.210401 -0.040952 0.9767571 -0.130459 0 0.9914538 -1.64e-4 -0.6432958 0.7656177 -2.51e-4 -0.5122321 0.8588471 -0.1325589 -0.6210887 0.7724487 -0.1325589 -0.6210887 0.7724487 -2.51e-4 -0.5122321 0.8588471 -0.08974101 -0.4150211 0.9053751 -0.1325589 -0.6210887 0.7724487 -0.08974101 -0.4150211 0.9053751 -0.253618 -0.5623841 0.7870211 -0.253618 -0.5623841 0.7870211 -0.08974101 -0.4150211 0.9053751 -0.168625 -0.368471 0.9142181 -0.253618 -0.5623841 0.7870211 -0.168625 -0.368471 0.9142181 -0.3832081 -0.4829991 0.7873141 -0.3832081 -0.4829991 0.7873141 -0.168625 -0.368471 0.9142181 -0.2534941 -0.3158931 0.9143043 -0.3832081 -0.4829991 0.7873141 -0.2534941 -0.3158931 0.9143043 -0.489369 -0.374426 0.787606 -0.489369 -0.374426 0.787606 -0.2534941 -0.3158931 0.9143043 -0.323128 -0.244625 0.914192 -0.489369 -0.374426 0.787606 -0.323128 -0.244625 0.914192 -0.566252 -0.243652 0.787396 -0.566252 -0.243652 0.787396 -0.323128 -0.244625 0.914192 -0.3733868 -0.1584109 0.9140506 -0.566252 -0.243652 0.787396 -0.3733868 -0.1584109 0.9140506 -0.5843782 -0.120344 0.8025083 -0.5843782 -0.120344 0.8025083 -0.3733868 -0.1584109 0.9140506 -0.3722889 -0.07602798 0.9249977 -0.5843782 -0.120344 0.8025083 -0.3722889 -0.07602798 0.9249977 -0.5120448 -1.83e-4 0.8589587 -0.5120448 -1.83e-4 0.8589587 -0.3722889 -0.07602798 0.9249977 -0.347173 0 0.9378011 -2.12e-4 -0.8161132 0.5778921 -3.77e-4 -0.7080107 0.7062017 -0.16676 -0.7873622 0.5935081 -0.16676 -0.7873622 0.5935081 -3.77e-4 -0.7080107 0.7062017 -0.1325589 -0.6210887 0.7724487 -0.16676 -0.7873622 0.5935081 -0.1325589 -0.6210887 0.7724487 -0.3224218 -0.7208666 0.6135107 -0.3224218 -0.7208666 0.6135107 -0.1325589 -0.6210887 0.7724487 -0.253618 -0.5623841 0.7870211 -0.3224218 -0.7208666 0.6135107 -0.253618 -0.5623841 0.7870211 -0.4887872 -0.6202643 0.6134813 -0.4887872 -0.6202643 0.6134813 -0.253618 -0.5623841 0.7870211 -0.3832081 -0.4829991 0.7873141 -0.4887872 -0.6202643 0.6134813 -0.3832081 -0.4829991 0.7873141 -0.6257511 -0.4820731 0.6132221 -0.6257511 -0.4820731 0.6132221 -0.3832081 -0.4829991 0.7873141 -0.489369 -0.374426 0.787606 -0.6257511 -0.4820731 0.6132221 -0.489369 -0.374426 0.787606 -0.7245888 -0.3146429 0.6131648 -0.7245888 -0.3146429 0.6131648 -0.489369 -0.374426 0.787606 -0.566252 -0.243652 0.787396 -0.7245888 -0.3146429 0.6131648 -0.566252 -0.243652 0.787396 -0.7591459 -0.157185 0.6316569 -0.7591459 -0.157185 0.6316569 -0.566252 -0.243652 0.787396 -0.5843782 -0.120344 0.8025083 -0.7591459 -0.157185 0.6316569 -0.5843782 -0.120344 0.8025083 -0.7088866 -2.54e-4 0.7053226 -0.7088866 -2.54e-4 0.7053226 -0.5843782 -0.120344 0.8025083 -0.5770733 -1.06e-4 0.8166924 -2.47e-4 -0.9370694 0.3491432 -4.94e-4 -0.8577984 0.5139862 -0.191037 -0.9061248 0.3774159 -0.191037 -0.9061248 0.3774159 -4.94e-4 -0.8577984 0.5139862 -0.16676 -0.7873622 0.5935081 -0.191037 -0.9061248 0.3774159 -0.16676 -0.7873622 0.5935081 -0.371854 -0.8364181 0.4026531 -0.371854 -0.8364181 0.4026531 -0.16676 -0.7873622 0.5935081 -0.3224218 -0.7208666 0.6135107 -0.371854 -0.8364181 0.4026531 -0.3224218 -0.7208666 0.6135107 -0.5648541 -0.7202212 0.4027671 -0.5648541 -0.7202212 0.4027671 -0.3224218 -0.7208666 0.6135107 -0.4887872 -0.6202643 0.6134813 -0.5648541 -0.7202212 0.4027671 -0.4887872 -0.6202643 0.6134813 -0.7237676 -0.5600778 0.4030798 -0.7237676 -0.5600778 0.4030798 -0.4887872 -0.6202643 0.6134813 -0.6257511 -0.4820731 0.6132221 -0.7237676 -0.5600778 0.4030798 -0.6257511 -0.4820731 0.6132221 -0.8387778 -0.3664059 0.4027389 -0.8387778 -0.3664059 0.4027389 -0.6257511 -0.4820731 0.6132221 -0.7245888 -0.3146429 0.6131648 -0.8387778 -0.3664059 0.4027389 -0.7245888 -0.3146429 0.6131648 -0.8877228 -0.184759 0.4216779 -0.8877228 -0.184759 0.4216779 -0.7245888 -0.3146429 0.6131648 -0.7591459 -0.157185 0.6316569 -0.8877228 -0.184759 0.4216779 -0.7591459 -0.157185 0.6316569 -0.8576421 -3.07e-4 0.5142471 -0.8576421 -3.07e-4 0.5142471 -0.7591459 -0.157185 0.6316569 -0.7663023 -1.48e-4 0.6424803 -4.26e-4 -0.9916499 0.128959 -5.92e-4 -0.9586263 0.2846671 -0.196481 -0.958726 0.205523 -0.196481 -0.958726 0.205523 -5.92e-4 -0.9586263 0.2846671 -0.191037 -0.9061248 0.3774159 -0.196481 -0.958726 0.205523 -0.191037 -0.9061248 0.3774159 -0.3626838 -0.9085715 0.2072639 -0.3626838 -0.9085715 0.2072639 -0.191037 -0.9061248 0.3774159 -0.371854 -0.8364181 0.4026531 -0.3626838 -0.9085715 0.2072639 -0.371854 -0.8364181 0.4026531 -0.5711439 -0.7943389 0.206931 -0.5711439 -0.7943389 0.206931 -0.371854 -0.8364181 0.4026531 -0.5648541 -0.7202212 0.4027671 -0.5711439 -0.7943389 0.206931 -0.5648541 -0.7202212 0.4027671 -0.7600107 -0.6205227 0.1932239 -0.7600107 -0.6205227 0.1932239 -0.5648541 -0.7202212 0.4027671 -0.7237676 -0.5600778 0.4030798 -0.7600107 -0.6205227 0.1932239 -0.7237676 -0.5600778 0.4030798 -0.890036 -0.405965 0.207433 -0.890036 -0.405965 0.207433 -0.7237676 -0.5600778 0.4030798 -0.8387778 -0.3664059 0.4027389 -0.890036 -0.405965 0.207433 -0.8387778 -0.3664059 0.4027389 -0.9503207 -0.2153839 0.2247229 -0.9503207 -0.2153839 0.2247229 -0.8387778 -0.3664059 0.4027389 -0.8877228 -0.184759 0.4216779 -0.9503207 -0.2153839 0.2247229 -0.8877228 -0.184759 0.4216779 -0.9580942 -3.39e-4 0.2864531 -0.9580942 -3.39e-4 0.2864531 -0.8877228 -0.184759 0.4216779 -0.905955 -1.86e-4 0.423374 -0.004322999 0 0.9999906 -0.004273 0 0.9999909 -0.130459 0 0.9914538 -0.130459 0 0.9914538 -0.004273 0 0.9999909 -0.1935399 0 0.9810924 -0.130459 0 0.9914538 -0.1935399 0 0.9810924 -0.2876968 0 0.9577215 -0.2876968 0 0.9577215 -0.1935399 0 0.9810924 -0.287045 0 0.9579171 -0.2876968 0 0.9577215 -0.287045 0 0.9579171 -0.347173 0 0.9378011 -0.347173 0 0.9378011 -0.287045 0 0.9579171 -0.4211419 0 0.9069948 -0.347173 0 0.9378011 -0.4211419 0 0.9069948 -0.5120448 -1.83e-4 0.8589587 -0.5120448 -1.83e-4 0.8589587 -0.4211419 0 0.9069948 -0.5122321 1.68e-4 0.8588471 -0.5120448 -1.83e-4 0.8589587 -0.5122321 1.68e-4 0.8588471 -0.5770733 -1.06e-4 0.8166924 -0.5770733 -1.06e-4 0.8166924 -0.5122321 1.68e-4 0.8588471 -0.64333 1.1e-4 0.765589 -0.5770733 -1.06e-4 0.8166924 -0.64333 1.1e-4 0.765589 -0.7088866 -2.54e-4 0.7053226 -0.7088866 -2.54e-4 0.7053226 -0.64333 1.1e-4 0.765589 -0.7079977 2.54e-4 0.7062148 -0.7088866 -2.54e-4 0.7053226 -0.7079977 2.54e-4 0.7062148 -0.7663023 -1.48e-4 0.6424803 -0.7663023 -1.48e-4 0.6424803 -0.7079977 2.54e-4 0.7062148 -0.8161318 1.42e-4 0.5778659 -0.7663023 -1.48e-4 0.6424803 -0.8161318 1.42e-4 0.5778659 -0.8576421 -3.07e-4 0.5142471 -0.8576421 -3.07e-4 0.5142471 -0.8161318 1.42e-4 0.5778659 -0.8578224 3.32e-4 0.5139462 -0.8576421 -3.07e-4 0.5142471 -0.8578224 3.32e-4 0.5139462 -0.905955 -1.86e-4 0.423374 -0.905955 -1.86e-4 0.423374 -0.8578224 3.32e-4 0.5139462 -0.9370832 1.66e-4 0.3491061 -0.905955 -1.86e-4 0.423374 -0.9370832 1.66e-4 0.3491061 -0.9580942 -3.39e-4 0.2864531 -0.9580942 -3.39e-4 0.2864531 -0.9370832 1.66e-4 0.3491061 -0.9586158 3.98e-4 0.2847029 -0.9580942 -3.39e-4 0.2864531 -0.9586158 3.98e-4 0.2847029 -0.9818274 -3.47e-4 0.1897761 -0.9818274 -3.47e-4 0.1897761 -0.9586158 3.98e-4 0.2847029 -0.9916511 2.86e-4 0.12895 -0.9818274 -3.47e-4 0.1897761 -0.9916511 2.86e-4 0.12895 -0.9999802 -1.46e-4 0.006297002 -0.9999802 -1.46e-4 0.006297002 -0.9916511 2.86e-4 0.12895 -0.9999802 2.91e-4 0.006297002 -1.48e-4 0.287692 0.957723 0 0.347198 0.9377919 -0.076029 0.372288 0.924998 -2.72e-4 0.512046 0.858958 -1.57e-4 0.5771068 0.8166687 -0.120346 0.5843781 0.8025081 -3.78e-4 0.708891 0.705318 -2.2e-4 0.7663437 0.6424308 -0.1571851 0.7591463 0.6316563 -4.57e-4 0.8576312 0.5142651 -2.76e-4 0.9059607 0.4233618 -0.184759 0.8877219 0.4216799 -5.04e-4 0.9581044 0.2864191 -5.17e-4 0.9818541 0.189637 -0.2153831 0.9503214 0.2247211 -0.9586158 3.98e-4 0.2847029 -0.9370832 1.66e-4 0.3491061 -0.9061251 0.191037 0.3774151 -0.8578224 3.32e-4 0.5139462 -0.8161318 1.42e-4 0.5778659 -0.7873604 0.1667611 0.5935103 -0.7079977 2.54e-4 0.7062148 -0.64333 1.1e-4 0.765589 -0.6210904 0.1325581 0.7724475 -0.5122321 1.68e-4 0.8588471 -0.4211419 0 0.9069948 -0.4150231 0.08974003 0.9053743 -0.287045 0 0.9579171 -0.1935399 0 0.9810924 -0.1982769 0.04484499 0.9791197 -0.1982769 0.04484499 0.9791197 -0.1935399 0 0.9810924 -0.004273 0 0.9999909 -0.9999802 2.91e-4 0.006297002 -0.9916511 2.86e-4 0.12895 -0.9924008 0.123024 0.002418 -0.9924008 0.123024 0.002418 -0.9916511 2.86e-4 0.12895 -0.958725 0.196482 0.205527 -0.9924008 0.123024 0.002418 -0.958725 0.196482 0.205527 -0.9576351 0.287249 0.020568 -0.9576351 0.287249 0.020568 -0.958725 0.196482 0.205527 -0.9085703 0.3626851 0.2072671 -0.794341 0.571142 0.206928 -0.8582772 0.5128911 0.017404 -0.9085703 0.3626851 0.2072671 -0.9085703 0.3626851 0.2072671 -0.8582772 0.5128911 0.017404 -0.9452882 0.3261981 0.005000001 -0.9085703 0.3626851 0.2072671 -0.9452882 0.3261981 0.005000001 -0.9576351 0.287249 0.020568 -0.5273598 0.8496257 0.005283998 -0.7070962 0.7070942 0.005741002 -0.6205217 0.7600107 0.1932269 -0.6205217 0.7600107 0.1932269 -0.7070962 0.7070942 0.005741002 -0.7070397 0.7070397 0.01378199 -0.6205217 0.7600107 0.1932269 -0.7070397 0.7070397 0.01378199 -0.794341 0.571142 0.206928 -0.794341 0.571142 0.206928 -0.7070397 0.7070397 0.01378199 -0.8496257 0.5273598 0.005283998 -0.794341 0.571142 0.206928 -0.8496257 0.5273598 0.005283998 -0.8582772 0.5128911 0.017404 -0.5273598 0.8496257 0.005283998 -0.6205217 0.7600107 0.1932269 -0.5128912 0.8582773 0.017403 -0.5128912 0.8582773 0.017403 -0.6205217 0.7600107 0.1932269 -0.4059642 0.8900354 0.2074371 -0.5128912 0.8582773 0.017403 -0.4059642 0.8900354 0.2074371 -0.3261981 0.9452882 0.004998001 -0.3261981 0.9452882 0.004998001 -0.4059642 0.8900354 0.2074371 -0.287249 0.9576351 0.020569 -0.287249 0.9576351 0.020569 -0.4059642 0.8900354 0.2074371 -0.2153831 0.9503214 0.2247211 -0.287249 0.9576351 0.020569 -0.2153831 0.9503214 0.2247211 -0.1230271 0.9924005 0.002419001 -0.1230271 0.9924005 0.002419001 -0.2153831 0.9503214 0.2247211 -5.17e-4 0.9818541 0.189637 -0.1230271 0.9924005 0.002419001 -5.17e-4 0.9818541 0.189637 -2.17e-4 0.9999802 0.006299001 -0.002039 0.009686 0.999951 0 0 1 0 0.130463 0.9914532 -0.004273 0 0.9999909 -0.004219999 8.89e-4 0.9999908 -0.1982769 0.04484499 0.9791197 -0.1982769 0.04484499 0.9791197 -0.004219999 8.89e-4 0.9999908 -0.01048 0.004090999 0.9999368 -0.1982769 0.04484499 0.9791197 -0.01048 0.004090999 0.9999368 -0.18748 0.09239602 0.9779133 -0.18748 0.09239602 0.9779133 -0.01048 0.004090999 0.9999368 -0.02830399 0.02017399 0.9993958 -0.18748 0.09239602 0.9779133 -0.02830399 0.02017399 0.9993958 -0.1593699 0.13553 0.9778717 -0.1593699 0.13553 0.9778717 -0.02830399 0.02017399 0.9993958 -0.04055502 0.04769302 0.9980385 -0.1593699 0.13553 0.9778717 -0.04055502 0.04769302 0.9980385 -0.1214321 0.1702651 0.9778876 -0.1214321 0.1702651 0.9778876 -0.04055502 0.04769302 0.9980385 -0.008250998 0.016741 0.9998258 -0.1214321 0.1702651 0.9778876 -0.008250998 0.016741 0.9998258 -0.07600003 0.1946131 0.9779314 -0.07600003 0.1946131 0.9779314 -0.008250998 0.016741 0.9998258 -0.002039 0.009686 0.999951 -0.07600003 0.1946131 0.9779314 -0.002039 0.009686 0.999951 -0.040952 0.210401 0.9767571 -0.040952 0.210401 0.9767571 -0.002039 0.009686 0.999951 0 0.130463 0.9914532 -0.4211419 0 0.9069948 -0.287045 0 0.9579171 -0.4150231 0.08974003 0.9053743 -0.4150231 0.08974003 0.9053743 -0.287045 0 0.9579171 -0.1982769 0.04484499 0.9791197 -0.4150231 0.08974003 0.9053743 -0.1982769 0.04484499 0.9791197 -0.3684699 0.168624 0.9142188 -0.3684699 0.168624 0.9142188 -0.1982769 0.04484499 0.9791197 -0.18748 0.09239602 0.9779133 -0.3684699 0.168624 0.9142188 -0.18748 0.09239602 0.9779133 -0.3158911 0.2534931 0.9143053 -0.3158911 0.2534931 0.9143053 -0.18748 0.09239602 0.9779133 -0.1593699 0.13553 0.9778717 -0.3158911 0.2534931 0.9143053 -0.1593699 0.13553 0.9778717 -0.244627 0.323129 0.9141911 -0.244627 0.323129 0.9141911 -0.1593699 0.13553 0.9778717 -0.1214321 0.1702651 0.9778876 -0.244627 0.323129 0.9141911 -0.1214321 0.1702651 0.9778876 -0.1584109 0.3733868 0.9140506 -0.1584109 0.3733868 0.9140506 -0.1214321 0.1702651 0.9778876 -0.07600003 0.1946131 0.9779314 -0.1584109 0.3733868 0.9140506 -0.07600003 0.1946131 0.9779314 -0.076029 0.372288 0.924998 -0.076029 0.372288 0.924998 -0.07600003 0.1946131 0.9779314 -0.040952 0.210401 0.9767571 -0.076029 0.372288 0.924998 -0.040952 0.210401 0.9767571 -1.48e-4 0.287692 0.957723 -1.48e-4 0.287692 0.957723 -0.040952 0.210401 0.9767571 0 0.130463 0.9914532 -0.64333 1.1e-4 0.765589 -0.5122321 1.68e-4 0.8588471 -0.6210904 0.1325581 0.7724475 -0.6210904 0.1325581 0.7724475 -0.5122321 1.68e-4 0.8588471 -0.4150231 0.08974003 0.9053743 -0.6210904 0.1325581 0.7724475 -0.4150231 0.08974003 0.9053743 -0.5623888 0.2536179 0.7870177 -0.5623888 0.2536179 0.7870177 -0.4150231 0.08974003 0.9053743 -0.3684699 0.168624 0.9142188 -0.5623888 0.2536179 0.7870177 -0.3684699 0.168624 0.9142188 -0.4829979 0.3832079 0.7873148 -0.4829979 0.3832079 0.7873148 -0.3684699 0.168624 0.9142188 -0.3158911 0.2534931 0.9143053 -0.4829979 0.3832079 0.7873148 -0.3158911 0.2534931 0.9143053 -0.3744242 0.4893682 0.7876074 -0.3744242 0.4893682 0.7876074 -0.3158911 0.2534931 0.9143053 -0.244627 0.323129 0.9141911 -0.3744242 0.4893682 0.7876074 -0.244627 0.323129 0.9141911 -0.2436529 0.5662519 0.7873958 -0.2436529 0.5662519 0.7873958 -0.244627 0.323129 0.9141911 -0.1584109 0.3733868 0.9140506 -0.2436529 0.5662519 0.7873958 -0.1584109 0.3733868 0.9140506 -0.120346 0.5843781 0.8025081 -0.120346 0.5843781 0.8025081 -0.1584109 0.3733868 0.9140506 -0.076029 0.372288 0.924998 -0.120346 0.5843781 0.8025081 -0.076029 0.372288 0.924998 -2.72e-4 0.512046 0.858958 -2.72e-4 0.512046 0.858958 -0.076029 0.372288 0.924998 0 0.347198 0.9377919 -0.8161318 1.42e-4 0.5778659 -0.7079977 2.54e-4 0.7062148 -0.7873604 0.1667611 0.5935103 -0.7873604 0.1667611 0.5935103 -0.7079977 2.54e-4 0.7062148 -0.6210904 0.1325581 0.7724475 -0.7873604 0.1667611 0.5935103 -0.6210904 0.1325581 0.7724475 -0.7208669 0.322421 0.613511 -0.7208669 0.322421 0.613511 -0.6210904 0.1325581 0.7724475 -0.5623888 0.2536179 0.7870177 -0.7208669 0.322421 0.613511 -0.5623888 0.2536179 0.7870177 -0.6202654 0.4887883 0.6134794 -0.6202654 0.4887883 0.6134794 -0.5623888 0.2536179 0.7870177 -0.4829979 0.3832079 0.7873148 -0.6202654 0.4887883 0.6134794 -0.4829979 0.3832079 0.7873148 -0.4820741 0.6257512 0.6132211 -0.4820741 0.6257512 0.6132211 -0.4829979 0.3832079 0.7873148 -0.3744242 0.4893682 0.7876074 -0.4820741 0.6257512 0.6132211 -0.3744242 0.4893682 0.7876074 -0.31464 0.7245839 0.6131719 -0.31464 0.7245839 0.6131719 -0.3744242 0.4893682 0.7876074 -0.2436529 0.5662519 0.7873958 -0.31464 0.7245839 0.6131719 -0.2436529 0.5662519 0.7873958 -0.1571851 0.7591463 0.6316563 -0.1571851 0.7591463 0.6316563 -0.2436529 0.5662519 0.7873958 -0.120346 0.5843781 0.8025081 -0.1571851 0.7591463 0.6316563 -0.120346 0.5843781 0.8025081 -3.78e-4 0.708891 0.705318 -3.78e-4 0.708891 0.705318 -0.120346 0.5843781 0.8025081 -1.57e-4 0.5771068 0.8166687 -0.9370832 1.66e-4 0.3491061 -0.8578224 3.32e-4 0.5139462 -0.9061251 0.191037 0.3774151 -0.9061251 0.191037 0.3774151 -0.8578224 3.32e-4 0.5139462 -0.7873604 0.1667611 0.5935103 -0.9061251 0.191037 0.3774151 -0.7873604 0.1667611 0.5935103 -0.8364216 0.3718538 0.4026458 -0.8364216 0.3718538 0.4026458 -0.7873604 0.1667611 0.5935103 -0.7208669 0.322421 0.613511 -0.8364216 0.3718538 0.4026458 -0.7208669 0.322421 0.613511 -0.7202209 0.564854 0.4027679 -0.7202209 0.564854 0.4027679 -0.7208669 0.322421 0.613511 -0.6202654 0.4887883 0.6134794 -0.7202209 0.564854 0.4027679 -0.6202654 0.4887883 0.6134794 -0.560077 0.723767 0.403082 -0.560077 0.723767 0.403082 -0.6202654 0.4887883 0.6134794 -0.4820741 0.6257512 0.6132211 -0.560077 0.723767 0.403082 -0.4820741 0.6257512 0.6132211 -0.3664068 0.8387785 0.4027368 -0.3664068 0.8387785 0.4027368 -0.4820741 0.6257512 0.6132211 -0.31464 0.7245839 0.6131719 -0.3664068 0.8387785 0.4027368 -0.31464 0.7245839 0.6131719 -0.184759 0.8877219 0.4216799 -0.184759 0.8877219 0.4216799 -0.31464 0.7245839 0.6131719 -0.1571851 0.7591463 0.6316563 -0.184759 0.8877219 0.4216799 -0.1571851 0.7591463 0.6316563 -4.57e-4 0.8576312 0.5142651 -4.57e-4 0.8576312 0.5142651 -0.1571851 0.7591463 0.6316563 -2.2e-4 0.7663437 0.6424308 -0.9916511 2.86e-4 0.12895 -0.9586158 3.98e-4 0.2847029 -0.958725 0.196482 0.205527 -0.958725 0.196482 0.205527 -0.9586158 3.98e-4 0.2847029 -0.9061251 0.191037 0.3774151 -0.958725 0.196482 0.205527 -0.9061251 0.191037 0.3774151 -0.9085703 0.3626851 0.2072671 -0.9085703 0.3626851 0.2072671 -0.9061251 0.191037 0.3774151 -0.8364216 0.3718538 0.4026458 -0.9085703 0.3626851 0.2072671 -0.8364216 0.3718538 0.4026458 -0.794341 0.571142 0.206928 -0.794341 0.571142 0.206928 -0.8364216 0.3718538 0.4026458 -0.7202209 0.564854 0.4027679 -0.794341 0.571142 0.206928 -0.7202209 0.564854 0.4027679 -0.6205217 0.7600107 0.1932269 -0.6205217 0.7600107 0.1932269 -0.7202209 0.564854 0.4027679 -0.560077 0.723767 0.403082 -0.6205217 0.7600107 0.1932269 -0.560077 0.723767 0.403082 -0.4059642 0.8900354 0.2074371 -0.4059642 0.8900354 0.2074371 -0.560077 0.723767 0.403082 -0.3664068 0.8387785 0.4027368 -0.4059642 0.8900354 0.2074371 -0.3664068 0.8387785 0.4027368 -0.2153831 0.9503214 0.2247211 -0.2153831 0.9503214 0.2247211 -0.3664068 0.8387785 0.4027368 -0.184759 0.8877219 0.4216799 -0.2153831 0.9503214 0.2247211 -0.184759 0.8877219 0.4216799 -5.04e-4 0.9581044 0.2864191 -5.04e-4 0.9581044 0.2864191 -0.184759 0.8877219 0.4216799 -2.76e-4 0.9059607 0.4233618 4.33e-4 0.9999801 0.006299001 -2.17e-4 0.9999802 0.006299001 4.26e-4 0.9916499 0.128959 4.26e-4 0.9916499 0.128959 -2.17e-4 0.9999802 0.006299001 -5.17e-4 0.9818541 0.189637 4.26e-4 0.9916499 0.128959 -5.17e-4 0.9818541 0.189637 5.92e-4 0.9586263 0.2846671 5.92e-4 0.9586263 0.2846671 -5.17e-4 0.9818541 0.189637 -5.04e-4 0.9581044 0.2864191 5.92e-4 0.9586263 0.2846671 -5.04e-4 0.9581044 0.2864191 2.47e-4 0.9370694 0.3491432 2.47e-4 0.9370694 0.3491432 -5.04e-4 0.9581044 0.2864191 -2.76e-4 0.9059607 0.4233618 2.47e-4 0.9370694 0.3491432 -2.76e-4 0.9059607 0.4233618 4.94e-4 0.8577984 0.5139862 4.94e-4 0.8577984 0.5139862 -2.76e-4 0.9059607 0.4233618 -4.57e-4 0.8576312 0.5142651 4.94e-4 0.8577984 0.5139862 -4.57e-4 0.8576312 0.5142651 2.12e-4 0.8161132 0.5778921 2.12e-4 0.8161132 0.5778921 -4.57e-4 0.8576312 0.5142651 -2.2e-4 0.7663437 0.6424308 2.12e-4 0.8161132 0.5778921 -2.2e-4 0.7663437 0.6424308 3.77e-4 0.7080107 0.7062017 3.77e-4 0.7080107 0.7062017 -2.2e-4 0.7663437 0.6424308 -3.78e-4 0.708891 0.705318 3.77e-4 0.7080107 0.7062017 -3.78e-4 0.708891 0.705318 1.64e-4 0.6432958 0.7656177 1.64e-4 0.6432958 0.7656177 -3.78e-4 0.708891 0.705318 -1.57e-4 0.5771068 0.8166687 1.64e-4 0.6432958 0.7656177 -1.57e-4 0.5771068 0.8166687 2.51e-4 0.5122321 0.8588471 2.51e-4 0.5122321 0.8588471 -1.57e-4 0.5771068 0.8166687 -2.72e-4 0.512046 0.858958 2.51e-4 0.5122321 0.8588471 -2.72e-4 0.512046 0.858958 1e-4 0.4210981 0.9070151 1e-4 0.4210981 0.9070151 -2.72e-4 0.512046 0.858958 0 0.347198 0.9377919 1e-4 0.4210981 0.9070151 0 0.347198 0.9377919 1.26e-4 0.2870381 0.9579192 1.26e-4 0.2870381 0.9579192 0 0.347198 0.9377919 -1.48e-4 0.287692 0.957723 1.26e-4 0.2870381 0.9579192 -1.48e-4 0.287692 0.957723 0 0.193508 0.9810988 0 0.193508 0.9810988 -1.48e-4 0.287692 0.957723 0 0.130463 0.9914532 0 0.193508 0.9810988 0 0.130463 0.9914532 0 0 1 0 0 1 0 0.130463 0.9914532 0 0 1 0.2876968 0 0.9577215 0.347173 0 0.9378011 0.3722889 0.07602798 0.9249977 0.5120448 1.83e-4 0.8589587 0.5770733 1.06e-4 0.8166924 0.5843782 0.120344 0.8025083 0.7088866 2.54e-4 0.7053226 0.7663023 1.48e-4 0.6424803 0.7591459 0.157185 0.6316569 0.8576421 3.07e-4 0.5142471 0.905955 1.86e-4 0.423374 0.8877228 0.184759 0.4216779 0.9580942 3.39e-4 0.2864531 0.9818274 3.47e-4 0.1897761 0.9506863 0.2171531 0.2214501 5.92e-4 0.9586263 0.2846671 2.47e-4 0.9370694 0.3491432 0.191037 0.9061248 0.3774159 4.94e-4 0.8577984 0.5139862 2.12e-4 0.8161132 0.5778921 0.16676 0.7873622 0.5935081 3.77e-4 0.7080107 0.7062017 1.64e-4 0.6432958 0.7656177 0.1325589 0.6210887 0.7724487 2.51e-4 0.5122321 0.8588471 1e-4 0.4210981 0.9070151 0.08974101 0.4150211 0.9053751 1.26e-4 0.2870381 0.9579192 0 0.193508 0.9810988 0.04484502 0.1982781 0.9791195 0.04484502 0.1982781 0.9791195 0 0.193508 0.9810988 0 0 1 4.33e-4 0.9999801 0.006299001 4.26e-4 0.9916499 0.128959 0.142959 0.9897286 3.54e-4 0.142959 0.9897286 3.54e-4 4.26e-4 0.9916499 0.128959 0.1993539 0.9589097 0.201867 0.142959 0.9897286 3.54e-4 0.1993539 0.9589097 0.201867 0.2872289 0.9575685 0.02370599 0.2872289 0.9575685 0.02370599 0.1993539 0.9589097 0.201867 0.3706611 0.9059182 0.20475 0.2872289 0.9575685 0.02370599 0.3706611 0.9059182 0.20475 0.383423 0.92357 0.002325 0.383423 0.92357 0.002325 0.3706611 0.9059182 0.20475 0.512821 0.8581589 0.024039 0.512821 0.8581589 0.024039 0.3706611 0.9059182 0.20475 0.5823579 0.7868288 0.204352 0.512821 0.8581589 0.024039 0.5823579 0.7868288 0.204352 0.6088791 0.7932601 0.002179 0.6088791 0.7932601 0.002179 0.5823579 0.7868288 0.204352 0.706903 0.706899 0.02412 0.706903 0.706899 0.02412 0.5823579 0.7868288 0.204352 0.7584199 0.618946 0.204219 0.706903 0.706899 0.02412 0.7584199 0.618946 0.204219 0.7932601 0.6088791 0.002179 0.7932601 0.6088791 0.002179 0.7584199 0.618946 0.204219 0.8581594 0.5128202 0.02404001 0.8581594 0.5128202 0.02404001 0.7584199 0.618946 0.204219 0.887433 0.412918 0.204845 0.8581594 0.5128202 0.02404001 0.887433 0.412918 0.204845 0.92357 0.383423 0.002324 0.92357 0.383423 0.002324 0.887433 0.412918 0.204845 0.9575686 0.2872289 0.02370399 0.9575686 0.2872289 0.02370399 0.887433 0.412918 0.204845 0.9506863 0.2171531 0.2214501 0.9575686 0.2872289 0.02370399 0.9506863 0.2171531 0.2214501 0.989729 0.142956 3.51e-4 0.989729 0.142956 3.51e-4 0.9506863 0.2171531 0.2214501 0.9818274 3.47e-4 0.1897761 0.989729 0.142956 3.51e-4 0.9818274 3.47e-4 0.1897761 0.9999802 1.46e-4 0.006297002 0.009686 0.002039 0.999951 0.004322999 0 0.9999906 0.130459 0 0.9914538 0 0 1 8.89e-4 0.004219999 0.9999908 0.04484502 0.1982781 0.9791195 0.04484502 0.1982781 0.9791195 8.89e-4 0.004219999 0.9999908 0.004090999 0.01048 0.9999368 0.04484502 0.1982781 0.9791195 0.004090999 0.01048 0.9999368 0.09239697 0.187482 0.9779128 0.09239697 0.187482 0.9779128 0.004090999 0.01048 0.9999368 0.02017399 0.02830399 0.9993958 0.09239697 0.187482 0.9779128 0.02017399 0.02830399 0.9993958 0.1355309 0.1593699 0.9778715 0.1355309 0.1593699 0.9778715 0.02017399 0.02830399 0.9993958 0.04769402 0.04055502 0.9980384 0.1355309 0.1593699 0.9778715 0.04769402 0.04055502 0.9980384 0.170264 0.121431 0.9778879 0.170264 0.121431 0.9778879 0.04769402 0.04055502 0.9980384 0.016741 0.008250998 0.9998258 0.170264 0.121431 0.9778879 0.016741 0.008250998 0.9998258 0.194611 0.07599999 0.9779319 0.194611 0.07599999 0.9779319 0.016741 0.008250998 0.9998258 0.009686 0.002039 0.999951 0.194611 0.07599999 0.9779319 0.009686 0.002039 0.999951 0.210401 0.040952 0.9767571 0.210401 0.040952 0.9767571 0.009686 0.002039 0.999951 0.130459 0 0.9914538 1e-4 0.4210981 0.9070151 1.26e-4 0.2870381 0.9579192 0.08974101 0.4150211 0.9053751 0.08974101 0.4150211 0.9053751 1.26e-4 0.2870381 0.9579192 0.04484502 0.1982781 0.9791195 0.08974101 0.4150211 0.9053751 0.04484502 0.1982781 0.9791195 0.168625 0.368471 0.9142181 0.168625 0.368471 0.9142181 0.04484502 0.1982781 0.9791195 0.09239697 0.187482 0.9779128 0.168625 0.368471 0.9142181 0.09239697 0.187482 0.9779128 0.2534941 0.3158931 0.9143043 0.2534941 0.3158931 0.9143043 0.09239697 0.187482 0.9779128 0.1355309 0.1593699 0.9778715 0.2534941 0.3158931 0.9143043 0.1355309 0.1593699 0.9778715 0.323128 0.244625 0.914192 0.323128 0.244625 0.914192 0.1355309 0.1593699 0.9778715 0.170264 0.121431 0.9778879 0.323128 0.244625 0.914192 0.170264 0.121431 0.9778879 0.3733868 0.1584109 0.9140506 0.3733868 0.1584109 0.9140506 0.170264 0.121431 0.9778879 0.194611 0.07599999 0.9779319 0.3733868 0.1584109 0.9140506 0.194611 0.07599999 0.9779319 0.3722889 0.07602798 0.9249977 0.3722889 0.07602798 0.9249977 0.194611 0.07599999 0.9779319 0.210401 0.040952 0.9767571 0.3722889 0.07602798 0.9249977 0.210401 0.040952 0.9767571 0.2876968 0 0.9577215 0.2876968 0 0.9577215 0.210401 0.040952 0.9767571 0.130459 0 0.9914538 1.64e-4 0.6432958 0.7656177 2.51e-4 0.5122321 0.8588471 0.1325589 0.6210887 0.7724487 0.1325589 0.6210887 0.7724487 2.51e-4 0.5122321 0.8588471 0.08974101 0.4150211 0.9053751 0.1325589 0.6210887 0.7724487 0.08974101 0.4150211 0.9053751 0.253618 0.5623841 0.7870211 0.253618 0.5623841 0.7870211 0.08974101 0.4150211 0.9053751 0.168625 0.368471 0.9142181 0.253618 0.5623841 0.7870211 0.168625 0.368471 0.9142181 0.3832081 0.4829991 0.7873141 0.3832081 0.4829991 0.7873141 0.168625 0.368471 0.9142181 0.2534941 0.3158931 0.9143043 0.3832081 0.4829991 0.7873141 0.2534941 0.3158931 0.9143043 0.489369 0.374426 0.787606 0.489369 0.374426 0.787606 0.2534941 0.3158931 0.9143043 0.323128 0.244625 0.914192 0.489369 0.374426 0.787606 0.323128 0.244625 0.914192 0.566252 0.243652 0.787396 0.566252 0.243652 0.787396 0.323128 0.244625 0.914192 0.3733868 0.1584109 0.9140506 0.566252 0.243652 0.787396 0.3733868 0.1584109 0.9140506 0.5843782 0.120344 0.8025083 0.5843782 0.120344 0.8025083 0.3733868 0.1584109 0.9140506 0.3722889 0.07602798 0.9249977 0.5843782 0.120344 0.8025083 0.3722889 0.07602798 0.9249977 0.5120448 1.83e-4 0.8589587 0.5120448 1.83e-4 0.8589587 0.3722889 0.07602798 0.9249977 0.347173 0 0.9378011 2.12e-4 0.8161132 0.5778921 3.77e-4 0.7080107 0.7062017 0.16676 0.7873622 0.5935081 0.16676 0.7873622 0.5935081 3.77e-4 0.7080107 0.7062017 0.1325589 0.6210887 0.7724487 0.16676 0.7873622 0.5935081 0.1325589 0.6210887 0.7724487 0.3224218 0.7208666 0.6135107 0.3224218 0.7208666 0.6135107 0.1325589 0.6210887 0.7724487 0.253618 0.5623841 0.7870211 0.3224218 0.7208666 0.6135107 0.253618 0.5623841 0.7870211 0.4887872 0.6202643 0.6134813 0.4887872 0.6202643 0.6134813 0.253618 0.5623841 0.7870211 0.3832081 0.4829991 0.7873141 0.4887872 0.6202643 0.6134813 0.3832081 0.4829991 0.7873141 0.6257511 0.4820731 0.6132221 0.6257511 0.4820731 0.6132221 0.3832081 0.4829991 0.7873141 0.489369 0.374426 0.787606 0.6257511 0.4820731 0.6132221 0.489369 0.374426 0.787606 0.7245888 0.3146429 0.6131648 0.7245888 0.3146429 0.6131648 0.489369 0.374426 0.787606 0.566252 0.243652 0.787396 0.7245888 0.3146429 0.6131648 0.566252 0.243652 0.787396 0.7591459 0.157185 0.6316569 0.7591459 0.157185 0.6316569 0.566252 0.243652 0.787396 0.5843782 0.120344 0.8025083 0.7591459 0.157185 0.6316569 0.5843782 0.120344 0.8025083 0.7088866 2.54e-4 0.7053226 0.7088866 2.54e-4 0.7053226 0.5843782 0.120344 0.8025083 0.5770733 1.06e-4 0.8166924 2.47e-4 0.9370694 0.3491432 4.94e-4 0.8577984 0.5139862 0.191037 0.9061248 0.3774159 0.191037 0.9061248 0.3774159 4.94e-4 0.8577984 0.5139862 0.16676 0.7873622 0.5935081 0.191037 0.9061248 0.3774159 0.16676 0.7873622 0.5935081 0.371854 0.8364181 0.4026531 0.371854 0.8364181 0.4026531 0.16676 0.7873622 0.5935081 0.3224218 0.7208666 0.6135107 0.371854 0.8364181 0.4026531 0.3224218 0.7208666 0.6135107 0.5648541 0.7202212 0.4027671 0.5648541 0.7202212 0.4027671 0.3224218 0.7208666 0.6135107 0.4887872 0.6202643 0.6134813 0.5648541 0.7202212 0.4027671 0.4887872 0.6202643 0.6134813 0.7237676 0.5600778 0.4030798 0.7237676 0.5600778 0.4030798 0.4887872 0.6202643 0.6134813 0.6257511 0.4820731 0.6132221 0.7237676 0.5600778 0.4030798 0.6257511 0.4820731 0.6132221 0.8387778 0.3664059 0.4027389 0.8387778 0.3664059 0.4027389 0.6257511 0.4820731 0.6132221 0.7245888 0.3146429 0.6131648 0.8387778 0.3664059 0.4027389 0.7245888 0.3146429 0.6131648 0.8877228 0.184759 0.4216779 0.8877228 0.184759 0.4216779 0.7245888 0.3146429 0.6131648 0.7591459 0.157185 0.6316569 0.8877228 0.184759 0.4216779 0.7591459 0.157185 0.6316569 0.8576421 3.07e-4 0.5142471 0.8576421 3.07e-4 0.5142471 0.7591459 0.157185 0.6316569 0.7663023 1.48e-4 0.6424803 4.26e-4 0.9916499 0.128959 5.92e-4 0.9586263 0.2846671 0.1993539 0.9589097 0.201867 0.1993539 0.9589097 0.201867 5.92e-4 0.9586263 0.2846671 0.191037 0.9061248 0.3774159 0.1993539 0.9589097 0.201867 0.191037 0.9061248 0.3774159 0.3706611 0.9059182 0.20475 0.3706611 0.9059182 0.20475 0.191037 0.9061248 0.3774159 0.371854 0.8364181 0.4026531 0.3706611 0.9059182 0.20475 0.371854 0.8364181 0.4026531 0.5823579 0.7868288 0.204352 0.5823579 0.7868288 0.204352 0.371854 0.8364181 0.4026531 0.5648541 0.7202212 0.4027671 0.5823579 0.7868288 0.204352 0.5648541 0.7202212 0.4027671 0.7584199 0.618946 0.204219 0.7584199 0.618946 0.204219 0.5648541 0.7202212 0.4027671 0.7237676 0.5600778 0.4030798 0.7584199 0.618946 0.204219 0.7237676 0.5600778 0.4030798 0.887433 0.412918 0.204845 0.887433 0.412918 0.204845 0.7237676 0.5600778 0.4030798 0.8387778 0.3664059 0.4027389 0.887433 0.412918 0.204845 0.8387778 0.3664059 0.4027389 0.9506863 0.2171531 0.2214501 0.9506863 0.2171531 0.2214501 0.8387778 0.3664059 0.4027389 0.8877228 0.184759 0.4216779 0.9506863 0.2171531 0.2214501 0.8877228 0.184759 0.4216779 0.9580942 3.39e-4 0.2864531 0.9580942 3.39e-4 0.2864531 0.8877228 0.184759 0.4216779 0.905955 1.86e-4 0.423374 0.004322999 0 0.9999906 0.004267 0 0.9999909 0.130459 0 0.9914538 0.130459 0 0.9914538 0.004267 0 0.9999909 0.1934081 0 0.9811184 0.130459 0 0.9914538 0.1934081 0 0.9811184 0.2876968 0 0.9577215 0.2876968 0 0.9577215 0.1934081 0 0.9811184 0.287045 0 0.9579171 0.2876968 0 0.9577215 0.287045 0 0.9579171 0.347173 0 0.9378011 0.347173 0 0.9378011 0.287045 0 0.9579171 0.4211419 0 0.9069948 0.347173 0 0.9378011 0.4211419 0 0.9069948 0.5120448 1.83e-4 0.8589587 0.5120448 1.83e-4 0.8589587 0.4211419 0 0.9069948 0.5122321 -1.68e-4 0.8588471 0.5120448 1.83e-4 0.8589587 0.5122321 -1.68e-4 0.8588471 0.5770733 1.06e-4 0.8166924 0.5770733 1.06e-4 0.8166924 0.5122321 -1.68e-4 0.8588471 0.64333 -1.1e-4 0.765589 0.5770733 1.06e-4 0.8166924 0.64333 -1.1e-4 0.765589 0.7088866 2.54e-4 0.7053226 0.7088866 2.54e-4 0.7053226 0.64333 -1.1e-4 0.765589 0.7079977 -2.54e-4 0.7062148 0.7088866 2.54e-4 0.7053226 0.7079977 -2.54e-4 0.7062148 0.7663023 1.48e-4 0.6424803 0.7663023 1.48e-4 0.6424803 0.7079977 -2.54e-4 0.7062148 0.8161318 -1.42e-4 0.5778659 0.7663023 1.48e-4 0.6424803 0.8161318 -1.42e-4 0.5778659 0.8576421 3.07e-4 0.5142471 0.8576421 3.07e-4 0.5142471 0.8161318 -1.42e-4 0.5778659 0.8578224 -3.32e-4 0.5139462 0.8576421 3.07e-4 0.5142471 0.8578224 -3.32e-4 0.5139462 0.905955 1.86e-4 0.423374 0.905955 1.86e-4 0.423374 0.8578224 -3.32e-4 0.5139462 0.9370832 -1.66e-4 0.3491061 0.905955 1.86e-4 0.423374 0.9370832 -1.66e-4 0.3491061 0.9580942 3.39e-4 0.2864531 0.9580942 3.39e-4 0.2864531 0.9370832 -1.66e-4 0.3491061 0.9586158 -3.98e-4 0.2847029 0.9580942 3.39e-4 0.2864531 0.9586158 -3.98e-4 0.2847029 0.9818274 3.47e-4 0.1897761 0.9818274 3.47e-4 0.1897761 0.9586158 -3.98e-4 0.2847029 0.9916511 -2.86e-4 0.12895 0.9818274 3.47e-4 0.1897761 0.9916511 -2.86e-4 0.12895 0.9999802 1.46e-4 0.006297002 0.9999802 1.46e-4 0.006297002 0.9916511 -2.86e-4 0.12895 0.9999802 -2.91e-4 0.006297002 0 0 1 0 0 1 0 0 1 0 0 1 0 0 1 0 0 1 -0.04769402 -0.04055502 0.9980384 -0.02017399 -0.02830399 0.9993958 -0.016741 -0.008250998 0.9998258 -0.016741 -0.008250998 0.9998258 -0.02017399 -0.02830399 0.9993958 -0.004090999 -0.01048 0.9999368 -0.016741 -0.008250998 0.9998258 -0.004090999 -0.01048 0.9999368 -0.009686 -0.002039 0.999951 -0.009686 -0.002039 0.999951 -0.004090999 -0.01048 0.9999368 -8.89e-4 -0.004219999 0.9999908 -0.009686 -0.002039 0.999951 -8.89e-4 -0.004219999 0.9999908 -0.004322999 0 0.9999906 -0.004322999 0 0.9999906 -8.89e-4 -0.004219999 0.9999908 0 0 1 -0.004322999 0 0.9999906 0 0 1 -0.004273 0 0.9999909 -0.004273 0 0.9999909 0 0 1 0 0 1 -0.004273 0 0.9999909 0 0 1 -0.004219999 8.89e-4 0.9999908 -0.004219999 8.89e-4 0.9999908 0 0 1 -0.002039 0.009686 0.999951 -0.004219999 8.89e-4 0.9999908 -0.002039 0.009686 0.999951 -0.01048 0.004090999 0.9999368 -0.01048 0.004090999 0.9999368 -0.002039 0.009686 0.999951 -0.008250998 0.016741 0.9998258 -0.01048 0.004090999 0.9999368 -0.008250998 0.016741 0.9998258 -0.02830399 0.02017399 0.9993958 -0.02830399 0.02017399 0.9993958 -0.008250998 0.016741 0.9998258 -0.04055502 0.04769302 0.9980385 0.04769402 0.04055502 0.9980384 0.02017399 0.02830399 0.9993958 0.016741 0.008250998 0.9998258 0.016741 0.008250998 0.9998258 0.02017399 0.02830399 0.9993958 0.004090999 0.01048 0.9999368 0.016741 0.008250998 0.9998258 0.004090999 0.01048 0.9999368 0.009686 0.002039 0.999951 0.009686 0.002039 0.999951 0.004090999 0.01048 0.9999368 8.89e-4 0.004219999 0.9999908 0.009686 0.002039 0.999951 8.89e-4 0.004219999 0.9999908 0.004322999 0 0.9999906 0.004322999 0 0.9999906 8.89e-4 0.004219999 0.9999908 0 0 1 0.004322999 0 0.9999906 0 0 1 0.004267 0 0.9999909 0.004267 0 0.9999909 0 0 1 0 0 1 0.004267 0 0.9999909 0 0 1 0.005938999 -0.001023 0.9999819 0.005938999 -0.001023 0.9999819 0 0 1 0.002039 -0.009686 0.999951 0.005938999 -0.001023 0.9999819 0.002039 -0.009686 0.999951 0.01048 -0.004090999 0.9999368 0.01048 -0.004090999 0.9999368 0.002039 -0.009686 0.999951 0.008250998 -0.016741 0.9998258 0.01048 -0.004090999 0.9999368 0.008250998 -0.016741 0.9998258 0.02830399 -0.02017399 0.9993958 0.02830399 -0.02017399 0.9993958 0.008250998 -0.016741 0.9998258 0.04055502 -0.04769302 0.9980385 0.9999802 -2.91e-4 0.006297002 0.9924008 -0.123024 0.002418 0.7119178 -2.86e-4 -0.7022628 0.7119178 -2.86e-4 -0.7022628 0.9924008 -0.123024 0.002418 0.9262539 -0.234831 -0.294802 0.9924008 -0.123024 0.002418 0.9576351 -0.287249 0.020568 0.9262539 -0.234831 -0.294802 0.9262539 -0.234831 -0.294802 0.9576351 -0.287249 0.020568 0.9452882 -0.3261981 0.005000001 0.9262539 -0.234831 -0.294802 0.9452882 -0.3261981 0.005000001 0.8861819 -0.4622359 -0.03193299 0.9452882 -0.3261981 0.005000001 0.8582772 -0.5128911 0.017404 0.8861819 -0.4622359 -0.03193299 0.8861819 -0.4622359 -0.03193299 0.8582772 -0.5128911 0.017404 0.8496257 -0.5273598 0.005283998 0.8861819 -0.4622359 -0.03193299 0.8496257 -0.5273598 0.005283998 0.7511728 -0.6481328 -0.125153 0.8496257 -0.5273598 0.005283998 0.7070397 -0.7070397 0.01378199 0.7511728 -0.6481328 -0.125153 0.7511728 -0.6481328 -0.125153 0.7070397 -0.7070397 0.01378199 0.7070962 -0.7070942 0.005741002 0.7511728 -0.6481328 -0.125153 0.7070962 -0.7070942 0.005741002 0.3469961 -0.4327851 -0.8320402 0.3469961 -0.4327851 -0.8320402 0.7070962 -0.7070942 0.005741002 0.5273598 -0.8496257 0.005283998 0.3469961 -0.4327851 -0.8320402 0.5273598 -0.8496257 0.005283998 0.4622351 -0.8861822 -0.03193401 0.5273598 -0.8496257 0.005283998 0.5128912 -0.8582773 0.017403 0.4622351 -0.8861822 -0.03193401 0.4622351 -0.8861822 -0.03193401 0.5128912 -0.8582773 0.017403 0.3261981 -0.9452882 0.004998001 0.4622351 -0.8861822 -0.03193401 0.3261981 -0.9452882 0.004998001 0.1515421 -0.5977303 -0.7872444 2.32e-4 -0.9999801 0.006313001 0 -0.004950999 -0.9999878 0.1241419 -0.9922645 0 0.1241419 -0.9922645 0 0 -0.004950999 -0.9999878 0.1515421 -0.5977303 -0.7872444 0.1241419 -0.9922645 0 0.1515421 -0.5977303 -0.7872444 0.287249 -0.9576351 0.020569 0.287249 -0.9576351 0.020569 0.1515421 -0.5977303 -0.7872444 0.3261981 -0.9452882 0.004998001 0 -0.004950999 -0.9999878 2.32e-4 -0.9999801 0.006313001 0 -0.01967199 -0.9998065 0 -0.01967199 -0.9998065 2.32e-4 -0.9999801 0.006313001 -4.33e-4 -0.9999801 0.006299001 -4.33e-4 -0.9999801 0.006299001 -0.1230271 -0.9924005 0.002419001 0 -0.01967199 -0.9998065 0 -0.01967199 -0.9998065 -0.1230271 -0.9924005 0.002419001 -0.175245 -0.6912208 -0.7010728 -0.1230271 -0.9924005 0.002419001 -0.287249 -0.9576351 0.020569 -0.175245 -0.6912208 -0.7010728 -0.175245 -0.6912208 -0.7010728 -0.287249 -0.9576351 0.020569 -0.3261981 -0.9452882 0.004998001 -0.175245 -0.6912208 -0.7010728 -0.3261981 -0.9452882 0.004998001 -0.3761019 -0.72105 -0.5819229 -0.3261981 -0.9452882 0.004998001 -0.5128912 -0.8582773 0.017403 -0.3761019 -0.72105 -0.5819229 -0.3761019 -0.72105 -0.5819229 -0.5128912 -0.8582773 0.017403 -0.5273598 -0.8496257 0.005283998 -0.3761019 -0.72105 -0.5819229 -0.5273598 -0.8496257 0.005283998 -0.5882954 -0.6818205 -0.4347753 -0.5273598 -0.8496257 0.005283998 -0.7070396 -0.7070396 0.01378499 -0.5882954 -0.6818205 -0.4347753 -0.5882954 -0.6818205 -0.4347753 -0.7070396 -0.7070396 0.01378499 -0.7070962 -0.7070942 0.005742001 -0.5882954 -0.6818205 -0.4347753 -0.7070962 -0.7070942 0.005742001 -0.7074298 -0.5671939 -0.4217039 -0.7074298 -0.5671939 -0.4217039 -0.7070962 -0.7070942 0.005742001 -0.8496257 -0.5273598 0.005283998 -0.7074298 -0.5671939 -0.4217039 -0.8496257 -0.5273598 0.005283998 -0.8861819 -0.4622359 -0.03193299 -0.8496257 -0.5273598 0.005283998 -0.8582772 -0.5128911 0.017404 -0.8861819 -0.4622359 -0.03193299 -0.8861819 -0.4622359 -0.03193299 -0.8582772 -0.5128911 0.017404 -0.9452882 -0.3261981 0.005000001 -0.8861819 -0.4622359 -0.03193299 -0.9452882 -0.3261981 0.005000001 -0.9616973 -0.2438171 -0.125266 -0.9999802 -1.46e-4 0.006297002 -0.2430109 -1.95e-4 -0.9700235 -0.9924008 -0.123024 0.002418 -0.9924008 -0.123024 0.002418 -0.2430109 -1.95e-4 -0.9700235 -0.9616973 -0.2438171 -0.125266 -0.9924008 -0.123024 0.002418 -0.9616973 -0.2438171 -0.125266 -0.9576351 -0.287249 0.020568 -0.9576351 -0.287249 0.020568 -0.9616973 -0.2438171 -0.125266 -0.9452882 -0.3261981 0.005000001 -0.2430109 -1.95e-4 -0.9700235 -0.9999802 -1.46e-4 0.006297002 -0.7119178 2.86e-4 -0.7022628 -0.7119178 2.86e-4 -0.7022628 -0.9999802 -1.46e-4 0.006297002 -0.9999802 2.91e-4 0.006297002 -0.9999802 2.91e-4 0.006297002 -0.9924008 0.123024 0.002418 -0.7119178 2.86e-4 -0.7022628 -0.7119178 2.86e-4 -0.7022628 -0.9924008 0.123024 0.002418 -0.9262539 0.234831 -0.294802 -0.9924008 0.123024 0.002418 -0.9576351 0.287249 0.020568 -0.9262539 0.234831 -0.294802 -0.9262539 0.234831 -0.294802 -0.9576351 0.287249 0.020568 -0.9452882 0.3261981 0.005000001 -0.9262539 0.234831 -0.294802 -0.9452882 0.3261981 0.005000001 -0.8861819 0.4622359 -0.03193299 -0.9452882 0.3261981 0.005000001 -0.8582772 0.5128911 0.017404 -0.8861819 0.4622359 -0.03193299 -0.8861819 0.4622359 -0.03193299 -0.8582772 0.5128911 0.017404 -0.8496257 0.5273598 0.005283998 -0.8861819 0.4622359 -0.03193299 -0.8496257 0.5273598 0.005283998 -0.7511728 0.6481328 -0.125153 -0.8496257 0.5273598 0.005283998 -0.7070397 0.7070397 0.01378199 -0.7511728 0.6481328 -0.125153 -0.7511728 0.6481328 -0.125153 -0.7070397 0.7070397 0.01378199 -0.7070962 0.7070942 0.005741002 -0.7511728 0.6481328 -0.125153 -0.7070962 0.7070942 0.005741002 -0.473868 0.5910239 -0.6527939 -0.473868 0.5910239 -0.6527939 -0.7070962 0.7070942 0.005741002 -0.5273598 0.8496257 0.005283998 -0.473868 0.5910239 -0.6527939 -0.5273598 0.8496257 0.005283998 -0.2852449 0.5468618 -0.7871326 -0.5273598 0.8496257 0.005283998 -0.5128912 0.8582773 0.017403 -0.2852449 0.5468618 -0.7871326 -0.2852449 0.5468618 -0.7871326 -0.5128912 0.8582773 0.017403 -0.3261981 0.9452882 0.004998001 -0.2852449 0.5468618 -0.7871326 -0.3261981 0.9452882 0.004998001 -0.2456209 0.9688057 -0.03295299 -2.17e-4 0.9999802 0.006299001 0 0.004950999 -0.9999878 -0.1230271 0.9924005 0.002419001 -0.1230271 0.9924005 0.002419001 0 0.004950999 -0.9999878 -0.2456209 0.9688057 -0.03295299 -0.1230271 0.9924005 0.002419001 -0.2456209 0.9688057 -0.03295299 -0.287249 0.9576351 0.020569 -0.287249 0.9576351 0.020569 -0.2456209 0.9688057 -0.03295299 -0.3261981 0.9452882 0.004998001 0 0.004950999 -0.9999878 -2.17e-4 0.9999802 0.006299001 0 0.01968301 -0.9998063 0 0.01968301 -0.9998063 -2.17e-4 0.9999802 0.006299001 4.33e-4 0.9999801 0.006299001 4.33e-4 0.9999801 0.006299001 0.142959 0.9897286 3.54e-4 0 0.01968301 -0.9998063 0 0.01968301 -0.9998063 0.142959 0.9897286 3.54e-4 0.1903979 0.6842558 -0.7039478 0.142959 0.9897286 3.54e-4 0.2872289 0.9575685 0.02370599 0.1903979 0.6842558 -0.7039478 0.1903979 0.6842558 -0.7039478 0.2872289 0.9575685 0.02370599 0.383423 0.92357 0.002325 0.1903979 0.6842558 -0.7039478 0.383423 0.92357 0.002325 0.3931459 0.6731388 -0.6263548 0.383423 0.92357 0.002325 0.512821 0.8581589 0.024039 0.3931459 0.6731388 -0.6263548 0.3931459 0.6731388 -0.6263548 0.512821 0.8581589 0.024039 0.6088791 0.7932601 0.002179 0.3931459 0.6731388 -0.6263548 0.6088791 0.7932601 0.002179 0.695372 0.695371 -0.18143 0.6088791 0.7932601 0.002179 0.706903 0.706899 0.02412 0.695372 0.695371 -0.18143 0.695372 0.695371 -0.18143 0.706903 0.706899 0.02412 0.7932601 0.6088791 0.002179 0.695372 0.695371 -0.18143 0.7932601 0.6088791 0.002179 0.8623551 0.5036561 -0.05171401 0.7932601 0.6088791 0.002179 0.8581594 0.5128202 0.02404001 0.8623551 0.5036561 -0.05171401 0.8623551 0.5036561 -0.05171401 0.8581594 0.5128202 0.02404001 0.92357 0.383423 0.002324 0.8623551 0.5036561 -0.05171401 0.92357 0.383423 0.002324 0.881575 0.245302 -0.403302 0.9999802 1.46e-4 0.006297002 0.2433221 2.39e-4 -0.9699456 0.989729 0.142956 3.51e-4 0.989729 0.142956 3.51e-4 0.2433221 2.39e-4 -0.9699456 0.881575 0.245302 -0.403302 0.989729 0.142956 3.51e-4 0.881575 0.245302 -0.403302 0.9575686 0.2872289 0.02370399 0.9575686 0.2872289 0.02370399 0.881575 0.245302 -0.403302 0.92357 0.383423 0.002324 0.2433221 2.39e-4 -0.9699456 0.9999802 1.46e-4 0.006297002 0.7119178 -2.86e-4 -0.7022628 0.7119178 -2.86e-4 -0.7022628 0.9999802 1.46e-4 0.006297002 0.9999802 -2.91e-4 0.006297002 0.2433221 2.39e-4 -0.9699456 0.7119178 -2.86e-4 -0.7022628 0 -0.004950999 -0.9999878 -0.175245 -0.6912208 -0.7010728 -0.3761019 -0.72105 -0.5819229 -0.2430109 -1.95e-4 -0.9700235 -0.2430109 -1.95e-4 -0.9700235 -0.7119178 2.86e-4 -0.7022628 0 0.004950999 -0.9999878 -0.8861819 -0.4622359 -0.03193299 -0.9616973 -0.2438171 -0.125266 -0.7074298 -0.5671939 -0.4217039 -0.7074298 -0.5671939 -0.4217039 -0.9616973 -0.2438171 -0.125266 -0.2430109 -1.95e-4 -0.9700235 -0.7074298 -0.5671939 -0.4217039 -0.2430109 -1.95e-4 -0.9700235 -0.5882954 -0.6818205 -0.4347753 -0.5882954 -0.6818205 -0.4347753 -0.2430109 -1.95e-4 -0.9700235 -0.3761019 -0.72105 -0.5819229 -0.175245 -0.6912208 -0.7010728 -0.2430109 -1.95e-4 -0.9700235 0 -0.01967199 -0.9998065 0 -0.01967199 -0.9998065 -0.2430109 -1.95e-4 -0.9700235 0 0.004950999 -0.9999878 0 -0.01967199 -0.9998065 0 0.004950999 -0.9999878 0 -0.004950999 -0.9999878 0 -0.004950999 -0.9999878 0 0.004950999 -0.9999878 0 0.01968301 -0.9998063 0 -0.004950999 -0.9999878 0 0.01968301 -0.9998063 0.2433221 2.39e-4 -0.9699456 0.3469961 -0.4327851 -0.8320402 0.4622351 -0.8861822 -0.03193401 0.1515421 -0.5977303 -0.7872444 -0.2456209 0.9688057 -0.03295299 0 0.004950999 -0.9999878 -0.2852449 0.5468618 -0.7871326 -0.2852449 0.5468618 -0.7871326 0 0.004950999 -0.9999878 -0.7119178 2.86e-4 -0.7022628 -0.2852449 0.5468618 -0.7871326 -0.7119178 2.86e-4 -0.7022628 -0.473868 0.5910239 -0.6527939 -0.473868 0.5910239 -0.6527939 -0.7119178 2.86e-4 -0.7022628 -0.9262539 0.234831 -0.294802 -0.473868 0.5910239 -0.6527939 -0.9262539 0.234831 -0.294802 -0.7511728 0.6481328 -0.125153 -0.7511728 0.6481328 -0.125153 -0.9262539 0.234831 -0.294802 -0.8861819 0.4622359 -0.03193299 0 0.01968301 -0.9998063 0.1903979 0.6842558 -0.7039478 0.2433221 2.39e-4 -0.9699456 0.2433221 2.39e-4 -0.9699456 0.1903979 0.6842558 -0.7039478 0.3931459 0.6731388 -0.6263548 0.2433221 2.39e-4 -0.9699456 0.3931459 0.6731388 -0.6263548 0.881575 0.245302 -0.403302 0.881575 0.245302 -0.403302 0.3931459 0.6731388 -0.6263548 0.695372 0.695371 -0.18143 0.881575 0.245302 -0.403302 0.695372 0.695371 -0.18143 0.8623551 0.5036561 -0.05171401 0.8861819 -0.4622359 -0.03193299 0.7511728 -0.6481328 -0.125153 0.9262539 -0.234831 -0.294802 0.9262539 -0.234831 -0.294802 0.7511728 -0.6481328 -0.125153 0.3469961 -0.4327851 -0.8320402 0.9262539 -0.234831 -0.294802 0.3469961 -0.4327851 -0.8320402 0.7119178 -2.86e-4 -0.7022628 0.7119178 -2.86e-4 -0.7022628 0.3469961 -0.4327851 -0.8320402 0.1515421 -0.5977303 -0.7872444 0.7119178 -2.86e-4 -0.7022628 0.1515421 -0.5977303 -0.7872444 0 -0.004950999 -0.9999878</float_array>
          <technique_common>
            <accessor source="#MeshShape-normals-array" count="2088" stride="3">
              <param name="X" type="float"/>
              <param name="Y" type="float"/>
              <param name="Z" type="float"/>
            </accessor>
          </technique_common>
        </source>
        <vertices id="MeshShape-vertices" name="MeshShape-vertices">
          <input semantic="POSITION" source="#MeshShape-positions"/>
        </vertices>
        <triangles material="material_0" count="1">
          <input semantic="VERTEX" source="#MeshShape-vertices" offset="0"/>
          <input semantic="NORMAL" source="#MeshShape-normals" offset="1"/>
          <p>342 0 336 1 329 2</p>
        </triangles>
        <triangles material="material_2" count="695">
          <input semantic="VERTEX" source="#MeshShape-vertices" offset="0"/>
          <input semantic="NORMAL" source="#MeshShape-normals" offset="1"/>
          <p>332 3 326 4 324 5 322 6 316 7 310 8 308 9 302 10 300 11 296 12 294 13 292 14 187 15 186 16 208 17 185 18 184 19 210 20 183 21 182 22 212 23 181 24 180 25 214 26 179 27 178 28 216 29 216 30 178 31 177 32 204 33 189 34 188 35 188 36 206 37 204 38 204 39 206 40 226 41 204 42 226 43 224 44 224 45 226 46 244 47 224 48 244 49 242 50 242 51 244 52 264 53 242 54 264 55 254 56 254 57 264 58 274 59 254 60 274 61 268 62 268 63 274 64 292 65 268 66 292 67 278 68 278 69 292 70 294 71 278 72 294 73 280 74 347 75 344 76 340 77 340 78 344 79 338 80 340 81 338 82 334 83 334 84 338 85 318 86 334 87 318 88 320 89 320 90 318 91 314 92 314 93 318 94 288 95 314 96 288 97 290 98 290 99 288 100 284 101 284 102 288 103 258 104 284 105 258 106 262 107 236 108 240 109 258 110 258 111 240 112 260 113 258 114 260 115 262 116 177 117 218 118 216 119 216 120 218 121 220 122 216 123 220 124 236 125 236 126 220 127 238 128 236 129 238 130 240 131 302 132 296 133 300 134 300 135 296 136 292 137 300 138 292 139 286 140 286 141 292 142 274 143 286 144 274 145 266 146 266 147 274 148 264 149 266 150 264 151 248 152 248 153 264 154 244 155 248 156 244 157 228 158 228 159 244 160 226 161 228 162 226 163 208 164 208 165 226 166 206 167 208 168 206 169 187 170 187 171 206 172 188 173 316 174 308 175 310 176 310 177 308 178 300 179 310 180 300 181 298 182 298 183 300 184 286 185 298 186 286 187 272 188 272 189 286 190 266 191 272 192 266 193 250 194 250 195 266 196 248 197 250 198 248 199 230 200 230 201 248 202 228 203 230 204 228 205 210 206 210 207 228 208 208 209 210 210 208 211 185 212 185 213 208 214 186 215 326 216 322 217 324 218 324 219 322 220 310 221 324 222 310 223 306 224 306 225 310 226 298 227 306 228 298 229 276 230 276 231 298 232 272 233 276 234 272 235 252 236 252 237 272 238 250 239 252 240 250 241 232 242 232 243 250 244 230 245 232 246 230 247 212 248 212 249 230 250 210 251 212 252 210 253 183 254 183 255 210 256 184 257 336 258 332 259 329 260 329 261 332 262 324 263 329 264 324 265 312 266 312 267 324 268 306 269 312 270 306 271 282 272 282 273 306 274 276 275 282 276 276 277 256 278 256 279 276 280 252 281 256 282 252 283 234 284 234 285 252 286 232 287 234 288 232 289 214 290 214 291 232 292 212 293 214 294 212 295 181 296 181 297 212 298 182 299 344 300 342 301 338 302 338 303 342 304 329 305 338 306 329 307 318 308 318 309 329 310 312 311 318 312 312 313 288 314 288 315 312 316 282 317 288 318 282 319 258 320 258 321 282 322 256 323 258 324 256 325 236 326 236 327 256 328 234 329 236 330 234 331 216 332 216 333 234 334 214 335 216 336 214 337 179 338 179 339 214 340 180 341 149 342 177 343 150 344 150 345 177 346 178 347 150 348 178 349 151 350 151 351 178 352 179 353 151 354 179 355 152 356 152 357 179 358 180 359 152 360 180 361 153 362 153 363 180 364 181 365 153 366 181 367 154 368 154 369 181 370 182 371 154 372 182 373 155 374 155 375 182 376 183 377 155 378 183 379 156 380 156 381 183 382 184 383 156 384 184 385 157 386 157 387 184 388 185 389 157 390 185 391 158 392 158 393 185 394 186 395 158 396 186 397 159 398 159 399 186 400 187 401 159 402 187 403 160 404 160 405 187 406 188 407 160 408 188 409 161 410 161 411 188 412 189 413 52 414 46 415 48 416 42 417 32 418 40 419 26 420 22 421 24 422 18 423 12 424 20 425 6 426 4 427 10 428 151 429 152 430 136 431 153 432 154 433 138 434 155 435 156 436 140 437 157 438 158 439 142 440 159 441 160 442 144 443 144 444 160 445 161 446 149 447 150 448 132 449 132 450 150 451 134 452 132 453 134 454 130 455 130 456 134 457 114 458 92 459 110 460 114 461 114 462 110 463 112 464 114 465 112 466 130 467 58 468 66 469 60 470 60 471 66 472 88 473 60 474 88 475 92 476 92 477 88 478 90 479 92 480 90 481 110 482 58 483 60 484 36 485 36 486 60 487 30 488 36 489 30 490 28 491 28 492 30 493 16 494 16 495 30 496 10 497 16 498 10 499 8 500 8 501 10 502 4 503 8 504 4 505 1 506 72 507 70 508 54 509 161 510 146 511 144 512 144 513 146 514 126 515 144 516 126 517 124 518 124 519 126 520 106 521 124 522 106 523 104 524 104 525 106 526 96 527 104 528 96 529 84 530 84 531 96 532 80 533 84 534 80 535 76 536 76 537 80 538 72 539 76 540 72 541 56 542 56 543 72 544 54 545 158 546 159 547 142 548 142 549 159 550 144 551 142 552 144 553 122 554 122 555 144 556 124 557 122 558 124 559 102 560 102 561 124 562 104 563 102 564 104 565 82 566 82 567 104 568 84 569 82 570 84 571 62 572 62 573 84 574 76 575 62 576 76 577 48 578 48 579 76 580 56 581 48 582 56 583 52 584 52 585 56 586 54 587 156 588 157 589 140 590 140 591 157 592 142 593 140 594 142 595 120 596 120 597 142 598 122 599 120 600 122 601 100 602 100 603 122 604 102 605 100 606 102 607 78 608 78 609 102 610 82 611 78 612 82 613 50 614 50 615 82 616 62 617 50 618 62 619 40 620 40 621 62 622 48 623 40 624 48 625 42 626 42 627 48 628 46 629 154 630 155 631 138 632 138 633 155 634 140 635 138 636 140 637 118 638 118 639 140 640 120 641 118 642 120 643 98 644 98 645 120 646 100 647 98 648 100 649 74 650 74 651 100 652 78 653 74 654 78 655 44 656 44 657 78 658 50 659 44 660 50 661 24 662 24 663 50 664 40 665 24 666 40 667 26 668 26 669 40 670 32 671 152 672 153 673 136 674 136 675 153 676 138 677 136 678 138 679 116 680 116 681 138 682 118 683 116 684 118 685 94 686 94 687 118 688 98 689 94 690 98 691 68 692 68 693 98 694 74 695 68 696 74 697 38 698 38 699 74 700 44 701 38 702 44 703 20 704 20 705 44 706 24 707 20 708 24 709 18 710 18 711 24 712 22 713 150 714 151 715 134 716 134 717 151 718 136 719 134 720 136 721 114 722 114 723 136 724 116 725 114 726 116 727 92 728 92 729 116 730 94 731 92 732 94 733 60 734 60 735 94 736 68 737 60 738 68 739 30 740 30 741 68 742 38 743 30 744 38 745 10 746 10 747 38 748 20 749 10 750 20 751 6 752 6 753 20 754 12 755 70 756 71 757 54 758 54 759 71 760 55 761 54 762 55 763 52 764 52 765 55 766 53 767 52 768 53 769 46 770 46 771 53 772 47 773 46 774 47 775 42 776 42 777 47 778 43 779 42 780 43 781 32 782 32 783 43 784 33 785 32 786 33 787 26 788 26 789 33 790 27 791 26 792 27 793 22 794 22 795 27 796 23 797 22 798 23 799 18 800 18 801 23 802 19 803 18 804 19 805 12 806 12 807 19 808 13 809 12 810 13 811 6 812 6 813 13 814 7 815 6 816 7 817 4 818 4 819 7 820 5 821 4 822 5 823 1 824 1 825 5 826 3 827 164 828 165 829 143 830 166 831 167 832 141 833 168 834 169 835 139 836 170 837 171 838 137 839 172 840 173 841 135 842 7 843 13 844 21 845 19 846 23 847 25 848 27 849 33 850 41 851 43 852 47 853 49 854 53 855 55 856 57 857 57 858 55 859 71 860 3 861 5 862 9 863 9 864 5 865 11 866 9 867 11 868 17 869 17 870 11 871 31 872 61 873 37 874 31 875 31 876 37 877 29 878 31 879 29 880 17 881 91 882 89 883 93 884 93 885 89 886 67 887 93 888 67 889 61 890 61 891 67 892 59 893 61 894 59 895 37 896 91 897 93 898 111 899 111 900 93 901 115 902 111 903 115 904 113 905 113 906 115 907 131 908 131 909 115 910 135 911 131 912 135 913 133 914 133 915 135 916 173 917 133 918 173 919 175 920 147 921 162 922 163 923 71 924 73 925 57 926 57 927 73 928 81 929 57 930 81 931 77 932 77 933 81 934 97 935 77 936 97 937 85 938 85 939 97 940 107 941 85 942 107 943 105 944 105 945 107 946 127 947 105 948 127 949 125 950 125 951 127 952 147 953 125 954 147 955 145 956 145 957 147 958 163 959 47 960 53 961 49 962 49 963 53 964 57 965 49 966 57 967 63 968 63 969 57 970 77 971 63 972 77 973 83 974 83 975 77 976 85 977 83 978 85 979 103 980 103 981 85 982 105 983 103 984 105 985 123 986 123 987 105 988 125 989 123 990 125 991 143 992 143 993 125 994 145 995 143 996 145 997 164 998 164 999 145 1000 163 1001 33 1002 43 1003 41 1004 41 1005 43 1006 49 1007 41 1008 49 1009 51 1010 51 1011 49 1012 63 1013 51 1014 63 1015 79 1016 79 1017 63 1018 83 1019 79 1020 83 1021 101 1022 101 1023 83 1024 103 1025 101 1026 103 1027 121 1028 121 1029 103 1030 123 1031 121 1032 123 1033 141 1034 141 1035 123 1036 143 1037 141 1038 143 1039 166 1040 166 1041 143 1042 165 1043 23 1044 27 1045 25 1046 25 1047 27 1048 41 1049 25 1050 41 1051 45 1052 45 1053 41 1054 51 1055 45 1056 51 1057 75 1058 75 1059 51 1060 79 1061 75 1062 79 1063 99 1064 99 1065 79 1066 101 1067 99 1068 101 1069 119 1070 119 1071 101 1072 121 1073 119 1074 121 1075 139 1076 139 1077 121 1078 141 1079 139 1080 141 1081 168 1082 168 1083 141 1084 167 1085 13 1086 19 1087 21 1088 21 1089 19 1090 25 1091 21 1092 25 1093 39 1094 39 1095 25 1096 45 1097 39 1098 45 1099 69 1100 69 1101 45 1102 75 1103 69 1104 75 1105 95 1106 95 1107 75 1108 99 1109 95 1110 99 1111 117 1112 117 1113 99 1114 119 1115 117 1116 119 1117 137 1118 137 1119 119 1120 139 1121 137 1122 139 1123 170 1124 170 1125 139 1126 169 1127 5 1128 7 1129 11 1130 11 1131 7 1132 21 1133 11 1134 21 1135 31 1136 31 1137 21 1138 39 1139 31 1140 39 1141 61 1142 61 1143 39 1144 69 1145 61 1146 69 1147 93 1148 93 1149 69 1150 95 1151 93 1152 95 1153 115 1154 115 1155 95 1156 117 1157 115 1158 117 1159 135 1160 135 1161 117 1162 137 1163 135 1164 137 1165 172 1166 172 1167 137 1168 171 1169 203 1170 175 1171 201 1172 201 1173 175 1174 173 1175 201 1176 173 1177 200 1178 200 1179 173 1180 172 1181 200 1182 172 1183 199 1184 199 1185 172 1186 171 1187 199 1188 171 1189 198 1190 198 1191 171 1192 170 1193 198 1194 170 1195 197 1196 197 1197 170 1198 169 1199 197 1200 169 1201 196 1202 196 1203 169 1204 168 1205 196 1206 168 1207 195 1208 195 1209 168 1210 167 1211 195 1212 167 1213 194 1214 194 1215 167 1216 166 1217 194 1218 166 1219 193 1220 193 1221 166 1222 165 1223 193 1224 165 1225 192 1226 192 1227 165 1228 164 1229 192 1230 164 1231 191 1232 191 1233 164 1234 163 1235 191 1236 163 1237 190 1238 190 1239 163 1240 162 1241 297 1242 303 1243 301 1244 309 1245 317 1246 311 1247 323 1248 327 1249 325 1250 333 1251 337 1252 330 1253 343 1254 345 1255 339 1256 200 1257 199 1258 215 1259 198 1260 197 1261 213 1262 196 1263 195 1264 211 1265 194 1266 193 1267 209 1268 192 1269 191 1270 207 1271 207 1272 191 1273 190 1274 203 1275 201 1276 219 1277 219 1278 201 1279 217 1280 219 1281 217 1282 222 1283 222 1284 217 1285 237 1286 222 1287 237 1288 239 1289 239 1290 237 1291 246 1292 246 1293 237 1294 259 1295 246 1296 259 1297 261 1298 261 1299 259 1300 270 1301 270 1302 259 1303 289 1304 270 1305 289 1306 291 1307 291 1308 289 1309 304 1310 304 1311 289 1312 319 1313 304 1314 319 1315 321 1316 321 1317 319 1318 328 1319 328 1320 319 1321 339 1322 328 1323 339 1324 341 1325 341 1326 339 1327 345 1328 341 1329 345 1330 349 1331 279 1332 281 1333 295 1334 190 1335 205 1336 207 1337 207 1338 205 1339 225 1340 207 1341 225 1342 227 1343 227 1344 225 1345 243 1346 227 1347 243 1348 245 1349 245 1350 243 1351 255 1352 245 1353 255 1354 265 1355 265 1356 255 1357 269 1358 265 1359 269 1360 275 1361 275 1362 269 1363 279 1364 275 1365 279 1366 293 1367 293 1368 279 1369 295 1370 193 1371 192 1372 209 1373 209 1374 192 1375 207 1376 209 1377 207 1378 229 1379 229 1380 207 1381 227 1382 229 1383 227 1384 249 1385 249 1386 227 1387 245 1388 249 1389 245 1390 267 1391 267 1392 245 1393 265 1394 267 1395 265 1396 287 1397 287 1398 265 1399 275 1400 287 1401 275 1402 301 1403 301 1404 275 1405 293 1406 301 1407 293 1408 297 1409 297 1410 293 1411 295 1412 195 1413 194 1414 211 1415 211 1416 194 1417 209 1418 211 1419 209 1420 231 1421 231 1422 209 1423 229 1424 231 1425 229 1426 251 1427 251 1428 229 1429 249 1430 251 1431 249 1432 273 1433 273 1434 249 1435 267 1436 273 1437 267 1438 299 1439 299 1440 267 1441 287 1442 299 1443 287 1444 311 1445 311 1446 287 1447 301 1448 311 1449 301 1450 309 1451 309 1452 301 1453 303 1454 197 1455 196 1456 213 1457 213 1458 196 1459 211 1460 213 1461 211 1462 233 1463 233 1464 211 1465 231 1466 233 1467 231 1468 253 1469 253 1470 231 1471 251 1472 253 1473 251 1474 277 1475 277 1476 251 1477 273 1478 277 1479 273 1480 307 1481 307 1482 273 1483 299 1484 307 1485 299 1486 325 1487 325 1488 299 1489 311 1490 325 1491 311 1492 323 1493 323 1494 311 1495 317 1496 199 1497 198 1498 215 1499 215 1500 198 1501 213 1502 215 1503 213 1504 235 1505 235 1506 213 1507 233 1508 235 1509 233 1510 257 1511 257 1512 233 1513 253 1514 257 1515 253 1516 283 1517 283 1518 253 1519 277 1520 283 1521 277 1522 313 1523 313 1524 277 1525 307 1526 313 1527 307 1528 330 1529 330 1530 307 1531 325 1532 330 1533 325 1534 333 1535 333 1536 325 1537 327 1538 201 1539 200 1540 217 1541 217 1542 200 1543 215 1544 217 1545 215 1546 237 1547 237 1548 215 1549 235 1550 237 1551 235 1552 259 1553 259 1554 235 1555 257 1556 259 1557 257 1558 289 1559 289 1560 257 1561 283 1562 289 1563 283 1564 319 1565 319 1566 283 1567 313 1568 319 1569 313 1570 339 1571 339 1572 313 1573 330 1574 339 1575 330 1576 343 1577 343 1578 330 1579 337 1580 281 1581 280 1582 295 1583 295 1584 280 1585 294 1586 295 1587 294 1588 297 1589 297 1590 294 1591 296 1592 297 1593 296 1594 303 1595 303 1596 296 1597 302 1598 303 1599 302 1600 309 1601 309 1602 302 1603 308 1604 309 1605 308 1606 317 1607 317 1608 308 1609 316 1610 317 1611 316 1612 323 1613 323 1614 316 1615 322 1616 323 1617 322 1618 327 1619 327 1620 322 1621 326 1622 327 1623 326 1624 333 1625 333 1626 326 1627 332 1628 333 1629 332 1630 337 1631 337 1632 332 1633 336 1634 337 1635 336 1636 343 1637 343 1638 336 1639 342 1640 343 1641 342 1642 345 1643 345 1644 342 1645 344 1646 345 1647 344 1648 349 1649 349 1650 344 1651 347 1652 162 1653 161 1654 190 1655 190 1656 161 1657 189 1658 96 1659 106 1660 80 1661 80 1662 106 1663 126 1664 80 1665 126 1666 72 1667 72 1668 126 1669 146 1670 72 1671 146 1672 70 1673 70 1674 146 1675 161 1676 70 1677 161 1678 71 1679 71 1680 161 1681 162 1682 71 1683 162 1684 73 1685 73 1686 162 1687 147 1688 73 1689 147 1690 81 1691 81 1692 147 1693 127 1694 81 1695 127 1696 97 1697 97 1698 127 1699 107 1700 255 1701 243 1702 269 1703 269 1704 243 1705 225 1706 269 1707 225 1708 279 1709 279 1710 225 1711 205 1712 279 1713 205 1714 281 1715 281 1716 205 1717 190 1718 281 1719 190 1720 280 1721 280 1722 190 1723 189 1724 280 1725 189 1726 278 1727 278 1728 189 1729 204 1730 278 1731 204 1732 268 1733 268 1734 204 1735 224 1736 268 1737 224 1738 254 1739 254 1740 224 1741 242 1742 347 1743 340 1744 346 1745 346 1746 340 1747 335 1748 340 1749 334 1750 335 1751 335 1752 334 1753 320 1754 335 1755 320 1756 315 1757 320 1758 314 1759 315 1760 315 1761 314 1762 290 1763 315 1764 290 1765 285 1766 290 1767 284 1768 285 1769 285 1770 284 1771 262 1772 285 1773 262 1774 263 1775 263 1776 262 1777 260 1778 263 1779 260 1780 241 1781 260 1782 240 1783 241 1784 241 1785 240 1786 238 1787 241 1788 238 1789 221 1790 177 1791 176 1792 218 1793 218 1794 176 1795 221 1796 218 1797 221 1798 220 1799 220 1800 221 1801 238 1802 176 1803 177 1804 148 1805 148 1806 177 1807 149 1808 149 1809 132 1810 148 1811 148 1812 132 1813 128 1814 132 1815 130 1816 128 1817 128 1818 130 1819 112 1820 128 1821 112 1822 108 1823 112 1824 110 1825 108 1826 108 1827 110 1828 90 1829 108 1830 90 1831 86 1832 90 1833 88 1834 86 1835 86 1836 88 1837 66 1838 86 1839 66 1840 64 1841 64 1842 66 1843 58 1844 64 1845 58 1846 34 1847 58 1848 36 1849 34 1850 34 1851 36 1852 28 1853 34 1854 28 1855 14 1856 1 1857 0 1858 8 1859 8 1860 0 1861 14 1862 8 1863 14 1864 16 1865 16 1866 14 1867 28 1868 0 1869 1 1870 2 1871 2 1872 1 1873 3 1874 3 1875 9 1876 2 1877 2 1878 9 1879 15 1880 9 1881 17 1882 15 1883 15 1884 17 1885 29 1886 15 1887 29 1888 35 1889 29 1890 37 1891 35 1892 35 1893 37 1894 59 1895 35 1896 59 1897 65 1898 59 1899 67 1900 65 1901 65 1902 67 1903 89 1904 65 1905 89 1906 87 1907 87 1908 89 1909 91 1910 87 1911 91 1912 109 1913 91 1914 111 1915 109 1916 109 1917 111 1918 113 1919 109 1920 113 1921 129 1922 175 1923 174 1924 133 1925 133 1926 174 1927 129 1928 133 1929 129 1930 131 1931 131 1932 129 1933 113 1934 174 1935 175 1936 202 1937 202 1938 175 1939 203 1940 203 1941 219 1942 202 1943 202 1944 219 1945 223 1946 219 1947 222 1948 223 1949 223 1950 222 1951 239 1952 223 1953 239 1954 247 1955 239 1956 246 1957 247 1958 247 1959 246 1960 261 1961 247 1962 261 1963 271 1964 261 1965 270 1966 271 1967 271 1968 270 1969 291 1970 271 1971 291 1972 305 1973 291 1974 304 1975 305 1976 305 1977 304 1978 321 1979 305 1980 321 1981 331 1982 349 1983 348 1984 341 1985 341 1986 348 1987 331 1988 341 1989 331 1990 328 1991 328 1992 331 1993 321 1994 348 1995 349 1996 346 1997 346 1998 349 1999 347 2000 348 2001 346 2002 176 2003 128 2004 108 2005 0 2006 0 2007 2 2008 174 2009 34 2010 14 2011 64 2012 64 2013 14 2014 0 2015 64 2016 0 2017 86 2018 86 2019 0 2020 108 2021 128 2022 0 2023 148 2024 148 2025 0 2026 174 2027 148 2028 174 2029 176 2030 176 2031 174 2032 202 2033 176 2034 202 2035 348 2036 263 2037 241 2038 221 2039 129 2040 174 2041 109 2042 109 2043 174 2044 2 2045 109 2046 2 2047 87 2048 87 2049 2 2050 15 2051 87 2052 15 2053 65 2054 65 2055 15 2056 35 2057 202 2058 223 2059 348 2060 348 2061 223 2062 247 2063 348 2064 247 2065 331 2066 331 2067 247 2068 271 2069 331 2070 271 2071 305 2072 315 2073 285 2074 335 2075 335 2076 285 2077 263 2078 335 2079 263 2080 346 2081 346 2082 263 2083 221 2084 346 2085 221 2086 176 2087</p>
        </triangles>
      </mesh>
      <extra>
        <technique profile="OpenCOLLADAMaya">
          <originalMayaNodeId>MeshShape</originalMayaNodeId>
          <double_sided>1</double_sided>
        </technique>
      </extra>
    </geometry>
  </library_geometries>
  <library_visual_scenes>
    <visual_scene id="VisualSceneNode" name="untitled">
      <node id="tskbd_panel_assembly_panel4_panel1_Mesh" name="Mesh" type="NODE">
        <translate sid="translate">0 0 0</translate>
        <rotate sid="rotateZ">0 0 1 0</rotate>
        <rotate sid="rotateY">0 1 0 0</rotate>
        <rotate sid="rotateX">1 0 0 0</rotate>
        <scale sid="scale">1 1 1</scale>
        <instance_geometry url="#MeshShape">
          <bind_material>
            <technique_common>
              <instance_material symbol="material_0" target="#material_1"/>
              <instance_material symbol="material_2" target="#material_3"/>
            </technique_common>
          </bind_material>
        </instance_geometry>
        <extra>
          <technique profile="OpenCOLLADAMaya">
            <originalMayaNodeId>Mesh</originalMayaNodeId>
          </technique>
        </extra>
      </node>
    </visual_scene>
  </library_visual_scenes>
  <scene>
    <instance_visual_scene url="#VisualSceneNode"/>
  </scene>
</COLLADA>